NAME	SYMBOL	TITLE	RANK IN GENE LIST	RANK METRIC SCORE	RUNNING ES	CORE ENRICHMENT	
row_0	HES1	NA	58	0.2787601947784424	0.059314415	No	
row_1	RCL1	NA	1131	0.13505969941616058	0.038076315	No	
row_2	ACACA	NA	1841	0.11188013851642609	0.029053599	No	
row_3	ELAVL3	NA	2180	0.10310682654380798	0.035838105	No	
row_4	TLE3	NA	2729	0.09238824248313904	0.030181527	No	
row_5	DHCR24	NA	3161	0.08478359878063202	0.028432395	No	
row_6	APC2	NA	4493	0.06487499922513962	-0.020838127	No	
row_7	PNRC1	NA	5042	0.05794496834278107	-0.034166608	No	
row_8	FAM193B	NA	5130	0.05691356211900711	-0.025654735	No	
row_9	ST8SIA1	NA	5199	0.056144796311855316	-0.016404483	No	
row_10	SQLE	NA	5223	0.05578843876719475	-0.005079261	No	
row_11	EN1	NA	5416	0.053672440350055695	-0.0023161266	No	
row_12	UTP18	NA	5494	0.05296987295150757	0.0057960716	No	
row_13	L2HGDH	NA	6353	0.04438804090023041	-0.02539314	No	
row_14	ARX	NA	7399	0.0346648171544075	-0.06770062	No	
row_15	SREBF2	NA	7456	0.034155476838350296	-0.06277378	No	
row_16	CDK2AP2	NA	8122	0.02820342220366001	-0.088328205	No	
row_17	AIFM1	NA	8149	0.028030725196003914	-0.083329365	No	
row_18	MEF2C	NA	8495	0.02532294951379299	-0.09420558	No	
row_19	ASXL2	NA	8645	0.02427447773516178	-0.09593196	No	
row_20	LHX2	NA	8719	0.02368655800819397	-0.09415084	No	
row_21	KHSRP	NA	10748	0.008298255503177643	-0.18939172	No	
row_22	PCNA	NA	10995	0.006521790288388729	-0.19971615	No	
row_23	SAP130	NA	11084	0.005921369884163141	-0.20261018	No	
row_24	LMAN1	NA	11373	0.0038295697886496782	-0.215545	No	
row_25	RAD9A	NA	11405	0.003640299430117011	-0.21621826	No	
row_26	PEX2	NA	11562	0.0023609520867466927	-0.22316079	No	
row_27	CLSPN	NA	11742	0.0011001121019944549	-0.23148526	No	
row_28	XPO1	NA	12097	-0.0014594874810427427	-0.2481077	No	
row_29	TMPO	NA	12395	-0.003513586474582553	-0.26154378	No	
row_30	ZDHHC5	NA	12439	-0.003801254089921713	-0.2627557	No	
row_31	DNAJB9	NA	12453	-0.003947989083826542	-0.26249868	No	
row_32	MRPS18B	NA	12991	-0.00819304957985878	-0.2863823	No	
row_33	PIK3IP1	NA	13063	-0.00884607806801796	-0.28781098	No	
row_34	TES	NA	13848	-0.015152749605476856	-0.3219694	No	
row_35	PDP1	NA	14017	-0.016550825908780098	-0.32632574	No	
row_36	FAR1	NA	14459	-0.020509960129857063	-0.34286994	No	
row_37	PPP1R10	NA	14918	-0.024599891155958176	-0.35931703	No	
row_38	SMAD6	NA	15745	-0.033288732171058655	-0.39144653	No	
row_39	ARL6IP6	NA	16417	-0.04111886024475098	-0.4144114	No	
row_40	IL6ST	NA	16521	-0.04225288704037666	-0.40993103	No	
row_41	NCK1	NA	16740	-0.045091819018125534	-0.4103239	No	
row_42	SMAD2	NA	16883	-0.046844154596328735	-0.40668797	No	
row_43	THAP5	NA	17555	-0.055875636637210846	-0.4263659	Yes	
row_44	UPF3B	NA	17605	-0.05663546919822693	-0.41609678	Yes	
row_45	DMAC2L	NA	17783	-0.05955646187067032	-0.4113049	Yes	
row_46	MEIS1	NA	17792	-0.059662844985723495	-0.39839858	Yes	
row_47	HOXA9	NA	17950	-0.06195148825645447	-0.39211577	Yes	
row_48	SOX2	NA	18580	-0.0738866925239563	-0.4057712	Yes	
row_49	NKX3-1	NA	18795	-0.07816298305988312	-0.39860627	Yes	
row_50	ETV1	NA	19028	-0.08499537408351898	-0.39078122	Yes	
row_51	STX5	NA	19251	-0.09130384773015976	-0.3810723	Yes	
row_52	GPX3	NA	19656	-0.10525711625814438	-0.37696856	Yes	
row_53	PSRC1	NA	20440	-0.15621498227119446	-0.37965882	Yes	
row_54	POU3F3	NA	20595	-0.17597325146198273	-0.34783515	Yes	
row_55	PAX6	NA	20695	-0.20225608348846436	-0.3075241	Yes	
row_56	EDEM1	NA	20813	-0.23541808128356934	-0.26068833	Yes	
row_57	CREBRF	NA	20851	-0.2617182433605194	-0.20416449	Yes	
row_58	H1-2	NA	20926	-0.400330126285553	-0.11853754	Yes	
row_59	CHAC1	NA	20941	-0.536477267742157	2.8731916E-4	Yes	
