NAME	SYMBOL	TITLE	RANK IN GENE LIST	RANK METRIC SCORE	RUNNING ES	CORE ENRICHMENT	
row_0	LRSAM1	NA	258	0.20121300220489502	-0.002481449	No	
row_1	DDIT4	NA	264	0.20007292926311493	0.0072487253	No	
row_2	POLR3D	NA	658	0.16063547134399414	-0.003801717	No	
row_3	STXBP5-AS1	NA	687	0.15808966755867004	0.0027204887	No	
row_4	PDLIM7	NA	706	0.15686413645744324	0.009666527	No	
row_5	ARHGEF37	NA	794	0.1510128676891327	0.012974966	No	
row_6	C15orf39	NA	859	0.14705681800842285	0.017201532	No	
row_7	TOP3B	NA	1029	0.1395108550786972	0.015960319	No	
row_8	GADD45GIP1	NA	1329	0.1275121569633484	0.007817083	No	
row_9	POU2F3	NA	1339	0.12710711359977722	0.013716309	No	
row_10	RCC1	NA	1342	0.12692125141620636	0.019945715	No	
row_11	SNHG3	NA	1441	0.12304535508155823	0.021326704	No	
row_12	GPATCH4	NA	1564	0.11921651661396027	0.021353038	No	
row_13	HSP90AB1	NA	1806	0.11282774806022644	0.015290389	No	
row_14	H2BC13	NA	2306	0.10073354840278625	-0.0038860063	No	
row_15	CSKMT	NA	2318	0.10048770159482956	5.8939145E-4	No	
row_16	LINC01756	NA	2383	0.09920807182788849	0.0024309356	No	
row_17	SF3B3	NA	2399	0.09887412190437317	0.0066319373	No	
row_18	GEMIN6	NA	2405	0.09871827811002731	0.01131009	No	
row_19	WDR74	NA	2418	0.09846971929073334	0.01563641	No	
row_20	ENGASE	NA	2530	0.09615329653024673	0.0150465695	No	
row_21	ANXA1	NA	2543	0.09583541750907898	0.019241583	No	
row_22	COMT	NA	2549	0.0955459475517273	0.023761611	No	
row_23	PIGW	NA	2792	0.0913776233792305	0.016581288	No	
row_24	RNF220	NA	3190	0.0842793732881546	0.001530909	No	
row_25	RBM12	NA	3422	0.08053655177354813	-0.005656376	No	
row_26	REXO4	NA	3597	0.07774889469146729	-0.010218574	No	
row_27	MAT2A	NA	3765	0.07533836364746094	-0.01456148	No	
row_28	MARCKSL1	NA	3871	0.07382922619581223	-0.015973112	No	
row_29	PRDX1	NA	3935	0.07300833612680435	-0.015389002	No	
row_30	DDX54	NA	4037	0.07162753492593765	-0.01671641	No	
row_31	DDX55	NA	4071	0.07112418860197067	-0.014771458	No	
row_32	PABPC4	NA	4196	0.06914407759904861	-0.017337967	No	
row_33	MYO19	NA	4527	0.06451278179883957	-0.030124655	No	
row_34	MRPL27	NA	4542	0.0643644705414772	-0.027595295	No	
row_35	ZNF343	NA	4628	0.06325601786375046	-0.02856411	No	
row_36	USE1	NA	4662	0.06277135759592056	-0.027035505	No	
row_37	EIF4A1	NA	4679	0.06251924484968185	-0.024695104	No	
row_38	TRMT12	NA	4895	0.05971229448914528	-0.0321445	No	
row_39	MAF1	NA	4902	0.059672147035598755	-0.029461097	No	
row_40	FERMT3	NA	5006	0.058430932462215424	-0.031543273	No	
row_41	RITA1	NA	5487	0.05305073410272598	-0.05217507	No	
row_42	TMEM242	NA	5543	0.052490442991256714	-0.05222574	No	
row_43	TFRC	NA	5553	0.05241509526968002	-0.050049536	No	
row_44	INTS5	NA	5567	0.052219491451978683	-0.04807705	No	
row_45	RHOBTB3	NA	5683	0.051163092255592346	-0.051103394	No	
row_46	RPS26	NA	5797	0.04997551068663597	-0.054091953	No	
row_47	TSC1	NA	5833	0.049631085246801376	-0.053315308	No	
row_48	CPNE1	NA	5960	0.04844322055578232	-0.057010636	No	
row_49	TUBB4B	NA	6130	0.046519797295331955	-0.06288698	No	
row_50	NDUFAF1	NA	6349	0.04441512003540993	-0.07124435	No	
row_51	PRKAG1	NA	6446	0.04335809499025345	-0.07373839	No	
row_52	TNPO3	NA	6452	0.04332263395190239	-0.07182143	No	
row_53	MPDU1	NA	6533	0.04246553033590317	-0.07358409	No	
row_54	AKR1A1	NA	6601	0.04178878292441368	-0.07475008	No	
row_55	GDF15	NA	6608	0.041737619787454605	-0.07296062	No	
row_56	CCT6B	NA	6765	0.040331292897462845	-0.078515045	No	
row_57	TTC4	NA	6787	0.04008086398243904	-0.07753555	No	
row_58	NDUFAB1	NA	6833	0.0395863875746727	-0.0777445	No	
row_59	NSFL1C	NA	6855	0.03941592946648598	-0.07679814	No	
row_60	LDLR	NA	7057	0.03757923096418381	-0.08467188	No	
row_61	TXNRD2	NA	7063	0.037497781217098236	-0.08304526	No	
row_62	VPS25	NA	7071	0.03746433183550835	-0.081517294	No	
row_63	PPP1R15A	NA	7169	0.03653215244412422	-0.084400065	No	
row_64	DUSP1	NA	7208	0.03620405122637749	-0.08443817	No	
row_65	MYL12A	NA	7212	0.03615999221801758	-0.08278125	No	
row_66	MTERF4	NA	7367	0.034914180636405945	-0.0885087	No	
row_67	GTF2B	NA	7433	0.034340519458055496	-0.089948975	No	
row_68	MTREX	NA	7450	0.034203168004751205	-0.089019984	No	
row_69	RNF185	NA	7458	0.03414493799209595	-0.087657474	No	
row_70	JUNB	NA	7507	0.03370707482099533	-0.08830496	No	
row_71	CITED2	NA	7593	0.03287731111049652	-0.090788	No	
row_72	EIF3A	NA	7657	0.03224007040262222	-0.09223598	No	
row_73	PHLDA1	NA	7691	0.03199753165245056	-0.092241295	No	
row_74	FUS	NA	7719	0.0317763090133667	-0.09196669	No	
row_75	FTL	NA	7779	0.031321413815021515	-0.093266495	No	
row_76	MRPL3	NA	7805	0.031113924458622932	-0.09292792	No	
row_77	BEST1	NA	7913	0.030200820416212082	-0.096611194	No	
row_78	MNAT1	NA	8036	0.029027199372649193	-0.10108034	No	
row_79	MRPL35	NA	8039	0.02900518663227558	-0.099731565	No	
row_80	CCDC80	NA	8074	0.028571130707859993	-0.09995616	No	
row_81	AMD1	NA	8076	0.028566457331180573	-0.098580755	No	
row_82	RPRD2	NA	8094	0.028460022062063217	-0.097986534	No	
row_83	AQR	NA	8151	0.02800828032195568	-0.099306	No	
row_84	GTF3C3	NA	8158	0.02794361300766468	-0.098204106	No	
row_85	TIMM17A	NA	8167	0.027899565175175667	-0.09720139	No	
row_86	NEK9	NA	8228	0.027417270466685295	-0.09874429	No	
row_87	MRPL58	NA	8254	0.02720707096159458	-0.09860045	No	
row_88	CPED1	NA	8372	0.026170911267399788	-0.10296951	No	
row_89	MRPL1	NA	8373	0.026170814409852028	-0.10166503	No	
row_90	COPA	NA	8446	0.025652699172496796	-0.10387779	No	
row_91	SMARCAD1	NA	8466	0.02556634694337845	-0.10352478	No	
row_92	ACBD6	NA	8616	0.024476639926433563	-0.10953003	No	
row_93	KCTD10	NA	8620	0.024462459608912468	-0.10845618	No	
row_94	EIF3G	NA	8685	0.023918667808175087	-0.11036743	No	
row_95	SLC9A1	NA	8834	0.022861599922180176	-0.1164047	No	
row_96	RMND5B	NA	8851	0.02276458404958248	-0.11604587	No	
row_97	TMEM69	NA	8852	0.02275400049984455	-0.1149117	No	
row_98	ANAPC5	NA	8884	0.02250516600906849	-0.115293175	No	
row_99	PPP2R1B	NA	8912	0.022324861958622932	-0.11548968	No	
row_100	SRSF7	NA	8969	0.02187812142074108	-0.11711471	No	
row_101	NDUFA7	NA	9210	0.020137710496783257	-0.127749	No	
row_102	ANKRD40	NA	9257	0.01985459215939045	-0.12898998	No	
row_103	NRDC	NA	9258	0.01985226757824421	-0.12800044	No	
row_104	GPBP1L1	NA	9276	0.01977609656751156	-0.12783906	No	
row_105	RPL36	NA	9429	0.01853414624929428	-0.134286	No	
row_106	ARL15	NA	9561	0.017473792657256126	-0.13976745	No	
row_107	SNRPB	NA	9573	0.017371661961078644	-0.13943498	No	
row_108	GTPBP2	NA	9657	0.016713421791791916	-0.14262672	No	
row_109	CALM1	NA	9805	0.015592922456562519	-0.1489778	No	
row_110	MCL1	NA	9813	0.015534594655036926	-0.14854293	No	
row_111	SRSF2	NA	9831	0.015391009859740734	-0.14860012	No	
row_112	C11orf24	NA	9888	0.014955004677176476	-0.15057023	No	
row_113	JSRP1	NA	9918	0.01463054958730936	-0.15124723	No	
row_114	BRK1	NA	10009	0.013823231682181358	-0.15492249	No	
row_115	SFPQ	NA	10125	0.012895185500383377	-0.1598563	No	
row_116	ZC3HC1	NA	10235	0.012076042592525482	-0.16453998	No	
row_117	POLDIP3	NA	10276	0.011732839979231358	-0.16589484	No	
row_118	RBM34	NA	10317	0.011522664688527584	-0.16726017	No	
row_119	RPL17	NA	10543	0.009803897701203823	-0.17768218	No	
row_120	SKP1	NA	10554	0.009714165702462196	-0.17768289	No	
row_121	GTF3C5	NA	10644	0.009090290404856205	-0.18154556	No	
row_122	RPS9	NA	10656	0.009016846306622028	-0.18162952	No	
row_123	COPS4	NA	10753	0.00828094407916069	-0.18587199	No	
row_124	PARP2	NA	10873	0.007402143906801939	-0.19127356	No	
row_125	TUBA1C	NA	10898	0.007223561406135559	-0.19207731	No	
row_126	AGK	NA	10933	0.006961581762880087	-0.19337903	No	
row_127	PPP1R8	NA	10964	0.006763582117855549	-0.19449666	No	
row_128	CDKAL1	NA	10966	0.006738950032740831	-0.19420925	No	
row_129	RPS8	NA	11003	0.006473745219409466	-0.19563228	No	
row_130	PPP4C	NA	11044	0.0061604962684214115	-0.19726488	No	
row_131	ACTG1	NA	11223	0.004963861312717199	-0.20564902	No	
row_132	ORC5	NA	11227	0.004904196597635746	-0.20555004	No	
row_133	ARID1A	NA	11232	0.004885207396000624	-0.2055005	No	
row_134	RPLP1	NA	11258	0.004685891326516867	-0.20647924	No	
row_135	EEF1A1	NA	11320	0.004288063384592533	-0.2092235	No	
row_136	TUBA1B	NA	11325	0.0042542885057628155	-0.20920542	No	
row_137	CAPZA1	NA	11369	0.0038810642436146736	-0.2110971	No	
row_138	COA1	NA	11407	0.003596788039430976	-0.21271203	No	
row_139	RPL4	NA	11451	0.0032799779437482357	-0.21463369	No	
row_140	SAR1B	NA	11488	0.0029840762726962566	-0.21623066	No	
row_141	FTH1	NA	11547	0.0024685924872756004	-0.21892014	No	
row_142	MKRN2	NA	11557	0.002398102544248104	-0.21923703	No	
row_143	BCL2L13	NA	11574	0.0022897713351994753	-0.21989878	No	
row_144	C12orf73	NA	11603	0.002095815259963274	-0.22115208	No	
row_145	CLASP1	NA	11620	0.0019306351896375418	-0.22183172	No	
row_146	RPL36A	NA	11703	0.0014353644801303744	-0.22573651	No	
row_147	ZSCAN9	NA	11734	0.0011573040392249823	-0.22713357	No	
row_148	RACK1	NA	11741	0.0011038444936275482	-0.22736952	No	
row_149	RPLP0	NA	11747	0.0010598829248920083	-0.22755913	No	
row_150	H2AW	NA	11817	6.314909551292658E-4	-0.2308736	No	
row_151	HNRNPH1	NA	11839	4.953457391820848E-4	-0.23186724	No	
row_152	SHARPIN	NA	11869	2.8148540877737105E-4	-0.23325948	No	
row_153	UBE2L3	NA	11883	2.0788841356988996E-4	-0.2338795	No	
row_154	ZNF93	NA	11917	-5.4979551350697875E-5	-0.235477	No	
row_155	RPL10	NA	11957	-4.999418160878122E-4	-0.23734327	No	
row_156	NFYC	NA	12002	-7.500899955630302E-4	-0.23943952	No	
row_157	COPS5	NA	12054	-0.0010963412933051586	-0.24185796	No	
row_158	TMA16	NA	12135	-0.001752618234604597	-0.24564995	No	
row_159	RPL37	NA	12189	-0.00205340888351202	-0.24811767	No	
row_160	RPS12	NA	12191	-0.002071061637252569	-0.24806294	No	
row_161	MAIP1	NA	12256	-0.0026069730520248413	-0.25103647	No	
row_162	HEXIM1	NA	12263	-0.002627096837386489	-0.25119647	No	
row_163	RPL12	NA	12302	-0.0029600004199892282	-0.25289163	No	
row_164	ADNP	NA	12305	-0.002987419255077839	-0.2528397	No	
row_165	RPL38	NA	12396	-0.0035152952186763287	-0.25702876	No	
row_166	ACP2	NA	12442	-0.0038443214725703	-0.25901926	No	
row_167	HHLA3	NA	12560	-0.004832480568438768	-0.26445195	No	
row_168	RPS6	NA	12581	-0.00500909611582756	-0.2651721	No	
row_169	ROCK2	NA	12684	-0.005878554657101631	-0.26982525	No	
row_170	ZNF770	NA	12685	-0.005878979805856943	-0.26953223	No	
row_171	MAML1	NA	12690	-0.005888056475669146	-0.2694327	No	
row_172	AP3S2	NA	12717	-0.0061343456618487835	-0.27038774	No	
row_173	SMIM30	NA	12725	-0.006161559838801622	-0.27042004	No	
row_174	C12orf57	NA	12740	-0.006273230072110891	-0.27078626	No	
row_175	SRP72	NA	12761	-0.006403838749974966	-0.27143687	No	
row_176	DHX29	NA	12770	-0.0064891004003584385	-0.27150136	No	
row_177	CHEK1	NA	12797	-0.006710472516715527	-0.27242768	No	
row_178	EIF2D	NA	12853	-0.007157842628657818	-0.27473795	No	
row_179	IQCH	NA	12911	-0.007528179325163364	-0.27712673	No	
row_180	TAF1D	NA	12948	-0.007850784808397293	-0.27848113	No	
row_181	OAZ1	NA	12949	-0.00785331055521965	-0.27808967	No	
row_182	C5orf24	NA	12985	-0.008145317435264587	-0.2793809	No	
row_183	MRPS18B	NA	12991	-0.00819304957985878	-0.27921498	No	
row_184	RPL41	NA	13042	-0.008680504746735096	-0.28120688	No	
row_185	SEC22B	NA	13090	-0.009064465761184692	-0.28303418	No	
row_186	SRSF3	NA	13112	-0.009258074685931206	-0.28359103	No	
row_187	PTMA	NA	13120	-0.009312260895967484	-0.2834663	No	
row_188	LINC01732	NA	13131	-0.009379340335726738	-0.2834837	No	
row_189	SNHG12	NA	13227	-0.010058305226266384	-0.2875891	No	
row_190	RPS28	NA	13277	-0.01042602676898241	-0.28944552	No	
row_191	LUC7L2	NA	13299	-0.010627208277583122	-0.28993413	No	
row_192	HNRNPH3	NA	13316	-0.010758922435343266	-0.29017374	No	
row_193	RPS20	NA	13404	-0.011477063409984112	-0.29382044	No	
row_194	ZNF621	NA	13447	-0.01193933468312025	-0.29526198	No	
row_195	GLUL	NA	13478	-0.01224331185221672	-0.2961065	No	
row_196	PXN-AS1	NA	13540	-0.012683331966400146	-0.2984323	No	
row_197	MFSD11	NA	13550	-0.01283171121031046	-0.29822913	No	
row_198	ATF6	NA	13676	-0.01382418256253004	-0.30360153	No	
row_199	DDX6	NA	13717	-0.014145859517157078	-0.30483612	No	
row_200	IER5	NA	13753	-0.014436799101531506	-0.30581373	No	
row_201	IARS1	NA	13773	-0.014595462940633297	-0.30600756	No	
row_202	PCLAF	NA	13964	-0.016184259206056595	-0.31441432	No	
row_203	SFT2D3	NA	14208	-0.018214792013168335	-0.32528993	No	
row_204	SNHG5	NA	14316	-0.01915217563509941	-0.32952392	No	
row_205	CDC42	NA	14326	-0.019239796325564384	-0.32900134	No	
row_206	CLASRP	NA	14370	-0.01966109499335289	-0.3301065	No	
row_207	PIH1D1	NA	14392	-0.019903384149074554	-0.33013275	No	
row_208	CCNL1	NA	14396	-0.01995052583515644	-0.32928377	No	
row_209	GARS1-DT	NA	14429	-0.020234303548932076	-0.32982695	No	
row_210	KAT5	NA	14463	-0.02051304467022419	-0.3304047	No	
row_211	TTI2	NA	14481	-0.020733460783958435	-0.3301956	No	
row_212	ASH2L	NA	14538	-0.021190468221902847	-0.3318549	No	
row_213	NCSTN	NA	14568	-0.021502435207366943	-0.33218938	No	
row_214	SLC4A1AP	NA	14584	-0.02162981405854225	-0.33183864	No	
row_215	SSR4P1	NA	14589	-0.021686121821403503	-0.33095166	No	
row_216	CAP1	NA	14616	-0.0219503752887249	-0.33111832	No	
row_217	SNHG7	NA	14630	-0.022058621048927307	-0.3306492	No	
row_218	BBS1	NA	14699	-0.022584669291973114	-0.33282092	No	
row_219	RPPH1	NA	14820	-0.023613978177309036	-0.3374629	No	
row_220	ANP32E	NA	14829	-0.02371188998222351	-0.33666894	No	
row_221	EME1	NA	14896	-0.02432011254131794	-0.33865717	No	
row_222	PPP1R10	NA	14918	-0.024599891155958176	-0.3384493	No	
row_223	FAM53C	NA	14966	-0.02514997497200966	-0.33947483	No	
row_224	RAB5A	NA	15030	-0.025839412584900856	-0.34124187	No	
row_225	MARCHF7	NA	15041	-0.02593907341361046	-0.34043384	No	
row_226	LRP6	NA	15087	-0.026358500123023987	-0.34130213	No	
row_227	SNHG17	NA	15144	-0.026875365525484085	-0.34267807	No	
row_228	AAGAB	NA	15196	-0.027440832927823067	-0.34378338	No	
row_229	ZWILCH	NA	15308	-0.028435325250029564	-0.3477486	No	
row_230	ATAD2	NA	15491	-0.030363742262125015	-0.35506067	No	
row_231	THRB	NA	15542	-0.030869318172335625	-0.35594657	No	
row_232	EFHB	NA	15565	-0.031104564666748047	-0.355463	No	
row_233	SUPT7L	NA	15703	-0.032781317830085754	-0.3604724	No	
row_234	TMEM128	NA	15963	-0.03596385940909386	-0.3712392	No	
row_235	CSPP1	NA	16094	-0.037548478692770004	-0.37567154	No	
row_236	BMERB1	NA	16101	-0.03760622814297676	-0.374088	No	
row_237	UBE3B	NA	16171	-0.038167793303728104	-0.37553146	No	
row_238	LINC00869	NA	16221	-0.038729406893253326	-0.3759771	No	
row_239	TMEM168	NA	16230	-0.038844767957925797	-0.3744288	No	
row_240	BTK	NA	16276	-0.03939181566238403	-0.37464747	No	
row_241	TANK	NA	16342	-0.040276702493429184	-0.37579185	No	
row_242	UBE2S	NA	16431	-0.04128919914364815	-0.37800106	No	
row_243	COG4	NA	16449	-0.04152088984847069	-0.37675583	No	
row_244	SAV1	NA	16456	-0.04159678891301155	-0.3749734	No	
row_245	GARS1	NA	16470	-0.0417308434844017	-0.3735237	No	
row_246	TRIP4	NA	16563	-0.042795728892087936	-0.3758518	No	
row_247	ZNF681	NA	16628	-0.043657105416059494	-0.3767792	No	
row_248	HERPUD1	NA	16686	-0.044434331357479095	-0.37732843	No	
row_249	CSNK1A1	NA	16697	-0.04462134465575218	-0.3755892	No	
row_250	RFX3	NA	16704	-0.04471337050199509	-0.3736514	No	
row_251	C11orf54	NA	16771	-0.045663077384233475	-0.3745758	No	
row_252	BTG1	NA	16789	-0.045797429978847504	-0.3731174	No	
row_253	REXO5	NA	16946	-0.04755432531237602	-0.37831175	No	
row_254	STK17B	NA	16986	-0.04801025986671448	-0.37780988	No	
row_255	ZSCAN16-AS1	NA	17214	-0.05125930905342102	-0.38626254	No	
row_256	TUBGCP3	NA	17232	-0.051582593470811844	-0.38451576	No	
row_257	BAZ2B	NA	17665	-0.05765914171934128	-0.40259025	No	
row_258	ADARB1	NA	17690	-0.05804876983165741	-0.4008606	No	
row_259	SNHG1	NA	17696	-0.058185845613479614	-0.39820278	No	
row_260	AKIRIN2	NA	17871	-0.06087229773402214	-0.4036062	Yes	
row_261	ARRDC3	NA	17910	-0.06135746091604233	-0.4023905	Yes	
row_262	H2AX	NA	17933	-0.06176867336034775	-0.4003785	Yes	
row_263	AUNIP	NA	17961	-0.062140218913555145	-0.3985904	Yes	
row_264	PIGV	NA	17970	-0.062254853546619415	-0.39587525	Yes	
row_265	AGPAT4	NA	18095	-0.06428917497396469	-0.39868373	Yes	
row_266	PLEKHM3	NA	18106	-0.06450957804918289	-0.39595318	Yes	
row_267	DNAJB4	NA	18196	-0.06629637628793716	-0.3969644	Yes	
row_268	PTEN	NA	18227	-0.06697645783424377	-0.39508072	Yes	
row_269	GIHCG	NA	18356	-0.06962963938713074	-0.397817	Yes	
row_270	ZNF830	NA	18372	-0.06992313265800476	-0.39505905	Yes	
row_271	BRD2	NA	18443	-0.07111610472202301	-0.3949087	Yes	
row_272	ANKRD13C	NA	18477	-0.0717848539352417	-0.39293084	Yes	
row_273	GFI1B	NA	18492	-0.07198020815849304	-0.39002186	Yes	
row_274	INTS6	NA	18566	-0.0735824778676033	-0.38989404	Yes	
row_275	CSNK1G3	NA	18630	-0.07489605247974396	-0.38921586	Yes	
row_276	ZSCAN12	NA	18663	-0.07545239478349686	-0.38700667	Yes	
row_277	IPP	NA	18678	-0.07587231695652008	-0.38390368	Yes	
row_278	SNHG32	NA	18832	-0.07916363328695297	-0.38737705	Yes	
row_279	TRIP11	NA	18893	-0.08124352991580963	-0.38623697	Yes	
row_280	H4C3	NA	18903	-0.08143585175275803	-0.38261423	Yes	
row_281	NR1H3	NA	19089	-0.08611238747835159	-0.38729295	Yes	
row_282	MBD6	NA	19095	-0.08630554378032684	-0.38323352	Yes	
row_283	LINC01029	NA	19110	-0.08669985085725784	-0.37959087	Yes	
row_284	ERI2	NA	19241	-0.09107598662376404	-0.38135514	Yes	
row_285	NFAT5	NA	19346	-0.09445765614509583	-0.38169003	Yes	
row_286	ZNF397	NA	19351	-0.0945238396525383	-0.37717247	Yes	
row_287	SLC3A2	NA	19366	-0.09508760273456573	-0.37311172	Yes	
row_288	ST7L	NA	19496	-0.0992826521396637	-0.37441844	Yes	
row_289	KLF6	NA	19555	-0.10135334730148315	-0.372179	Yes	
row_290	NR3C1	NA	19633	-0.10447940975427628	-0.3707051	Yes	
row_291	SOCS1	NA	19684	-0.1062876284122467	-0.3678318	Yes	
row_292	MYSM1	NA	19787	-0.11038778722286224	-0.36727569	Yes	
row_293	TOB1	NA	19866	-0.1141778826713562	-0.36536685	Yes	
row_294	DLGAP1-AS2	NA	19938	-0.11800361424684525	-0.36292788	Yes	
row_295	TYW5	NA	20138	-0.12812121212482452	-0.36619157	Yes	
row_296	NEAT1	NA	20178	-0.13100744783878326	-0.3615527	Yes	
row_297	TRAPPC6B	NA	20189	-0.13203439116477966	-0.35545635	Yes	
row_298	KLLN	NA	20198	-0.13237494230270386	-0.34924605	Yes	
row_299	ING3	NA	20363	-0.14758801460266113	-0.34984222	Yes	
row_300	INTS6-AS1	NA	20415	-0.15287911891937256	-0.34469503	Yes	
row_301	H2BC7	NA	20446	-0.15667855739593506	-0.33834016	Yes	
row_302	H3C10	NA	20492	-0.16304059326648712	-0.33239552	Yes	
row_303	H4C2	NA	20526	-0.16637426614761353	-0.32570285	Yes	
row_304	CDC25C	NA	20565	-0.17180052399635315	-0.31898212	Yes	
row_305	GADD45B	NA	20631	-0.1828605979681015	-0.31301942	Yes	
row_306	DDIT3	NA	20640	-0.18689286708831787	-0.3040917	Yes	
row_307	NFKBIZ	NA	20674	-0.195517897605896	-0.29594633	Yes	
row_308	H2BC17	NA	20687	-0.2003479152917862	-0.2865419	Yes	
row_309	H4C5	NA	20719	-0.2061322182416916	-0.2777705	Yes	
row_310	MYLIP	NA	20728	-0.20835702121257782	-0.26777285	Yes	
row_311	H3C12	NA	20792	-0.2279847115278244	-0.25946397	Yes	
row_312	H4C8	NA	20835	-0.25187021493911743	-0.24894615	Yes	
row_313	TOB1-AS1	NA	20846	-0.2587757706642151	-0.23653239	Yes	
row_314	NFYC-AS1	NA	20875	-0.2878211736679077	-0.22354372	Yes	
row_315	MKRN3	NA	20877	-0.28841903805732727	-0.20921597	Yes	
row_316	TXNIP	NA	20882	-0.29297059774398804	-0.19480681	Yes	
row_317	H2AC13	NA	20884	-0.2947203814983368	-0.18016496	Yes	
row_318	ZC3H6	NA	20889	-0.3038039207458496	-0.16521583	Yes	
row_319	H2AC17	NA	20913	-0.34036919474601746	-0.14936544	Yes	
row_320	EGR1	NA	20923	-0.384009450674057	-0.13066092	Yes	
row_321	H1-2	NA	20926	-0.400330126285553	-0.110803455	Yes	
row_322	ATF3	NA	20927	-0.4011898636817932	-0.09080615	Yes	
row_323	H2AC7	NA	20929	-0.4014430344104767	-0.07084472	Yes	
row_324	H1-3	NA	20945	-0.6829494833946228	-0.03753048	Yes	
row_325	H1-4	NA	20946	-0.7539213299751282	4.872472E-5	Yes	
