NAME	SYMBOL	TITLE	RANK IN GENE LIST	RANK METRIC SCORE	RUNNING ES	CORE ENRICHMENT	
row_0	PNOC	NA	23	0.33045464754104614	0.022193303	Yes	
row_1	EFNA3	NA	46	0.28624340891838074	0.04131704	Yes	
row_2	ADM	NA	47	0.2851848900318146	0.061428927	Yes	
row_3	HES1	NA	58	0.2787601947784424	0.08060464	Yes	
row_4	TUBA4B	NA	338	0.18970893323421478	0.08050509	Yes	
row_5	KCNQ4	NA	339	0.18950136005878448	0.09386915	Yes	
row_6	CNN2	NA	399	0.18196135759353638	0.10385124	Yes	
row_7	LCAT	NA	555	0.16844558715820312	0.10824248	Yes	
row_8	USH1G	NA	576	0.16693763434886932	0.119049124	Yes	
row_9	IFRD2	NA	621	0.1628466248512268	0.12840784	Yes	
row_10	PDLIM7	NA	706	0.15686413645744324	0.13541228	Yes	
row_11	CLUH	NA	758	0.15345023572444916	0.14377017	Yes	
row_12	DLX1	NA	892	0.14585570991039276	0.14763112	Yes	
row_13	IGSF21	NA	985	0.14144326746463776	0.15316159	Yes	
row_14	TAL1	NA	1081	0.137529194355011	0.15827109	Yes	
row_15	MGAT4C	NA	1143	0.13443346321582794	0.16480477	Yes	
row_16	MOV10	NA	1186	0.1327730268239975	0.17213924	Yes	
row_17	RASGRP2	NA	1226	0.13114428520202637	0.17950378	Yes	
row_18	PLEC	NA	1232	0.13092438876628876	0.18849532	Yes	
row_19	PAX7	NA	1254	0.13013896346092224	0.19665852	Yes	
row_20	S1PR1	NA	1265	0.12963883578777313	0.20531787	Yes	
row_21	LMOD3	NA	1418	0.12377138435840607	0.20670351	Yes	
row_22	TMEM132E	NA	1654	0.1169668436050415	0.20359962	Yes	
row_23	RAB5C	NA	1695	0.11589813232421875	0.20984066	Yes	
row_24	PLA2G10	NA	1802	0.11311925947666168	0.21269731	Yes	
row_25	ZNF513	NA	1832	0.11203645914793015	0.2191974	Yes	
row_26	HOXC6	NA	1834	0.11198936402797699	0.22704685	Yes	
row_27	TUBA4A	NA	1876	0.11091164499521255	0.23288791	Yes	
row_28	LRP8	NA	1891	0.11045442521572113	0.24000108	Yes	
row_29	NCDN	NA	1959	0.10818684101104736	0.24439394	Yes	
row_30	SLC25A29	NA	2311	0.10065195709466934	0.23453563	Yes	
row_31	CEND1	NA	2427	0.09826402366161346	0.23590988	Yes	
row_32	RABGGTA	NA	2450	0.09784987568855286	0.24174766	Yes	
row_33	NEURL1	NA	2546	0.09562604129314423	0.24390206	Yes	
row_34	CYB5D1	NA	2727	0.09240054339170456	0.2417227	Yes	
row_35	BAHD1	NA	2746	0.09216337651014328	0.24735272	Yes	
row_36	PPM1J	NA	2773	0.0917106494307518	0.2525643	Yes	
row_37	PRSS36	NA	2782	0.09154152125120163	0.25863355	Yes	
row_38	CPNE9	NA	2826	0.0907713919878006	0.26295766	Yes	
row_39	ADAMTS4	NA	2829	0.09068682789802551	0.2692565	Yes	
row_40	RFX4	NA	2861	0.09010274708271027	0.27411315	Yes	
row_41	OBSCN	NA	2876	0.08977335691452026	0.27976784	Yes	
row_42	DCTN1	NA	2910	0.08915223181247711	0.28446087	Yes	
row_43	NRGN	NA	2937	0.08868002891540527	0.28945875	Yes	
row_44	GNAO1	NA	2938	0.0886683315038681	0.29571185	Yes	
row_45	PAK1IP1	NA	3012	0.0875619500875473	0.29836035	Yes	
row_46	TMEM259	NA	3115	0.08566799014806747	0.2994743	Yes	
row_47	EMILIN1	NA	3347	0.08162938803434372	0.29407158	Yes	
row_48	CAV1	NA	3357	0.08148021250963211	0.29938295	Yes	
row_49	RBM12	NA	3422	0.08053655177354813	0.3019708	Yes	
row_50	STOML2	NA	3482	0.07953989505767822	0.30472988	Yes	
row_51	MAZ	NA	3545	0.07855835556983948	0.30727485	Yes	
row_52	MYOG	NA	3588	0.07782063633203506	0.31073394	Yes	
row_53	SOX5	NA	3596	0.07776660472154617	0.31588006	Yes	
row_54	ARHGEF15	NA	3654	0.0769033432006836	0.31854984	Yes	
row_55	TPCN1	NA	3672	0.07666517794132233	0.32313517	Yes	
row_56	GPR3	NA	3806	0.0747683122754097	0.3219829	Yes	
row_57	BAX	NA	3890	0.07364451140165329	0.3231668	Yes	
row_58	RHOG	NA	3940	0.07299330085515976	0.3259473	Yes	
row_59	TAOK2	NA	4206	0.0689857229590416	0.3180104	Yes	
row_60	DUOX2	NA	4237	0.06851840019226074	0.3213932	Yes	
row_61	SLC13A5	NA	4264	0.06811702996492386	0.32494092	Yes	
row_62	CNTNAP5	NA	4300	0.0673946738243103	0.32800293	Yes	
row_63	PALM	NA	4309	0.06726713478565216	0.3323603	Yes	
row_64	SLC26A9	NA	4408	0.06594610959291458	0.33227667	Yes	
row_65	TRIP10	NA	4546	0.0643128901720047	0.3301938	Yes	
row_66	PHF23	NA	4671	0.06261042505502701	0.32861888	Yes	
row_67	PRRX1	NA	4674	0.06257399171590805	0.33293512	Yes	
row_68	KLHDC7A	NA	4844	0.060394976288080215	0.32903007	Yes	
row_69	HIRA	NA	4847	0.06032584235072136	0.33318776	Yes	
row_70	SP7	NA	4850	0.06031326577067375	0.3373446	Yes	
row_71	FIZ1	NA	4872	0.0600840225815773	0.34056735	Yes	
row_72	MRPL40	NA	5053	0.05785980820655823	0.3359521	Yes	
row_73	HARS2	NA	5213	0.05591772124171257	0.3322144	Yes	
row_74	FLT1	NA	5233	0.05567670240998268	0.33522296	Yes	
row_75	NGF	NA	5428	0.05353296920657158	0.32962626	Yes	
row_76	M6PR	NA	5485	0.05306430906057358	0.33066314	Yes	
row_77	NKX2-3	NA	5562	0.052270449697971344	0.3306779	Yes	
row_78	GRIN2A	NA	5586	0.05202023312449455	0.33323535	Yes	
row_79	NEUROG1	NA	5762	0.050356391817331314	0.3283325	Yes	
row_80	GAD1	NA	5822	0.04976474493741989	0.32899177	Yes	
row_81	SMARCD2	NA	5893	0.049079734832048416	0.32907134	Yes	
row_82	CPNE1	NA	5960	0.04844322055578232	0.32929927	Yes	
row_83	NR5A2	NA	6045	0.04733961075544357	0.3285798	Yes	
row_84	NPTXR	NA	6095	0.04688253626227379	0.3295189	Yes	
row_85	UQCRC1	NA	6112	0.04665856435894966	0.33203644	Yes	
row_86	MNT	NA	6165	0.046244554221630096	0.33278564	Yes	
row_87	RAB1B	NA	6272	0.04515829309821129	0.33084953	Yes	
row_88	LIN28A	NA	6297	0.04495739936828613	0.3328606	Yes	
row_89	FES	NA	6387	0.04398515447974205	0.331663	Yes	
row_90	CRMP1	NA	6489	0.04298413544893265	0.32981512	Yes	
row_91	TMEM88	NA	6541	0.042376864701509476	0.33033988	Yes	
row_92	ARL4D	NA	6595	0.04184936732053757	0.3307308	Yes	
row_93	RASL12	NA	6612	0.04170189052820206	0.33289877	Yes	
row_94	CCDC177	NA	6638	0.041427962481975555	0.33461264	Yes	
row_95	ACVR1C	NA	6691	0.04093986004590988	0.33498773	Yes	
row_96	LZTS2	NA	6694	0.040934253484010696	0.33777788	Yes	
row_97	SIX4	NA	6702	0.0408703051507473	0.340322	Yes	
row_98	MYPN	NA	6723	0.040660686790943146	0.3422233	Yes	
row_99	HNRNPR	NA	6756	0.04041757062077522	0.34352773	Yes	
row_100	HOXC10	NA	6785	0.04011864960193634	0.34500432	Yes	
row_101	TBR1	NA	6799	0.039891112595796585	0.34718952	Yes	
row_102	NAA38	NA	6824	0.03965495526790619	0.34882668	Yes	
row_103	CAVIN1	NA	6847	0.03945482522249222	0.3505463	Yes	
row_104	CKB	NA	6919	0.03884268179535866	0.34985563	Yes	
row_105	NYX	NA	6922	0.03881002962589264	0.35249597	Yes	
row_106	ANXA4	NA	6961	0.038495540618896484	0.35337502	Yes	
row_107	NXF1	NA	7080	0.03735651448369026	0.350309	No	
row_108	IL1F10	NA	7196	0.036283332854509354	0.34731224	No	
row_109	SALL1	NA	7204	0.0362413264811039	0.3495299	No	
row_110	SLC7A10	NA	7551	0.033292505890131	0.3351628	No	
row_111	S100A5	NA	7554	0.03327810764312744	0.337413	No	
row_112	PPY	NA	7708	0.03187773376703262	0.3322698	No	
row_113	NSG2	NA	7894	0.030359728261828423	0.32547364	No	
row_114	ASXL1	NA	7940	0.029977910220623016	0.32541382	No	
row_115	ASIC2	NA	8165	0.02791588194668293	0.31656128	No	
row_116	FXYD3	NA	8195	0.027711762115359306	0.3171146	No	
row_117	SPEG	NA	8318	0.02665104903280735	0.31310037	No	
row_118	CNKSR2	NA	8346	0.026372266933321953	0.31365585	No	
row_119	CCDC148	NA	8361	0.026275886222720146	0.31483257	No	
row_120	EPO	NA	8441	0.025685453787446022	0.31282753	No	
row_121	TMEM190	NA	8458	0.0255874153226614	0.31385908	No	
row_122	ELP5	NA	8488	0.025367720052599907	0.3142471	No	
row_123	CLIC5	NA	8692	0.023863403126597404	0.30612323	No	
row_124	BACE1	NA	8714	0.023723561316728592	0.30678177	No	
row_125	EML3	NA	9254	0.019881827756762505	0.28214523	No	
row_126	IMMT	NA	9299	0.019532646983861923	0.28139713	No	
row_127	RAB4B	NA	9445	0.01846722885966301	0.27569464	No	
row_128	JAKMIP3	NA	9656	0.016721010208129883	0.2667289	No	
row_129	NFKBIA	NA	9762	0.0159351397305727	0.26278025	No	
row_130	CASQ2	NA	9822	0.015467483550310135	0.2610208	No	
row_131	TUBA1A	NA	9833	0.015389411710202694	0.261623	No	
row_132	SEMA6A	NA	9846	0.01528707705438137	0.26212138	No	
row_133	CLTC	NA	9878	0.015050548128783703	0.2616852	No	
row_134	OSR1	NA	9921	0.014616155065596104	0.26068696	No	
row_135	PPP1R16A	NA	9926	0.014554079622030258	0.26152012	No	
row_136	GBA2	NA	10083	0.013279507867991924	0.2549204	No	
row_137	CRNN	NA	10151	0.01276214886456728	0.25258368	No	
row_138	KLK13	NA	10447	0.01058044470846653	0.23907864	No	
row_139	TMEM131L	NA	10487	0.010353661142289639	0.23792474	No	
row_140	PDRG1	NA	10524	0.009927664883434772	0.23688574	No	
row_141	NPC2	NA	10549	0.009745527058839798	0.23641358	No	
row_142	CHP1	NA	10557	0.009698757901787758	0.23675941	No	
row_143	NACA	NA	10567	0.009610255248844624	0.23700236	No	
row_144	PYGO2	NA	10700	0.008569510653614998	0.23122989	No	
row_145	PRDM10	NA	10749	0.008297214284539223	0.22949618	No	
row_146	NR4A1	NA	10814	0.007909109815955162	0.22696216	No	
row_147	ZMYND8	NA	10895	0.007227987516671419	0.22360717	No	
row_148	SLC2A4	NA	10955	0.006820010486990213	0.22123788	No	
row_149	COX7A2L	NA	10967	0.006735431030392647	0.22118148	No	
row_150	RBPJ	NA	10974	0.006687849760055542	0.22136328	No	
row_151	TEX33	NA	10976	0.006685699801892042	0.22178645	No	
row_152	RBBP6	NA	11055	0.0060884710401296616	0.21844772	No	
row_153	CELF3	NA	11101	0.005799881648272276	0.21668282	No	
row_154	FLI1	NA	11135	0.005616150330752134	0.21548468	No	
row_155	SH3BP1	NA	11209	0.005030384287238121	0.21231286	No	
row_156	ARID1A	NA	11232	0.004885207396000624	0.21159458	No	
row_157	TSSK4	NA	11250	0.0047452617436647415	0.21110797	No	
row_158	GSS	NA	11255	0.004723376594483852	0.21124783	No	
row_159	DUOXA2	NA	11279	0.004559988155961037	0.21045831	No	
row_160	GSK3B	NA	11360	0.0039551518857479095	0.2068725	No	
row_161	TMEM256	NA	11393	0.0037289366591721773	0.20558958	No	
row_162	BRPF1	NA	11459	0.003223566571250558	0.20267682	No	
row_163	SYVN1	NA	11618	0.0019366589840501547	0.19518054	No	
row_164	KCNAB1	NA	11840	4.911205032840371E-4	0.18453884	No	
row_165	ZNF385A	NA	11884	2.0353248692117631E-4	0.18247591	No	
row_166	MCRS1	NA	12085	-0.0013264375738799572	0.17290762	No	
row_167	GABARAP	NA	12170	-0.0019446974620223045	0.16898678	No	
row_168	ARAP3	NA	12172	-0.0019588873255997896	0.16907662	No	
row_169	PRSS50	NA	12367	-0.0033722801599651575	0.15994246	No	
row_170	NDUFA4L2	NA	12388	-0.003481419524177909	0.1592218	No	
row_171	DTD2	NA	12481	-0.004125487059354782	0.1550683	No	
row_172	EPHB2	NA	12665	-0.005734290461987257	0.1466321	No	
row_173	CAMKV	NA	12728	-0.006204368080943823	0.14407448	No	
row_174	UPF2	NA	12746	-0.006303697358816862	0.14369778	No	
row_175	SMAD3	NA	12856	-0.007166322320699692	0.13893746	No	
row_176	CACNA1G	NA	12881	-0.007340374402701855	0.13829571	No	
row_177	TCF7	NA	13157	-0.009541882202029228	0.12568359	No	
row_178	PDYN	NA	13286	-0.010535277426242828	0.12024299	No	
row_179	DDX17	NA	13420	-0.011610905639827251	0.1146367	No	
row_180	PCBP2	NA	13436	-0.011776002123951912	0.11474253	No	
row_181	MARCHF6	NA	13441	-0.011866290122270584	0.11538613	No	
row_182	NDUFS2	NA	13503	-0.012448146939277649	0.11331715	No	
row_183	IQCD	NA	13565	-0.012976697646081448	0.11128543	No	
row_184	TBC1D22A	NA	13606	-0.01336616463959217	0.110295676	No	
row_185	ROM1	NA	13832	-0.015053322538733482	0.1004877	No	
row_186	C11orf87	NA	13908	-0.015631724148988724	0.0979669	No	
row_187	POLD4	NA	13971	-0.016240812838077545	0.09611707	No	
row_188	PSD	NA	14064	-0.017091795802116394	0.09287798	No	
row_189	BCL11B	NA	14068	-0.017140254378318787	0.09394182	No	
row_190	ZFP36	NA	14124	-0.017513252794742584	0.092519894	No	
row_191	ZBTB25	NA	14284	-0.01883585937321186	0.08616708	No	
row_192	BNC2	NA	14306	-0.01904907450079918	0.08649597	No	
row_193	ISCA2	NA	14372	-0.019677333533763885	0.08474357	No	
row_194	DMPK	NA	14388	-0.019869454205036163	0.08542017	No	
row_195	CCNL1	NA	14396	-0.01995052583515644	0.086488955	No	
row_196	BOC	NA	14416	-0.02015252783894539	0.086992286	No	
row_197	CIC	NA	14485	-0.02078043855726719	0.08517274	No	
row_198	RHO	NA	14515	-0.020980896428227425	0.0852514	No	
row_199	FKBP2	NA	14609	-0.021871862933039665	0.0823011	No	
row_200	DHH	NA	14653	-0.022214341908693314	0.08179041	No	
row_201	CXCR4	NA	14824	-0.023640934377908707	0.07524506	No	
row_202	DPF2	NA	14869	-0.02412036433815956	0.07482048	No	
row_203	PLA2G4D	NA	14897	-0.024333976209163666	0.07523222	No	
row_204	NKX2-1	NA	15113	-0.02662341669201851	0.066723295	No	
row_205	RAB31	NA	15134	-0.02681039087474346	0.06764784	No	
row_206	MSX1	NA	15264	-0.028056710958480835	0.06339458	No	
row_207	JPH4	NA	15519	-0.030696438625454903	0.05328883	No	
row_208	PITPNA	NA	15585	-0.03136062249541283	0.052360356	No	
row_209	GPR4	NA	15867	-0.034686680883169174	0.04123166	No	
row_210	NPAS3	NA	15870	-0.034739088267087936	0.04358492	No	
row_211	PDZD9	NA	15891	-0.03500868380069733	0.045087628	No	
row_212	ELF4	NA	16011	-0.03653706610202789	0.041915514	No	
row_213	SESN3	NA	16318	-0.039967503398656845	0.029951505	No	
row_214	PHF12	NA	16362	-0.04049016907811165	0.030729668	No	
row_215	UBL3	NA	16369	-0.04053739830851555	0.033298604	No	
row_216	ARL6IP6	NA	16417	-0.04111886024475098	0.03392787	No	
row_217	MYBPH	NA	16516	-0.04219934344291687	0.03216956	No	
row_218	MED13	NA	16559	-0.04271687567234039	0.03315307	No	
row_219	OGA	NA	16978	-0.04793757200241089	0.016340498	No	
row_220	POU4F1	NA	16988	-0.048036932945251465	0.019293388	No	
row_221	OLFML2A	NA	17009	-0.048328932374715805	0.021735473	No	
row_222	DLGAP4	NA	17108	-0.049787625670433044	0.020512309	No	
row_223	YPEL4	NA	17135	-0.050235144793987274	0.022798967	No	
row_224	KIF1C	NA	17177	-0.05069420486688614	0.024393361	No	
row_225	HEBP1	NA	17181	-0.050767216831445694	0.027828654	No	
row_226	CACNB1	NA	17395	-0.05367366224527359	0.021323988	No	
row_227	OTOP2	NA	17719	-0.05854518711566925	0.009848864	No	
row_228	NIPBL	NA	17930	-0.06173465773463249	0.0040576044	No	
row_229	AKT3	NA	17945	-0.061889149248600006	0.0077458397	No	
row_230	XYLT1	NA	17989	-0.06249360740184784	0.010075737	No	
row_231	ZNF524	NA	18220	-0.0668829083442688	0.0036813603	No	
row_232	CCN2	NA	18237	-0.06713690608739853	0.0076430608	No	
row_233	ZFPM1	NA	18253	-0.06736155599355698	0.011668913	No	
row_234	WNT4	NA	18488	-0.0719105526804924	0.005435861	No	
row_235	VASP	NA	18758	-0.07734096795320511	-0.0021050465	No	
row_236	ETV1	NA	19028	-0.08499537408351898	-0.009106148	No	
row_237	CREB3L2	NA	19064	-0.08553598821163177	-0.0047647767	No	
row_238	LAG3	NA	19116	-0.0869653970003128	-0.0010955469	No	
row_239	TTC9C	NA	19311	-0.09331367164850235	-0.003886835	No	
row_240	NFAT5	NA	19346	-0.09445765614509583	0.0011320221	No	
row_241	GABRG2	NA	19936	-0.11790189146995544	-0.019007374	No	
row_242	EXD1	NA	20015	-0.12173707038164139	-0.014190314	No	
row_243	ARID4A	NA	20142	-0.12879793345928192	-0.011194147	No	
row_244	CEBPB	NA	20282	-0.139447420835495	-0.008074974	No	
row_245	SCUBE3	NA	20283	-0.13955333828926086	0.0017666457	No	
row_246	BCL6	NA	20377	-0.14910539984703064	0.0077891443	No	
row_247	ZNF800	NA	20864	-0.2793276309967041	0.004009704	No	
