NAME	SYMBOL	TITLE	RANK IN GENE LIST	RANK METRIC SCORE	RUNNING ES	CORE ENRICHMENT	
row_0	IFT140	NA	1206	0.1319524049758911	-0.023523947	No	
row_1	PCDH1	NA	1445	0.12288899719715118	-0.003110162	No	
row_2	UNC45A	NA	7116	0.03701168671250343	-0.264632	No	
row_3	H3C6	NA	7375	0.03486840799450874	-0.26794666	No	
row_4	GRK6	NA	7392	0.03475799039006233	-0.25971925	No	
row_5	SETD9	NA	8599	0.024629326537251472	-0.31100926	No	
row_6	RBBP8	NA	9263	0.019831828773021698	-0.3375782	No	
row_7	TMEM62	NA	10412	0.01081263367086649	-0.38966966	No	
row_8	HMGN4	NA	10942	0.006885149050503969	-0.41318122	No	
row_9	H3-3A	NA	12190	-0.00205566780641675	-0.47227168	No	
row_10	F12	NA	13782	-0.014684796333312988	-0.5445423	No	
row_11	TNRC18	NA	15410	-0.02956797368824482	-0.6146837	No	
row_12	ENC1	NA	16373	-0.04060954973101616	-0.6501731	No	
row_13	H2AC15	NA	17446	-0.05433621257543564	-0.6873706	Yes	
row_14	CRAMP1	NA	17529	-0.05560130253434181	-0.67690635	Yes	
row_15	TOP2A	NA	17849	-0.0605505146086216	-0.6764933	Yes	
row_16	HOXB8	NA	17891	-0.06109785661101341	-0.6626467	Yes	
row_17	TRIM7	NA	17912	-0.06140459328889847	-0.6477167	Yes	
row_18	HOXA9	NA	17950	-0.06195148825645447	-0.63345796	Yes	
row_19	ZFP62	NA	18060	-0.06373583525419235	-0.62218016	Yes	
row_20	MSL2	NA	18399	-0.0705733373761177	-0.62008244	Yes	
row_21	H2BC6	NA	19263	-0.09179447591304779	-0.63759613	Yes	
row_22	PAXIP1-AS2	NA	19806	-0.11127742379903793	-0.63472146	Yes	
row_23	H2BC9	NA	19819	-0.11195380985736847	-0.6063311	Yes	
row_24	H2BC15	NA	20095	-0.12544012069702148	-0.5870264	Yes	
row_25	H2BC5	NA	20412	-0.15263696014881134	-0.56264573	Yes	
row_26	H3C1	NA	20686	-0.2001871019601822	-0.52390724	Yes	
row_27	H2BC17	NA	20687	-0.2003479152917862	-0.47207433	Yes	
row_28	H2AC4	NA	20760	-0.2184075564146042	-0.4190116	Yes	
row_29	H3C12	NA	20792	-0.2279847115278244	-0.3615108	Yes	
row_30	SLC7A11	NA	20908	-0.3311351537704468	-0.28133976	Yes	
row_31	H2AC17	NA	20913	-0.34036919474601746	-0.19347252	Yes	
row_32	H1-4	NA	20946	-0.7539213299751282	4.7935784E-5	Yes	
