NAME	SYMBOL	TITLE	RANK IN GENE LIST	RANK METRIC SCORE	RUNNING ES	CORE ENRICHMENT	
row_0	SLC7A11	NA	1	1.2010973691940308	0.03505985	Yes	
row_1	CHAC1	NA	2	1.000258207321167	0.06429771	Yes	
row_2	SLC3A2	NA	35	0.5110788941383362	0.07768142	Yes	
row_3	VEGFA	NA	44	0.47315001487731934	0.091122925	Yes	
row_4	ARRDC3	NA	49	0.4597523510456085	0.10436722	Yes	
row_5	PSAT1	NA	64	0.4105287492275238	0.11568667	Yes	
row_6	SPAG1	NA	65	0.40958595275878906	0.127659	Yes	
row_7	GPR160	NA	66	0.40810561180114746	0.13958804	Yes	
row_8	DDIT4	NA	166	0.3259049355983734	0.14430268	Yes	
row_9	NHLRC2	NA	194	0.3103815019130707	0.15206297	Yes	
row_10	ZRANB3	NA	214	0.2991500198841095	0.15988377	Yes	
row_11	UTP15	NA	257	0.2837502658367157	0.16613656	Yes	
row_12	TMEM267	NA	262	0.2830277383327484	0.17421514	Yes	
row_13	MARS1	NA	272	0.2804408371448517	0.18197508	Yes	
row_14	DCAF17	NA	285	0.2754930555820465	0.1894446	Yes	
row_15	GABPB1-AS1	NA	339	0.26216885447502136	0.19453193	Yes	
row_16	APBB3	NA	344	0.261087030172348	0.20196918	Yes	
row_17	TAF15	NA	345	0.26097214221954346	0.20959748	Yes	
row_18	TRIB3	NA	414	0.24434848129749298	0.21343488	Yes	
row_19	PPP1R37	NA	495	0.22936803102493286	0.21625116	Yes	
row_20	SLC24A1	NA	498	0.2290942519903183	0.22285046	Yes	
row_21	MDC1	NA	555	0.2206193059682846	0.22657748	Yes	
row_22	PTCD2	NA	561	0.22007690370082855	0.23276739	Yes	
row_23	AGPS	NA	574	0.21752770245075226	0.23854256	Yes	
row_24	C19orf54	NA	650	0.20781370997428894	0.24097182	Yes	
row_25	NFKBIL1	NA	673	0.20538026094436646	0.24590589	Yes	
row_26	MTIF2	NA	683	0.20416885614395142	0.25143638	Yes	
row_27	ZNF557	NA	717	0.2007768452167511	0.25570127	Yes	
row_28	HOXA9	NA	729	0.19922961294651031	0.26099017	Yes	
row_29	ATXN2L	NA	769	0.19540899991989136	0.26480654	Yes	
row_30	DDX55	NA	853	0.18843184411525726	0.26628044	Yes	
row_31	NUP155	NA	938	0.1816406100988388	0.26750723	Yes	
row_32	SELENOP	NA	944	0.18112628161907196	0.2725586	Yes	
row_33	SNHG3	NA	946	0.1810155063867569	0.27780113	Yes	
row_34	GRPEL2	NA	972	0.17854531109333038	0.281805	Yes	
row_35	AKAP9	NA	978	0.17829734086990356	0.28677368	Yes	
row_36	ING3	NA	1133	0.16883614659309387	0.284224	Yes	
row_37	JMY	NA	1166	0.1672261357307434	0.28755677	Yes	
row_38	PHF12	NA	1245	0.162758469581604	0.28852326	Yes	
row_39	SFSWAP	NA	1294	0.1593506932258606	0.2908482	Yes	
row_40	SLTM	NA	1320	0.1585056334733963	0.29426628	Yes	
row_41	CTSO	NA	1352	0.15670858323574066	0.29734024	Yes	
row_42	FAM126B	NA	1354	0.15645481646060944	0.30186486	Yes	
row_43	PCBP1-AS1	NA	1374	0.15548525750637054	0.30548632	Yes	
row_44	TBC1D5	NA	1400	0.1538972556591034	0.3087697	Yes	
row_45	TBC1D17	NA	1409	0.1532377004623413	0.31286007	Yes	
row_46	METTL15	NA	1474	0.14925535023212433	0.31411228	Yes	
row_47	WARS1	NA	1525	0.14668571949005127	0.31596982	Yes	
row_48	ESF1	NA	1540	0.14597320556640625	0.31955624	Yes	
row_49	IFNAR1	NA	1571	0.14470840990543365	0.322328	Yes	
row_50	BRCA1	NA	1614	0.14309626817703247	0.32446945	Yes	
row_51	FDXACB1	NA	1659	0.1411435455083847	0.3264566	Yes	
row_52	HARBI1	NA	1707	0.138824924826622	0.32823017	Yes	
row_53	METTL8	NA	1720	0.1383187472820282	0.33169004	Yes	
row_54	C12orf4	NA	1744	0.13748669624328613	0.33459097	Yes	
row_55	CIRBP	NA	1757	0.1371041238307953	0.33801532	Yes	
row_56	SLX4IP	NA	1872	0.13239476084709167	0.33634457	Yes	
row_57	DCLRE1A	NA	1884	0.13205486536026	0.33966994	Yes	
row_58	COQ7	NA	1930	0.1302804797887802	0.34129095	Yes	
row_59	TASOR2	NA	1951	0.12963800132274628	0.34410825	Yes	
row_60	CCDC97	NA	2027	0.1268211305141449	0.3441701	Yes	
row_61	GIN1	NA	2076	0.12536580860614777	0.34550163	Yes	
row_62	DDX21	NA	2088	0.12498603016138077	0.34862038	Yes	
row_63	CASD1	NA	2090	0.12497261166572571	0.35222477	Yes	
row_64	ELP3	NA	2102	0.12458375096321106	0.35533178	Yes	
row_65	FAM168A	NA	2121	0.12415900081396103	0.35808614	Yes	
row_66	SARS2	NA	2136	0.1235477402806282	0.36101702	Yes	
row_67	LRP6	NA	2171	0.12256433069705963	0.36294714	Yes	
row_68	ACAD9	NA	2188	0.12226787209510803	0.36574343	Yes	
row_69	CEP120	NA	2242	0.12046303600072861	0.36668864	Yes	
row_70	RPL32P3	NA	2277	0.119686059653759	0.36853462	Yes	
row_71	DUSP6	NA	2350	0.11773774027824402	0.36847675	Yes	
row_72	PEX1	NA	2367	0.11718001216650009	0.3711243	Yes	
row_73	NKAPD1	NA	2369	0.11714644730091095	0.37449992	Yes	
row_74	HSPA4	NA	2526	0.11261408776044846	0.37020966	Yes	
row_75	RAPGEF6	NA	2556	0.11171945184469223	0.37206578	Yes	
row_76	FBXW11	NA	2642	0.10945775359869003	0.371134	Yes	
row_77	AVL9	NA	2699	0.10813196003437042	0.371573	Yes	
row_78	EGR1	NA	2715	0.1076510027050972	0.37399065	Yes	
row_79	COG5	NA	2866	0.1036546379327774	0.3697301	Yes	
row_80	DNMBP	NA	2872	0.10343486815690994	0.37251052	Yes	
row_81	C11orf71	NA	2881	0.1032765805721283	0.37514052	Yes	
row_82	FNBP4	NA	2916	0.10244738310575485	0.37648258	Yes	
row_83	ZNF770	NA	2929	0.10217156261205673	0.37888587	Yes	
row_84	NFX1	NA	2931	0.10199370235204697	0.38181856	Yes	
row_85	USP3	NA	3105	0.09805835783481598	0.37627658	Yes	
row_86	FAM53C	NA	3124	0.0977388545870781	0.37825868	Yes	
row_87	R3HDM1	NA	3143	0.09737434983253479	0.3802301	Yes	
row_88	PAAF1	NA	3222	0.09543755650520325	0.37922877	Yes	
row_89	VPS33B	NA	3276	0.09428251534700394	0.37940872	Yes	
row_90	PPIP5K2	NA	3346	0.09276074171066284	0.37876657	Yes	
row_91	C11orf1	NA	3375	0.09206174314022064	0.38009667	Yes	
row_92	NOL8	NA	3395	0.09155278652906418	0.38184935	Yes	
row_93	VCPIP1	NA	3493	0.08941038697957993	0.37974837	Yes	
row_94	CROCCP2	NA	3533	0.08876920491456985	0.38044763	Yes	
row_95	WDR25	NA	3577	0.0878714844584465	0.38092622	Yes	
row_96	EIF2S1	NA	3580	0.08780273795127869	0.38339552	Yes	
row_97	H2AC8	NA	3635	0.0868515744805336	0.3833097	Yes	
row_98	H2BC8	NA	3649	0.08660245686769485	0.38520926	Yes	
row_99	LUC7L2	NA	3696	0.08570138365030289	0.38547862	Yes	
row_100	GANC	NA	3708	0.08557309210300446	0.38744533	Yes	
row_101	H3C11	NA	3723	0.08534432202577591	0.38925952	Yes	
row_102	S100A11	NA	3732	0.08520714938640594	0.39136133	Yes	
row_103	AQR	NA	3737	0.08509800583124161	0.39365438	Yes	
row_104	WDR77	NA	3740	0.0850311890244484	0.39604264	Yes	
row_105	PRKCI	NA	3853	0.08301051706075668	0.39302558	Yes	
row_106	NCAPD2	NA	3862	0.08282282948493958	0.39505768	Yes	
row_107	TRMT10A	NA	3868	0.08270257711410522	0.3972321	Yes	
row_108	SERPINH1	NA	3900	0.08200660347938538	0.3981225	Yes	
row_109	FCSK	NA	3906	0.08187463134527206	0.4002727	Yes	
row_110	FOXP1	NA	3910	0.08184262365102768	0.40251917	Yes	
row_111	UBLCP1	NA	3994	0.08030492067337036	0.4008325	Yes	
row_112	POLR2M	NA	4055	0.07895911484956741	0.40022433	Yes	
row_113	AKT1S1	NA	4128	0.07762206345796585	0.39899385	Yes	
row_114	HNMT	NA	4132	0.07760963588953018	0.4011166	Yes	
row_115	RBBP5	NA	4165	0.07715010643005371	0.40181643	Yes	
row_116	ATP6V1G2	NA	4193	0.07641104608774185	0.40273768	Yes	
row_117	VTI1A	NA	4239	0.07540667057037354	0.40275472	Yes	
row_118	WDR92	NA	4247	0.07527072727680206	0.4046147	Yes	
row_119	RBM48	NA	4302	0.07447050511837006	0.40416694	Yes	
row_120	CWC25	NA	4338	0.07404214888811111	0.40463012	Yes	
row_121	DPH6-DT	NA	4380	0.07318394631147385	0.4047766	Yes	
row_122	PPWD1	NA	4451	0.07171042263507843	0.40347055	No	
row_123	CLTC	NA	4550	0.07023677229881287	0.40076053	No	
row_124	GABPA	NA	4585	0.06970091909170151	0.4011454	No	
row_125	NBPF1	NA	4605	0.06931276619434357	0.402248	No	
row_126	TMEM87A	NA	4687	0.06800581514835358	0.400299	No	
row_127	TBC1D1	NA	4691	0.06797954440116882	0.40214026	No	
row_128	TEP1	NA	4864	0.06476066261529922	0.39567357	No	
row_129	ZNF207	NA	4949	0.06342308968305588	0.39344484	No	
row_130	SMIM15	NA	4954	0.06336870789527893	0.3951027	No	
row_131	HARS2	NA	5012	0.06264360249042511	0.39416346	No	
row_132	ATG13	NA	5035	0.062307506799697876	0.39491546	No	
row_133	VPS50	NA	5112	0.06122027710080147	0.39301115	No	
row_134	EWSR1	NA	5133	0.06087295338511467	0.3938184	No	
row_135	GAPVD1	NA	5152	0.060540348291397095	0.3947132	No	
row_136	PIH1D2	NA	5169	0.06019056215882301	0.39569494	No	
row_137	SUMF2	NA	5183	0.060013290494680405	0.3968173	No	
row_138	MARF1	NA	5239	0.05903194844722748	0.39586967	No	
row_139	HIGD2A	NA	5282	0.058344993740320206	0.3955338	No	
row_140	PTCD3	NA	5303	0.057957589626312256	0.39625588	No	
row_141	NOP58	NA	5328	0.05747825279831886	0.39676952	No	
row_142	XRCC5	NA	5394	0.05661429837346077	0.3952652	No	
row_143	ARRDC3-AS1	NA	5475	0.055151697248220444	0.3929891	No	
row_144	NUCKS1	NA	5525	0.05437883734703064	0.39219707	No	
row_145	BAG6	NA	5547	0.05406876280903816	0.39275685	No	
row_146	TRIM52	NA	5635	0.05299030616879463	0.39007735	No	
row_147	GABPB1	NA	5648	0.052843112498521805	0.39103875	No	
row_148	ZC3HC1	NA	5740	0.05155813694000244	0.38812295	No	
row_149	PPFIBP2	NA	5765	0.05126955360174179	0.38845512	No	
row_150	UIMC1	NA	5778	0.05113039165735245	0.38936645	No	
row_151	EIF3B	NA	5784	0.0510641448199749	0.39061606	No	
row_152	EMG1	NA	5826	0.050218842923641205	0.39009124	No	
row_153	MCCC2	NA	5870	0.04959111660718918	0.3894509	No	
row_154	GNS	NA	5897	0.049166977405548096	0.3896244	No	
row_155	CAND1	NA	5988	0.04789556562900543	0.38665015	No	
row_156	KPNB1	NA	6024	0.04751857742667198	0.38633806	No	
row_157	MRM3	NA	6025	0.04751471430063248	0.3877269	No	
row_158	SNRPA	NA	6050	0.04722747579216957	0.3879409	No	
row_159	NUP107	NA	6096	0.04662971571087837	0.38711682	No	
row_160	SRSF1	NA	6111	0.04633921757340431	0.3877909	No	
row_161	COPB1	NA	6119	0.04628506675362587	0.3888036	No	
row_162	KXD1	NA	6165	0.045538317412137985	0.38794756	No	
row_163	MAN2C1	NA	6169	0.04548030346632004	0.38913116	No	
row_164	SNX8	NA	6177	0.045290663838386536	0.3901148	No	
row_165	SETD1A	NA	6244	0.04424653947353363	0.38820037	No	
row_166	PDE4D	NA	6466	0.04119093343615532	0.3786632	No	
row_167	SYF2	NA	6506	0.0406792089343071	0.37795675	No	
row_168	WDR89	NA	6550	0.04010683670639992	0.3770392	No	
row_169	TRMT61B	NA	6563	0.03993942588567734	0.37762338	No	
row_170	TNPO3	NA	6671	0.03841598331928253	0.37354583	No	
row_171	SKIDA1	NA	6692	0.038151342421770096	0.37368894	No	
row_172	YIPF5	NA	6730	0.03754027187824249	0.37298796	No	
row_173	IK	NA	6759	0.03723691403865814	0.37271553	No	
row_174	IPO13	NA	6786	0.036885086447000504	0.37253	No	
row_175	KCMF1	NA	6898	0.03530124947428703	0.36816698	No	
row_176	PYGB	NA	7010	0.033795733004808426	0.36375996	No	
row_177	S100A10	NA	7019	0.033739395439624786	0.36435735	No	
row_178	SRSF5	NA	7176	0.03175582364201546	0.35770357	No	
row_179	BCLAF1	NA	7181	0.031642697751522064	0.35843408	No	
row_180	NOP16	NA	7215	0.031168052926659584	0.35774124	No	
row_181	EDC3	NA	7243	0.03080802597105503	0.3573295	No	
row_182	INTS14	NA	7245	0.030754847452044487	0.35817987	No	
row_183	SCAP	NA	7250	0.03069714456796646	0.35888276	No	
row_184	ANKRA2	NA	7395	0.028575606644153595	0.35271925	No	
row_185	MALSU1	NA	7409	0.028393352404236794	0.35291734	No	
row_186	BSCL2	NA	7425	0.02821464091539383	0.35301304	No	
row_187	CHP1	NA	7449	0.028002087026834488	0.35271367	No	
row_188	RPL22L1	NA	7454	0.027901504188776016	0.35333484	No	
row_189	SMARCE1	NA	7464	0.027854938060045242	0.3537116	No	
row_190	SIRT4	NA	7519	0.027218222618103027	0.35188267	No	
row_191	SNX1	NA	7528	0.02710660919547081	0.3522862	No	
row_192	RACK1	NA	7550	0.026773283258080482	0.35204813	No	
row_193	RBM4	NA	7554	0.02671920694410801	0.35268334	No	
row_194	CTC-338M12.4	NA	7710	0.025035612285137177	0.3458817	No	
row_195	PHB2	NA	7814	0.02374156191945076	0.3415696	No	
row_196	KHDC4	NA	7834	0.02344224974513054	0.3413314	No	
row_197	RBCK1	NA	7860	0.023101145401597023	0.34079155	No	
row_198	TWNK	NA	7865	0.022998983040452003	0.34126943	No	
row_199	CCT5	NA	7906	0.022546151652932167	0.33998436	No	
row_200	RAD51AP1	NA	7966	0.021835001185536385	0.33775502	No	
row_201	ATPSCKMT	NA	7972	0.021768921986222267	0.33814833	No	
row_202	ZDHHC6	NA	8032	0.02092834562063217	0.33589253	No	
row_203	SEC61A1	NA	8051	0.02069159783422947	0.3356225	No	
row_204	ZFAND5	NA	8060	0.020540202036499977	0.33583406	No	
row_205	ATP5PB	NA	8077	0.02036554366350174	0.33565173	No	
row_206	MARK4	NA	8166	0.019172096624970436	0.33193508	No	
row_207	PPP2R5B	NA	8200	0.018686357885599136	0.3308774	No	
row_208	MRPL43	NA	8249	0.018142474815249443	0.3290748	No	
row_209	SUCLG1	NA	8258	0.018010133877396584	0.3292124	No	
row_210	MRPL46	NA	8304	0.017563117668032646	0.32753867	No	
row_211	CHD2	NA	8344	0.016879897564649582	0.32613656	No	
row_212	KIF2C	NA	8366	0.016634492203593254	0.32560214	No	
row_213	KCNK1	NA	8476	0.015388199128210545	0.32075426	No	
row_214	PRCC	NA	8555	0.014524787664413452	0.31738782	No	
row_215	IDH3B	NA	8572	0.014326282776892185	0.3170289	No	
row_216	IPO11	NA	8670	0.013108399696648121	0.31269762	No	
row_217	RBBP4	NA	8688	0.012976513244211674	0.3122507	No	
row_218	POLR1A	NA	8689	0.012892920523881912	0.31262755	No	
row_219	SNAP23	NA	8697	0.012809623032808304	0.31266177	No	
row_220	BRD2	NA	8788	0.011591996997594833	0.30862635	No	
row_221	HEXA	NA	8810	0.0113352807238698	0.30793703	No	
row_222	VPS28	NA	8928	0.010032621212303638	0.3025438	No	
row_223	MRPL1	NA	9015	0.009115521796047688	0.29863042	No	
row_224	ECH1	NA	9042	0.00888715498149395	0.2976265	No	
row_225	LSM8	NA	9090	0.008292232640087605	0.29558456	No	
row_226	SRI	NA	9117	0.007979685440659523	0.29455414	No	
row_227	PNO1	NA	9174	0.007315356750041246	0.29204622	No	
row_228	ZSCAN21	NA	9206	0.006895213387906551	0.2907411	No	
row_229	CTDSPL2	NA	9213	0.006828813813626766	0.2906491	No	
row_230	HARS1	NA	9311	0.005607498809695244	0.28609854	No	
row_231	POLE3	NA	9394	0.004560106433928013	0.2822464	No	
row_232	PRDM1	NA	9433	0.004025306086987257	0.28051716	No	
row_233	EEF1G	NA	9480	0.0036163933109492064	0.27838716	No	
row_234	SNRPA1	NA	9483	0.0035973135381937027	0.2783951	No	
row_235	EXO1	NA	9487	0.0035143746063113213	0.27835202	No	
row_236	GLOD4	NA	9543	0.002875571371987462	0.27576292	No	
row_237	TNFRSF14	NA	9549	0.002789635444059968	0.27560145	No	
row_238	LINC01588	NA	9597	0.0023370604030787945	0.27338544	No	
row_239	CDKN1B	NA	9640	0.0017104545840993524	0.27139413	No	
row_240	MYL12A	NA	9676	0.001216402044519782	0.2697286	No	
row_241	TSG101	NA	9707	8.813960012048483E-4	0.26829627	No	
row_242	SMIM12	NA	9853	-8.443613187409937E-4	0.26127356	No	
row_243	C17orf75	NA	9923	-0.0016957622719928622	0.25796956	No	
row_244	COASY	NA	9935	-0.0018266597762703896	0.2574883	No	
row_245	OXA1L	NA	10067	-0.0035440505016595125	0.25122496	No	
row_246	SLC35A4	NA	10094	-0.0038182109128683805	0.2500729	No	
row_247	RHBDD3	NA	10097	-0.003847002051770687	0.25008813	No	
row_248	RPL41	NA	10141	-0.004355105105787516	0.24812552	No	
row_249	RPL18	NA	10199	-0.005077495239675045	0.24550359	No	
row_250	CAMLG	NA	10266	-0.005720510613173246	0.24246302	No	
row_251	SEC11A	NA	10270	-0.005777986254543066	0.2424861	No	
row_252	CAPZA2	NA	10288	-0.005946533288806677	0.24183369	No	
row_253	SH2B1	NA	10349	-0.006634828168898821	0.23911145	No	
row_254	ATP10B	NA	10429	-0.007812284864485264	0.2355002	No	
row_255	FZR1	NA	10556	-0.009333237074315548	0.22964908	No	
row_256	TNFSF9	NA	10560	-0.009401661343872547	0.22977808	No	
row_257	RPS14	NA	10567	-0.009435017593204975	0.22976226	No	
row_258	MRPL13	NA	10579	-0.009521928615868092	0.22950596	No	
row_259	MKKS	NA	10586	-0.009617130272090435	0.22949545	No	
row_260	PPIA	NA	10617	-0.009991847909986973	0.22832943	No	
row_261	GRK6	NA	10736	-0.011417006142437458	0.22292805	No	
row_262	COX7A2L	NA	10761	-0.011851268820464611	0.22210799	No	
row_263	NDUFAF5	NA	10856	-0.01299116387963295	0.21791908	No	
row_264	HEXA-AS1	NA	10909	-0.013544812798500061	0.21578766	No	
row_265	CMSS1	NA	10938	-0.013837420381605625	0.21483126	No	
row_266	ZNF106	NA	11031	-0.01491414476186037	0.21079576	No	
row_267	CFDP1	NA	11116	-0.015775175765156746	0.20717424	No	
row_268	WDR74	NA	11174	-0.016692640259861946	0.20489183	No	
row_269	MRPS12	NA	11270	-0.017902519553899765	0.20079787	No	
row_270	SREK1IP1	NA	11292	-0.018178299069404602	0.20030858	No	
row_271	LSM5	NA	11336	-0.01866106316447258	0.19876413	No	
row_272	ARL1	NA	11351	-0.018845869228243828	0.19863455	No	
row_273	SEPHS2	NA	11449	-0.020140735432505608	0.19450882	No	
row_274	SOX30	NA	11482	-0.020560232922434807	0.19355452	No	
row_275	CNTFR	NA	11488	-0.02065701223909855	0.19391531	No	
row_276	MRPS33	NA	11491	-0.02069125510752201	0.19442292	No	
row_277	ENC1	NA	11507	-0.021013779565691948	0.19430812	No	
row_278	BTF3L4	NA	11565	-0.021815573796629906	0.19217545	No	
row_279	ATP6V1D	NA	11567	-0.021825335919857025	0.1927648	No	
row_280	PLA2G6	NA	11697	-0.02363201230764389	0.18718582	No	
row_281	PIPOX	NA	11700	-0.023665139451622963	0.18778037	No	
row_282	SPHK2	NA	11714	-0.023830316960811615	0.1878451	No	
row_283	TIMM13	NA	11719	-0.023896025493741035	0.18834917	No	
row_284	ZNF608	NA	11866	-0.02574434131383896	0.18200569	No	
row_285	BRAT1	NA	11887	-0.025990847498178482	0.18179336	No	
row_286	TXNDC12	NA	11981	-0.027212532237172127	0.17806874	No	
row_287	C9orf43	NA	12138	-0.02926107868552208	0.17134205	No	
row_288	CHMP4C	NA	12176	-0.029746603220701218	0.17041324	No	
row_289	HDGF	NA	12196	-0.0300002358853817	0.1703667	No	
row_290	NFKBIZ	NA	12287	-0.031152738258242607	0.16690308	No	
row_291	TXN2	NA	12626	-0.03560309112071991	0.15151607	No	
row_292	CCNG2	NA	12683	-0.03651696816086769	0.14986171	No	
row_293	CENPK	NA	12869	-0.038693711161613464	0.14200124	No	
row_294	TMEM9	NA	12872	-0.03871381655335426	0.14303565	No	
row_295	PHYKPL	NA	13044	-0.041366398334503174	0.13593376	No	
row_296	NDUFA5	NA	13109	-0.042318761348724365	0.13406017	No	
row_297	PRR15	NA	13277	-0.04503393918275833	0.12725988	No	
row_298	HBP1	NA	13338	-0.04574437066912651	0.12568085	No	
row_299	EGR2	NA	13356	-0.04607267677783966	0.12620132	No	
row_300	PPP2R5C	NA	13393	-0.04681185260415077	0.12581995	No	
row_301	SUB1	NA	13396	-0.04684411361813545	0.127092	No	
row_302	ZMYM6	NA	13408	-0.04714541137218475	0.12793545	No	
row_303	MRPL48	NA	13455	-0.04774238169193268	0.12709525	No	
row_304	NDUFB3	NA	13625	-0.05001480132341385	0.12034335	No	
row_305	DEDD	NA	13656	-0.05054318904876709	0.12036267	No	
row_306	NDUFA2	NA	13840	-0.053137652575969696	0.113021605	No	
row_307	ZBTB8OS	NA	13855	-0.05331171676516533	0.11389949	No	
row_308	ZMAT2	NA	13914	-0.054239463061094284	0.112665966	No	
row_309	TPD52L2	NA	13957	-0.05485539138317108	0.112228096	No	
row_310	STX10	NA	14017	-0.055913228541612625	0.1109949	No	
row_311	PRLR	NA	14151	-0.05791391059756279	0.10622359	No	
row_312	TARBP2	NA	14267	-0.05985094979405403	0.10238374	No	
row_313	KPTN	NA	14271	-0.05989813432097435	0.103988774	No	
row_314	MRPL11	NA	14321	-0.06073364242911339	0.103382505	No	
row_315	CLIC1	NA	14519	-0.06373104453086853	0.09567066	No	
row_316	TRIM52-AS1	NA	14541	-0.06410292536020279	0.096523754	No	
row_317	HSD17B2	NA	14590	-0.06487709283828735	0.0960872	No	
row_318	GCHFR	NA	14611	-0.06524818390607834	0.09702237	No	
row_319	MTIF3	NA	14824	-0.06896793842315674	0.08873456	No	
row_320	HOXA11-AS	NA	14849	-0.06940998882055283	0.08959697	No	
row_321	TRIM31	NA	15027	-0.07201442122459412	0.083099306	No	
row_322	SPINK5	NA	15061	-0.07245182991027832	0.0836132	No	
row_323	LINC01730	NA	15243	-0.07582221180200577	0.07703243	No	
row_324	MRPL51	NA	15355	-0.07765540480613708	0.07390742	No	
row_325	BEST1	NA	15508	-0.08064965903759003	0.068877235	No	
row_326	FMC1	NA	15642	-0.08308184891939163	0.06484158	No	
row_327	MYOF	NA	15823	-0.08644211292266846	0.058619834	No	
row_328	ETFBKMT	NA	15879	-0.08755733072757721	0.058506016	No	
row_329	MRPS11	NA	15948	-0.08899948000907898	0.057802517	No	
row_330	THBS4	NA	15958	-0.08910868316888809	0.059969768	No	
row_331	NDUFA4	NA	16070	-0.09143873304128647	0.057247654	No	
row_332	PMVK	NA	16180	-0.09382519125938416	0.054692503	No	
row_333	CENPP	NA	16259	-0.09530284255743027	0.053687226	No	
row_334	ZNF169	NA	16272	-0.09560342878103256	0.05589851	No	
row_335	WRAP53	NA	16369	-0.09753914177417755	0.054083753	No	
row_336	THRB	NA	16475	-0.09964124858379364	0.05189302	No	
row_337	B9D2	NA	16476	-0.09966228157281876	0.054806177	No	
row_338	LAD1	NA	16494	-0.09997333586215973	0.056902185	No	
row_339	MCTP2	NA	16588	-0.1021193116903305	0.055367116	No	
row_340	NAPA-AS1	NA	16759	-0.10596460849046707	0.050202042	No	
row_341	PSMC3	NA	16773	-0.10647238790988922	0.052682426	No	
row_342	DRAIC	NA	16955	-0.11026722937822342	0.04710849	No	
row_343	RNF186	NA	17049	-0.1125127300620079	0.045877222	No	
row_344	TFAP2A	NA	17102	-0.11405400931835175	0.046683718	No	
row_345	ERBB3	NA	17164	-0.11537864804267883	0.04709151	No	
row_346	TMEM62	NA	17167	-0.11541971564292908	0.05036806	No	
row_347	MTBP	NA	17181	-0.11569088697433472	0.053117905	No	
row_348	MACC1	NA	17264	-0.11780861765146255	0.05257607	No	
row_349	USP53	NA	17292	-0.11857222765684128	0.0547297	No	
row_350	SEMA3C	NA	17452	-0.1218554675579071	0.05056375	No	
row_351	LINC-PINT	NA	18044	-0.13666456937789917	0.025834316	No	
row_352	PBX1	NA	18176	-0.14065463840961456	0.023578744	No	
row_353	TSPAN8	NA	18188	-0.14107218384742737	0.0271677	No	
row_354	TMCO4	NA	18467	-0.14917072653770447	0.018016463	No	
row_355	TSGA10	NA	18588	-0.15340998768806458	0.016668366	No	
row_356	FXYD3	NA	18606	-0.1539883017539978	0.020343246	No	
row_357	GTF2IRD1	NA	18633	-0.15481053292751312	0.023604738	No	
row_358	DOHH	NA	18682	-0.15646377205848694	0.025845295	No	
row_359	GDF15	NA	19019	-0.16825707256793976	0.014433003	No	
row_360	CT62	NA	19025	-0.16841739416122437	0.019112883	No	
row_361	MTTP	NA	19060	-0.16990001499652863	0.022426622	No	
row_362	PPP1R1B	NA	19251	-0.17742522060871124	0.01837831	No	
row_363	EXD1	NA	19470	-0.1863444298505783	0.013229834	No	
row_364	KCTD16	NA	19472	-0.1863918900489807	0.018629525	No	
row_365	CYP1B1-AS1	NA	19572	-0.19152900576591492	0.019416312	No	
row_366	APLF	NA	19664	-0.19656489789485931	0.020739123	No	
row_367	CLDN4	NA	19886	-0.20803584158420563	0.016078886	No	
row_368	PLA2G2A	NA	19905	-0.20920662581920624	0.021319212	No	
row_369	SH2D4A	NA	20176	-0.22916701436042786	0.014895114	No	
row_370	AGR2	NA	20205	-0.2321585714817047	0.020320307	No	
row_371	UGT1A6	NA	20240	-0.23476187884807587	0.02552998	No	
row_372	LRIF1	NA	20695	-0.30048519372940063	0.0122476425	No	
