NAME	GS<br> follow link to MSigDB	GS DETAILS	SIZE	ES	NES	NOM p-val	FDR q-val	FWER p-val	RANK AT MAX	LEADING EDGE	
TASOR_TARGET_GENES	TASOR_TARGET_GENES	Details ...	266	0.48134694	2.442028	0.0	0.0	0.0	5330	tags=43%, list=25%, signal=57%	
EPC1_TARGET_GENES	EPC1_TARGET_GENES	Details ...	209	0.48065645	2.3148956	0.0	0.0	0.0	5542	tags=42%, list=26%, signal=57%	
LHX3_TARGET_GENES	LHX3_TARGET_GENES	Details ...	33	0.6709822	2.3027828	0.0	0.0	0.0	1879	tags=39%, list=9%, signal=43%	
MED16_TARGET_GENES	MED16_TARGET_GENES	Details ...	29	0.646593	2.193378	0.0	0.0028147758	0.004	722	tags=21%, list=3%, signal=21%	
NPM1_TARGET_GENES	NPM1_TARGET_GENES	Details ...	329	0.42475787	2.191147	0.0	0.0022518206	0.004	5924	tags=43%, list=28%, signal=59%	
NFMUE1_Q6	NFMUE1_Q6	Details ...	248	0.44034982	2.1811442	0.0	0.0018765172	0.004	5079	tags=42%, list=24%, signal=54%	
RUVBL2_TARGET_GENES	RUVBL2_TARGET_GENES	Details ...	35	0.60468554	2.150657	0.0	0.0016084433	0.004	4105	tags=46%, list=20%, signal=57%	
DMRT1_TARGET_GENES	DMRT1_TARGET_GENES	Details ...	373	0.4047766	2.1432323	0.0	0.0014073879	0.004	4380	tags=33%, list=21%, signal=41%	
ELF5_TARGET_GENES	ELF5_TARGET_GENES	Details ...	412	0.40707707	2.1268497	0.0	0.0012510115	0.004	5986	tags=42%, list=29%, signal=58%	
RLF_TARGET_GENES	RLF_TARGET_GENES	Details ...	311	0.4149331	2.1073422	0.0	0.002022478	0.007	5517	tags=44%, list=26%, signal=58%	
GCCATNTTG_YY1_Q6	GCCATNTTG_YY1_Q6	Details ...	435	0.38912585	2.0614648	0.0	0.0026320445	0.01	6152	tags=48%, list=29%, signal=67%	
GTF2E2_TARGET_GENES	GTF2E2_TARGET_GENES	Details ...	326	0.39877614	2.0565088	0.0	0.0024127073	0.01	5519	tags=38%, list=26%, signal=50%	
TOX4_TARGET_GENES	TOX4_TARGET_GENES	Details ...	174	0.4318512	2.0540602	0.0	0.0022271145	0.01	3982	tags=33%, list=19%, signal=40%	
SETBP1_TARGET_GENES	SETBP1_TARGET_GENES	Details ...	168	0.42850915	2.0286956	0.0	0.002458763	0.012	5038	tags=42%, list=24%, signal=55%	
ATXN7L3_TARGET_GENES	ATXN7L3_TARGET_GENES	Details ...	268	0.39846212	2.0178645	0.0	0.002483023	0.013	2732	tags=23%, list=13%, signal=26%	
NR1I2_TARGET_GENES	NR1I2_TARGET_GENES	Details ...	303	0.39084765	1.9818019	0.0	0.003754005	0.021	5762	tags=42%, list=28%, signal=57%	
TCCCRNNRTGC_UNKNOWN	TCCCRNNRTGC_UNKNOWN	Details ...	214	0.40501782	1.9784156	0.0	0.0035331813	0.021	6024	tags=47%, list=29%, signal=66%	
AACYNNNNTTCCS_UNKNOWN	AACYNNNNTTCCS_UNKNOWN	Details ...	100	0.4408005	1.9699098	0.0	0.003812921	0.024	6024	tags=46%, list=29%, signal=64%	
NR1D1_TARGET_GENES	NR1D1_TARGET_GENES	Details ...	111	0.4443245	1.9690402	0.0	0.0036122408	0.024	4310	tags=40%, list=21%, signal=50%	
FOXO4_TARGET_GENES	FOXO4_TARGET_GENES	Details ...	268	0.39517003	1.9593885	0.0	0.0037013488	0.026	5162	tags=37%, list=25%, signal=48%	
PITX1_TARGET_GENES	PITX1_TARGET_GENES		316	0.3818345	1.9576224	0.0	0.0035250941	0.026	4940	tags=35%, list=24%, signal=45%	
ZNF165_TARGET_GENES	ZNF165_TARGET_GENES		76	0.4610162	1.9568219	0.0	0.0033648626	0.026	4205	tags=36%, list=20%, signal=44%	
TMTCGCGANR_UNKNOWN	TMTCGCGANR_UNKNOWN		163	0.41633916	1.9349638	0.0	0.0036995534	0.03	6336	tags=51%, list=30%, signal=72%	
ZNF34_TARGET_GENES	ZNF34_TARGET_GENES		64	0.49066234	1.9337978	0.0	0.0035454053	0.03	2759	tags=34%, list=13%, signal=39%	
ACTAYRNNNCCCR_UNKNOWN	ACTAYRNNNCCCR_UNKNOWN		463	0.36444587	1.9236742	0.0	0.0036363034	0.032	6012	tags=41%, list=29%, signal=57%	
ZNF239_TARGET_GENES	ZNF239_TARGET_GENES		37	0.53557014	1.9230887	0.0	0.0034964457	0.032	2759	tags=32%, list=13%, signal=37%	
RORA_TARGET_GENES	RORA_TARGET_GENES		238	0.38381764	1.9115626	0.0	0.004417188	0.042	5355	tags=39%, list=26%, signal=52%	
FOXR2_TARGET_GENES	FOXR2_TARGET_GENES		196	0.38866004	1.9060851	0.0	0.0045550643	0.045	5534	tags=35%, list=26%, signal=47%	
ATGGYGGA_UNKNOWN	ATGGYGGA_UNKNOWN		104	0.42901406	1.9027444	0.0	0.004397993	0.045	5766	tags=46%, list=28%, signal=63%	
MAML1_TARGET_GENES	MAML1_TARGET_GENES		254	0.38666198	1.8983399	0.0	0.004336661	0.046	3255	tags=25%, list=16%, signal=29%	
SRPK1_TARGET_GENES	SRPK1_TARGET_GENES		302	0.36939573	1.8929912	0.0	0.0044569448	0.049	6357	tags=46%, list=30%, signal=65%	
HOXA10_TARGET_GENES	HOXA10_TARGET_GENES		241	0.37496147	1.8618398	0.0	0.0061012497	0.069	4787	tags=34%, list=23%, signal=44%	
EMX1_TARGET_GENES	EMX1_TARGET_GENES		202	0.38261545	1.8534323	0.0	0.0065092742	0.075	4439	tags=37%, list=21%, signal=46%	
PPARA_TARGET_GENES	PPARA_TARGET_GENES		59	0.4760748	1.8534259	0.0	0.0063178255	0.075	4132	tags=36%, list=20%, signal=44%	
YY1_02	YY1_02		251	0.37039515	1.8515708	0.0	0.00630441	0.077	5079	tags=39%, list=24%, signal=51%	
ZNF532_TARGET_GENES	ZNF532_TARGET_GENES		56	0.47443795	1.8478947	0.0031055901	0.006440797	0.081	5889	tags=54%, list=28%, signal=74%	
GKCGCNNNNNNNTGAYG_UNKNOWN	GKCGCNNNNNNNTGAYG_UNKNOWN		60	0.45866746	1.8389267	0.0	0.0071202414	0.092	4421	tags=43%, list=21%, signal=55%	
PHF21A_TARGET_GENES	PHF21A_TARGET_GENES		260	0.36521578	1.8336028	0.0	0.0072328136	0.096	5430	tags=42%, list=26%, signal=56%	
ZNF704_TARGET_GENES	ZNF704_TARGET_GENES		64	0.45474046	1.8085726	0.0	0.009421285	0.123	4068	tags=31%, list=19%, signal=39%	
ZNF586_TARGET_GENES	ZNF586_TARGET_GENES		30	0.5263072	1.805421	0.0056338026	0.009536144	0.128	3771	tags=37%, list=18%, signal=45%	
ZNF784_TARGET_GENES	ZNF784_TARGET_GENES		372	0.343489	1.8039451	0.0	0.009303555	0.128	5922	tags=39%, list=28%, signal=53%	
AAGWWRNYGGC_UNKNOWN	AAGWWRNYGGC_UNKNOWN		121	0.39694303	1.8019155	0.0	0.009283491	0.13	5774	tags=48%, list=28%, signal=66%	
ZNF260_TARGET_GENES	ZNF260_TARGET_GENES		463	0.34039918	1.8010231	0.0	0.009067596	0.13	5317	tags=35%, list=25%, signal=46%	
ZNF85_TARGET_GENES	ZNF85_TARGET_GENES		282	0.3557664	1.7930529	0.0	0.009523987	0.139	5758	tags=42%, list=27%, signal=57%	
ZNF746_TARGET_GENES	ZNF746_TARGET_GENES		70	0.4364213	1.7895633	0.0	0.009614797	0.144	3770	tags=33%, list=18%, signal=40%	
CSHL1_TARGET_GENES	CSHL1_TARGET_GENES		211	0.3592809	1.7824624	0.0	0.010020665	0.152	3255	tags=26%, list=16%, signal=31%	
CASP8AP2_TARGET_GENES	CASP8AP2_TARGET_GENES		292	0.34913746	1.7790409	0.0	0.010238408	0.157	5256	tags=38%, list=25%, signal=50%	
ARHGAP35_TARGET_GENES	ARHGAP35_TARGET_GENES		93	0.4115231	1.7783455	0.0	0.010146501	0.159	6521	tags=52%, list=31%, signal=75%	
RFX7_TARGET_GENES	RFX7_TARGET_GENES		464	0.3377397	1.774103	0.0	0.010536893	0.166	6131	tags=43%, list=29%, signal=59%	
ZNF250_TARGET_GENES	ZNF250_TARGET_GENES		465	0.33191675	1.7721162	0.0	0.010491542	0.168	5267	tags=35%, list=25%, signal=46%	
PCGF6_TARGET_GENES	PCGF6_TARGET_GENES		61	0.43757904	1.7647288	0.0	0.0113524245	0.18	6090	tags=51%, list=29%, signal=71%	
ALKBH3_TARGET_GENES	ALKBH3_TARGET_GENES		402	0.34061217	1.7633764	0.0	0.011295032	0.182	5985	tags=42%, list=29%, signal=57%	
PSMB5_TARGET_GENES	PSMB5_TARGET_GENES		262	0.35170978	1.7627563	0.0	0.01119146	0.184	4541	tags=27%, list=22%, signal=35%	
MXD1_TARGET_GENES	MXD1_TARGET_GENES		138	0.381998	1.7625074	0.0038910506	0.011031793	0.185	4088	tags=30%, list=20%, signal=37%	
PAX5_02	PAX5_02		17	0.5974952	1.7582382	0.012594459	0.011244222	0.193	3397	tags=47%, list=16%, signal=56%	
GABP_B	GABP_B		265	0.34573305	1.755348	0.0	0.011407577	0.197	4428	tags=28%, list=21%, signal=35%	
CRGAARNNNNCGA_UNKNOWN	CRGAARNNNNCGA_UNKNOWN		48	0.46456504	1.7545941	0.007894737	0.011313368	0.199	6154	tags=52%, list=29%, signal=74%	
NRF1_Q6	NRF1_Q6		262	0.34714696	1.7496585	0.0	0.011514521	0.206	4293	tags=32%, list=20%, signal=40%	
AUTS2_TARGET_GENES	AUTS2_TARGET_GENES		408	0.33429053	1.746654	0.0	0.011420946	0.208	5207	tags=35%, list=25%, signal=46%	
ZNF331_TARGET_GENES	ZNF331_TARGET_GENES		316	0.33683538	1.7433794	0.0	0.011379452	0.211	5969	tags=44%, list=28%, signal=61%	
AHR_Q5	AHR_Q5		219	0.35142893	1.7425576	0.0	0.011336394	0.214	4561	tags=34%, list=22%, signal=43%	
SNACANNNYSYAGA_UNKNOWN	SNACANNNYSYAGA_UNKNOWN		95	0.39606282	1.7370727	0.0	0.011757714	0.226	3527	tags=26%, list=17%, signal=32%	
E2F1_Q4	E2F1_Q4		245	0.3521595	1.7357556	0.0	0.011751505	0.23	6498	tags=49%, list=31%, signal=70%	
ZNF101_TARGET_GENES	ZNF101_TARGET_GENES		218	0.3531591	1.7332456	0.0	0.0118325185	0.236	7108	tags=50%, list=34%, signal=75%	
ATF5_TARGET_GENES	ATF5_TARGET_GENES		408	0.33195847	1.731575	0.0	0.011786039	0.239	5303	tags=37%, list=25%, signal=48%	
E2F_Q4_01	E2F_Q4_01		235	0.34851938	1.7293842	0.0	0.012002029	0.247	6666	tags=50%, list=32%, signal=72%	
HJURP_TARGET_GENES	HJURP_TARGET_GENES		23	0.53057337	1.7249606	0.007792208	0.012206031	0.254	3130	tags=22%, list=15%, signal=26%	
CCAATNNSNNNGCG_UNKNOWN	CCAATNNSNNNGCG_UNKNOWN		60	0.43587646	1.7235398	0.0	0.012231598	0.259	4554	tags=33%, list=22%, signal=42%	
RUVBL1_TARGET_GENES	RUVBL1_TARGET_GENES		150	0.36607352	1.7211983	0.0	0.012512159	0.269	6370	tags=41%, list=30%, signal=58%	
YGCGYRCGC_UNKNOWN	YGCGYRCGC_UNKNOWN		322	0.33472064	1.7129966	0.0	0.0131777655	0.282	4457	tags=30%, list=21%, signal=38%	
CCAWNWWNNNGGC_UNKNOWN	CCAWNWWNNNGGC_UNKNOWN		86	0.39925492	1.7115769	0.0029498525	0.013238561	0.286	6490	tags=53%, list=31%, signal=77%	
ZNF667_TARGET_GENES	ZNF667_TARGET_GENES		135	0.36765775	1.7081765	0.0	0.013322913	0.291	6253	tags=52%, list=30%, signal=73%	
HMGB2_TARGET_GENES	HMGB2_TARGET_GENES		348	0.33479542	1.707591	0.0	0.013177964	0.291	5112	tags=37%, list=24%, signal=49%	
AHR_01	AHR_01		65	0.42861062	1.7075601	0.003076923	0.012999885	0.291	3399	tags=34%, list=16%, signal=40%	
ZNF133_TARGET_GENES	ZNF133_TARGET_GENES		138	0.37618014	1.7030042	0.0	0.013233765	0.298	3162	tags=27%, list=15%, signal=31%	
NCOA6_TARGET_GENES	NCOA6_TARGET_GENES		330	0.3285068	1.6914775	0.0	0.0145861935	0.324	4805	tags=32%, list=23%, signal=41%	
TAF9B_TARGET_GENES	TAF9B_TARGET_GENES		485	0.31587458	1.686656	0.0	0.01484065	0.333	5452	tags=32%, list=26%, signal=43%	
ACAWNRNSRCGG_UNKNOWN	ACAWNRNSRCGG_UNKNOWN		63	0.41527966	1.6863033	0.0062111802	0.014650387	0.333	3981	tags=35%, list=19%, signal=43%	
WDHD1_TARGET_GENES	WDHD1_TARGET_GENES		166	0.35214397	1.6854911	0.0	0.014645589	0.334	5120	tags=37%, list=24%, signal=48%	
ZNF318_TARGET_GENES	ZNF318_TARGET_GENES		441	0.31588173	1.6821089	0.0	0.014924939	0.342	4239	tags=26%, list=20%, signal=31%	
ZBTB1_TARGET_GENES	ZBTB1_TARGET_GENES		103	0.38694334	1.6814365	0.0	0.014811258	0.343	3545	tags=31%, list=17%, signal=37%	
NKX2_3_TARGET_GENES	NKX2_3_TARGET_GENES		490	0.31486183	1.6748965	0.0	0.015258784	0.355	4133	tags=29%, list=20%, signal=35%	
NPAT_TARGET_GENES	NPAT_TARGET_GENES		247	0.33602405	1.6736575	0.0	0.01520984	0.357	5257	tags=34%, list=25%, signal=45%	
GTF2A2_TARGET_GENES	GTF2A2_TARGET_GENES		433	0.32338935	1.6735756	0.0	0.015028769	0.357	4471	tags=27%, list=21%, signal=33%	
GATGKMRGCG_UNKNOWN	GATGKMRGCG_UNKNOWN		65	0.403913	1.6667662	0.0029850747	0.015586191	0.372	5230	tags=38%, list=25%, signal=51%	
E2F1_Q6_01	E2F1_Q6_01		241	0.3364448	1.6650144	0.0	0.015676554	0.377	6144	tags=43%, list=29%, signal=60%	
HDGF_TARGET_GENES	HDGF_TARGET_GENES		256	0.33069772	1.6622674	0.0	0.015766686	0.381	6015	tags=39%, list=29%, signal=54%	
SREBP1_01	SREBP1_01		174	0.34628457	1.6616968	0.0	0.015652493	0.382	5304	tags=39%, list=25%, signal=52%	
ZBED4_TARGET_GENES	ZBED4_TARGET_GENES		158	0.35814092	1.6600684	0.0	0.015762042	0.384	5798	tags=37%, list=28%, signal=51%	
YY1_Q6	YY1_Q6		249	0.33093327	1.6592406	0.0	0.015686365	0.386	6016	tags=44%, list=29%, signal=61%	
SQSTM1_TARGET_GENES	SQSTM1_TARGET_GENES		39	0.4610458	1.6588664	0.014450867	0.015513986	0.386	3703	tags=33%, list=18%, signal=40%	
ZNF524_TARGET_GENES	ZNF524_TARGET_GENES		328	0.3265268	1.6583729	0.0	0.015475521	0.389	3378	tags=24%, list=16%, signal=29%	
DICER1_TARGET_GENES	DICER1_TARGET_GENES		48	0.43466926	1.6571484	0.008797654	0.015555673	0.396	7661	tags=63%, list=37%, signal=98%	
CGTSACG_PAX3_B	CGTSACG_PAX3_B		147	0.35628793	1.6552551	0.0	0.015660409	0.402	5225	tags=39%, list=25%, signal=51%	
ACTWSNACTNY_UNKNOWN	ACTWSNACTNY_UNKNOWN		106	0.3753809	1.6539656	0.0	0.015613889	0.403	5564	tags=43%, list=27%, signal=59%	
ZNF354B_TARGET_GENES	ZNF354B_TARGET_GENES		189	0.34465018	1.6516926	0.0	0.01583774	0.409	4743	tags=32%, list=23%, signal=41%	
NR0B1_TARGET_GENES	NR0B1_TARGET_GENES		212	0.33799654	1.6505402	0.0	0.01594396	0.414	6001	tags=44%, list=29%, signal=62%	
ZSCAN5C_TARGET_GENES	ZSCAN5C_TARGET_GENES		129	0.35586324	1.6474859	0.0	0.016100617	0.419	6028	tags=46%, list=29%, signal=64%	
OVOL3_TARGET_GENES	OVOL3_TARGET_GENES		458	0.31076533	1.6424212	0.0	0.016802544	0.438	4914	tags=31%, list=23%, signal=39%	
MSX1_TARGET_GENES	MSX1_TARGET_GENES		178	0.3420217	1.6408699	0.0	0.016899979	0.444	5069	tags=36%, list=24%, signal=47%	
CDC73_TARGET_GENES	CDC73_TARGET_GENES		466	0.30961168	1.6363591	0.0	0.017636947	0.458	3391	tags=22%, list=16%, signal=25%	
ZSCAN21_TARGET_GENES	ZSCAN21_TARGET_GENES		458	0.30895782	1.6293159	0.0	0.01840566	0.482	5452	tags=38%, list=26%, signal=51%	
GGCNKCCATNK_UNKNOWN	GGCNKCCATNK_UNKNOWN		121	0.36322376	1.6271355	0.004	0.018722838	0.49	6539	tags=50%, list=31%, signal=73%	
PAX8_TARGET_GENES	PAX8_TARGET_GENES		79	0.3895167	1.6233386	0.0033003301	0.01928855	0.504	4137	tags=32%, list=20%, signal=39%	
CHOP_01	CHOP_01		238	0.32540107	1.6198541	0.0	0.019670391	0.513	3518	tags=26%, list=17%, signal=31%	
STAT3_01	STAT3_01		22	0.50972414	1.6179855	0.035264485	0.01986087	0.524	2473	tags=23%, list=12%, signal=26%	
HOXC11_TARGET_GENES	HOXC11_TARGET_GENES		43	0.43747804	1.6162649	0.009036144	0.01986626	0.528	3941	tags=35%, list=19%, signal=43%	
NRF2_01	NRF2_01		270	0.31662583	1.6141149	0.0	0.019996542	0.536	4746	tags=28%, list=23%, signal=36%	
ZFP28_TARGET_GENES	ZFP28_TARGET_GENES		83	0.3809868	1.6113819	0.0030395137	0.020229137	0.548	4078	tags=35%, list=19%, signal=43%	
KMCATNNWGGA_UNKNOWN	KMCATNNWGGA_UNKNOWN		97	0.36889884	1.6104226	0.0	0.02033658	0.553	6469	tags=52%, list=31%, signal=74%	
NMYC_01	NMYC_01		276	0.32062358	1.6094298	0.0	0.020229075	0.554	5808	tags=41%, list=28%, signal=55%	
ZNF669_TARGET_GENES	ZNF669_TARGET_GENES		112	0.3514723	1.6090093	0.0	0.020125011	0.555	4768	tags=38%, list=23%, signal=48%	
PU1_Q6	PU1_Q6		231	0.32601935	1.6055022	0.0	0.02047418	0.567	4264	tags=30%, list=20%, signal=37%	
E2F_Q3_01	E2F_Q3_01		233	0.3282904	1.6050476	0.0	0.020345677	0.567	6720	tags=50%, list=32%, signal=73%	
AHRARNT_01	AHRARNT_01		140	0.34450355	1.6022148	0.0	0.020701611	0.574	3811	tags=31%, list=18%, signal=37%	
TERF2_TARGET_GENES	TERF2_TARGET_GENES		113	0.35994062	1.6017431	0.0	0.02062184	0.576	2733	tags=23%, list=13%, signal=26%	
NCOA2_TARGET_GENES	NCOA2_TARGET_GENES		433	0.3051447	1.5982546	0.0	0.021401914	0.596	4494	tags=30%, list=21%, signal=38%	
METTL14_TARGET_GENES	METTL14_TARGET_GENES		120	0.35529244	1.5958029	0.0	0.021773946	0.603	1374	tags=13%, list=7%, signal=14%	
SNAI1_TARGET_GENES	SNAI1_TARGET_GENES		413	0.3020388	1.5943142	0.0	0.021879056	0.608	4530	tags=30%, list=22%, signal=37%	
GCGNNANTTCC_UNKNOWN	GCGNNANTTCC_UNKNOWN		125	0.3504352	1.5885597	0.0	0.022575678	0.62	4610	tags=36%, list=22%, signal=46%	
E2F1_Q3	E2F1_Q3		244	0.3165464	1.5846179	0.0	0.022986408	0.626	6193	tags=43%, list=30%, signal=60%	
E2F1_Q4_01	E2F1_Q4_01		227	0.32385582	1.581288	0.0	0.02339352	0.638	7092	tags=54%, list=34%, signal=80%	
ATCMNTCCGY_UNKNOWN	ATCMNTCCGY_UNKNOWN		53	0.40908253	1.5810785	0.015151516	0.023274314	0.639	4554	tags=34%, list=22%, signal=43%	
ZNF581_TARGET_GENES	ZNF581_TARGET_GENES		304	0.3110108	1.5800395	0.0	0.02341504	0.646	5688	tags=37%, list=27%, signal=50%	
GGCNNMSMYNTTG_UNKNOWN	GGCNNMSMYNTTG_UNKNOWN		73	0.3768774	1.575443	0.00952381	0.024175204	0.657	5380	tags=40%, list=26%, signal=53%	
HOXD11_TARGET_GENES	HOXD11_TARGET_GENES		132	0.34134907	1.5725378	0.0	0.024738131	0.66	6423	tags=49%, list=31%, signal=71%	
ETS_Q4	ETS_Q4		249	0.31747288	1.569345	0.0	0.025263717	0.675	5225	tags=37%, list=25%, signal=49%	
GCGSCMNTTT_UNKNOWN	GCGSCMNTTT_UNKNOWN		71	0.37617108	1.5668577	0.0	0.025451746	0.68	6111	tags=52%, list=29%, signal=73%	
LMX1B_TARGET_GENES	LMX1B_TARGET_GENES		24	0.47164527	1.5654634	0.025906736	0.025427917	0.682	3280	tags=29%, list=16%, signal=35%	
STAT1_01	STAT1_01		68	0.380646	1.5633894	0.0124223605	0.02573504	0.688	4568	tags=37%, list=22%, signal=47%	
PGM3_TARGET_GENES	PGM3_TARGET_GENES		246	0.30997413	1.5508834	0.0	0.028098246	0.727	6394	tags=45%, list=31%, signal=64%	
MYCMAX_02	MYCMAX_02		267	0.3035006	1.54646	0.0	0.029065065	0.74	3664	tags=28%, list=17%, signal=34%	
ARNT_02	ARNT_02		255	0.31067172	1.5449232	0.0	0.029145183	0.745	5225	tags=35%, list=25%, signal=46%	
MAX_01	MAX_01		264	0.30600327	1.5445141	0.0	0.028989991	0.746	4849	tags=35%, list=23%, signal=45%	
ZNF577_TARGET_GENES	ZNF577_TARGET_GENES		447	0.2905053	1.5439801	0.0	0.028900541	0.747	5359	tags=35%, list=26%, signal=46%	
GGCNRNWCTTYS_UNKNOWN	GGCNRNWCTTYS_UNKNOWN		85	0.36418846	1.5391861	0.012820513	0.029621003	0.755	6397	tags=48%, list=31%, signal=69%	
TAANNYSGCG_UNKNOWN	TAANNYSGCG_UNKNOWN		80	0.36945456	1.5295596	0.018348623	0.031941004	0.783	6354	tags=52%, list=30%, signal=75%	
RACTNNRTTTNC_UNKNOWN	RACTNNRTTTNC_UNKNOWN		130	0.33219713	1.5230372	0.0	0.03372483	0.799	6307	tags=45%, list=30%, signal=65%	
HIF1_Q3	HIF1_Q3		234	0.30377343	1.5095052	0.0	0.0378328	0.841	3573	tags=25%, list=17%, signal=30%	
ZNF510_TARGET_GENES	ZNF510_TARGET_GENES		37	0.42733195	1.5080006	0.008595988	0.037907194	0.845	5424	tags=54%, list=26%, signal=73%	
ETS1_B	ETS1_B		266	0.30118358	1.5053904	0.0	0.03864018	0.853	3917	tags=28%, list=19%, signal=34%	
KCCGNSWTTT_UNKNOWN	KCCGNSWTTT_UNKNOWN		107	0.33909747	1.4985265	0.0036101083	0.04060929	0.872	4653	tags=40%, list=22%, signal=51%	
ZNF622_TARGET_GENES	ZNF622_TARGET_GENES		64	0.36882567	1.4971262	0.026785715	0.040721443	0.877	6490	tags=55%, list=31%, signal=79%	
EBNA1BP2_TARGET_GENES	EBNA1BP2_TARGET_GENES		335	0.2912437	1.4926996	0.0	0.042342898	0.884	5472	tags=38%, list=26%, signal=50%	
E2F_Q6_01	E2F_Q6_01		239	0.2936116	1.4913559	0.005050505	0.04252606	0.885	6171	tags=42%, list=29%, signal=59%	
PIAS4_TARGET_GENES	PIAS4_TARGET_GENES		68	0.36094463	1.4884474	0.02431611	0.04311898	0.886	4298	tags=35%, list=21%, signal=44%	
HOXB7_TARGET_GENES	HOXB7_TARGET_GENES		25	0.4559829	1.4860324	0.051490515	0.04391461	0.891	2817	tags=32%, list=13%, signal=37%	
ZA_UNIPROT_Q9UM89_UNREVIEWED_TARGET_GENES	ZA_UNIPROT_Q9UM89_UNREVIEWED_TARGET_GENES		54	0.3779264	1.4844123	0.01857585	0.04437346	0.895	4234	tags=33%, list=20%, signal=42%	
HOXC13_TARGET_GENES	HOXC13_TARGET_GENES		108	0.33680883	1.4840555	0.0124223605	0.044169705	0.895	5649	tags=44%, list=27%, signal=59%	
ZFP82_TARGET_GENES	ZFP82_TARGET_GENES		32	0.41481626	1.4833127	0.04918033	0.044193707	0.898	4339	tags=34%, list=21%, signal=43%	
SMARCA1_TARGET_GENES	SMARCA1_TARGET_GENES		116	0.33294278	1.482703	0.010344828	0.044179305	0.899	5009	tags=38%, list=24%, signal=50%	
YAATNANRNNNCAG_UNKNOWN	YAATNANRNNNCAG_UNKNOWN		70	0.36517003	1.4757673	0.026402641	0.046186782	0.911	2010	tags=20%, list=10%, signal=22%	
ZNF547_TARGET_GENES	ZNF547_TARGET_GENES		140	0.3143856	1.4712645	0.003787879	0.047303732	0.915	3246	tags=24%, list=15%, signal=28%	
ZNF426_TARGET_GENES	ZNF426_TARGET_GENES		59	0.37908983	1.4685354	0.012121212	0.047964275	0.923	5293	tags=44%, list=25%, signal=59%	
ZNF33A_TARGET_GENES	ZNF33A_TARGET_GENES		204	0.30157423	1.4685286	0.009009009	0.04765483	0.923	4855	tags=34%, list=23%, signal=44%	
ETS2_B	ETS2_B		279	0.2950656	1.4652197	0.0	0.048757568	0.929	3888	tags=28%, list=19%, signal=34%	
E2F1_Q6	E2F1_Q6		235	0.29714033	1.4646285	0.0	0.04864302	0.929	7092	tags=48%, list=34%, signal=72%	
E2F_Q4	E2F_Q4		237	0.2965457	1.464321	0.0	0.048445117	0.929	6144	tags=40%, list=29%, signal=56%	
ZZZ3_TARGET_GENES	ZZZ3_TARGET_GENES		113	0.32780012	1.4611562	0.0036630037	0.049434703	0.934	4254	tags=25%, list=20%, signal=31%	
E2F_Q6	E2F_Q6		235	0.2916158	1.4576852	0.0	0.050594818	0.941	6144	tags=40%, list=29%, signal=56%	
ZNF777_TARGET_GENES	ZNF777_TARGET_GENES		43	0.39029405	1.4556837	0.04024768	0.051137816	0.942	3843	tags=37%, list=18%, signal=45%	
ZSCAN18_TARGET_GENES	ZSCAN18_TARGET_GENES		44	0.38963306	1.4500238	0.027355623	0.053117514	0.949	4810	tags=41%, list=23%, signal=53%	
DLX2_TARGET_GENES	DLX2_TARGET_GENES		239	0.2937395	1.4489734	0.0	0.053054564	0.949	4515	tags=30%, list=22%, signal=37%	
ZNF708_TARGET_GENES	ZNF708_TARGET_GENES		77	0.34976536	1.4465195	0.021806853	0.053744	0.953	3499	tags=30%, list=17%, signal=36%	
ZNF157_TARGET_GENES	ZNF157_TARGET_GENES		47	0.39019918	1.443146	0.050704226	0.055022884	0.955	2019	tags=23%, list=10%, signal=26%	
KTGGYRSGAA_UNKNOWN	KTGGYRSGAA_UNKNOWN		75	0.3428268	1.439658	0.023890786	0.056182753	0.958	3876	tags=29%, list=19%, signal=36%	
CIC_TARGET_GENES	CIC_TARGET_GENES		358	0.2795742	1.4373001	0.0	0.057124894	0.96	6484	tags=43%, list=31%, signal=62%	
ELK1_02	ELK1_02		255	0.28473508	1.4342624	0.0	0.057837207	0.961	6014	tags=35%, list=29%, signal=49%	
ZNF354A_TARGET_GENES	ZNF354A_TARGET_GENES		19	0.4689656	1.4301683	0.087064676	0.059239496	0.967	1582	tags=32%, list=8%, signal=34%	
IRX2_TARGET_GENES	IRX2_TARGET_GENES		154	0.2960742	1.4300402	0.0	0.058922563	0.967	5701	tags=40%, list=27%, signal=54%	
ATF4_Q2	ATF4_Q2		257	0.28624344	1.4284853	0.0	0.05941351	0.97	4636	tags=29%, list=22%, signal=37%	
ZNF558_TARGET_GENES	ZNF558_TARGET_GENES		260	0.28662667	1.4252828	0.0	0.0608162	0.97	4550	tags=31%, list=22%, signal=39%	
ZFP3_TARGET_GENES	ZFP3_TARGET_GENES		322	0.27884367	1.4242014	0.0	0.061059415	0.97	4387	tags=27%, list=21%, signal=34%	
E2F_03	E2F_03		245	0.28592393	1.4225549	0.0	0.06133247	0.972	6171	tags=42%, list=29%, signal=59%	
AP2_Q6	AP2_Q6		259	0.28480047	1.4223624	0.0	0.061097324	0.972	5673	tags=36%, list=27%, signal=49%	
PEA3_Q6	PEA3_Q6		261	0.2793386	1.4216232	0.0	0.061160434	0.973	4830	tags=33%, list=23%, signal=42%	
ZNF23_TARGET_GENES	ZNF23_TARGET_GENES		15	0.5001715	1.4193741	0.098445594	0.062019356	0.976	4403	tags=47%, list=21%, signal=59%	
SP1_01	SP1_01		237	0.28395683	1.4154965	0.005050505	0.06368622	0.978	4888	tags=31%, list=23%, signal=40%	
USF_Q6	USF_Q6		261	0.28304943	1.413547	0.0	0.06435794	0.98	5253	tags=33%, list=25%, signal=43%	
USF_Q6_01	USF_Q6_01		243	0.28474012	1.4133962	0.0047393367	0.06404731	0.981	4414	tags=30%, list=21%, signal=37%	
RBM15_TARGET_GENES	RBM15_TARGET_GENES		132	0.30790654	1.4125483	0.0102739725	0.06407943	0.981	2694	tags=20%, list=13%, signal=23%	
ZNF697_TARGET_GENES	ZNF697_TARGET_GENES		58	0.35621578	1.4097015	0.05120482	0.06505968	0.982	5293	tags=45%, list=25%, signal=60%	
WWTAAGGC_UNKNOWN	WWTAAGGC_UNKNOWN		145	0.30473405	1.406452	0.007843138	0.06619929	0.983	4329	tags=27%, list=21%, signal=34%	
E4BP4_01	E4BP4_01		218	0.28322947	1.4063754	0.0	0.06590325	0.983	3816	tags=29%, list=18%, signal=36%	
RRCCGTTA_UNKNOWN	RRCCGTTA_UNKNOWN		87	0.3304924	1.4054697	0.029508196	0.06613309	0.983	6750	tags=46%, list=32%, signal=68%	
SRCAP_TARGET_GENES	SRCAP_TARGET_GENES		439	0.26661444	1.4048619	0.0	0.0661035	0.983	3916	tags=25%, list=19%, signal=30%	
RBL1_TARGET_GENES	RBL1_TARGET_GENES		37	0.38854375	1.4031698	0.038674034	0.0665853	0.983	6094	tags=46%, list=29%, signal=65%	
CHAF1A_TARGET_GENES	CHAF1A_TARGET_GENES		90	0.32357597	1.3992321	0.025641026	0.06808239	0.984	6528	tags=51%, list=31%, signal=74%	
ARNT_01	ARNT_01		266	0.27395815	1.3973188	0.0056497175	0.06859944	0.984	5047	tags=33%, list=24%, signal=43%	
THRA_TARGET_GENES	THRA_TARGET_GENES		82	0.32999286	1.3968319	0.03642384	0.06843437	0.984	4274	tags=34%, list=20%, signal=43%	
CCGNMNNTNACG_UNKNOWN	CCGNMNNTNACG_UNKNOWN		79	0.33558676	1.3910979	0.029900333	0.0712552	0.987	3563	tags=29%, list=17%, signal=35%	
SGCGSSAAA_E2F1DP2_01	SGCGSSAAA_E2F1DP2_01		169	0.29234406	1.3877783	0.0121951215	0.072827674	0.987	5714	tags=36%, list=27%, signal=48%	
FOXD3_TARGET_GENES	FOXD3_TARGET_GENES		33	0.40016413	1.387665	0.07329843	0.07248017	0.987	2861	tags=24%, list=14%, signal=28%	
TSHZ1_TARGET_GENES	TSHZ1_TARGET_GENES		170	0.2841219	1.3829485	0.016806724	0.0747753	0.988	3397	tags=25%, list=16%, signal=29%	
UBE2I_TARGET_GENES	UBE2I_TARGET_GENES		60	0.349358	1.3827076	0.048158642	0.07451031	0.988	6880	tags=55%, list=33%, signal=82%	
ZNF512B_TARGET_GENES	ZNF512B_TARGET_GENES		199	0.28607717	1.3821373	0.0044247787	0.074428834	0.989	2966	tags=24%, list=14%, signal=27%	
TERF1_TARGET_GENES	TERF1_TARGET_GENES		247	0.27672637	1.3808651	0.0	0.074727684	0.989	4133	tags=30%, list=20%, signal=37%	
CREB3_TARGET_GENES	CREB3_TARGET_GENES		369	0.26428366	1.3800088	0.0	0.074899666	0.99	3331	tags=22%, list=16%, signal=26%	
ATF_01	ATF_01		264	0.2730094	1.3786954	0.0	0.07522886	0.99	4636	tags=27%, list=22%, signal=35%	
ZNF236_TARGET_GENES	ZNF236_TARGET_GENES		195	0.28634062	1.3781027	0.021008404	0.075206645	0.991	6382	tags=47%, list=30%, signal=67%	
E2F4DP1_01	E2F4DP1_01		241	0.2771648	1.3769875	0.004405286	0.07534573	0.991	6260	tags=40%, list=30%, signal=56%	
SP1_Q2_01	SP1_Q2_01		249	0.2770484	1.3766918	0.0	0.07512616	0.991	3619	tags=25%, list=17%, signal=30%	
LMNB2_TARGET_GENES	LMNB2_TARGET_GENES		35	0.3834571	1.3710866	0.053892214	0.07788054	0.994	4165	tags=37%, list=20%, signal=46%	
E2F_Q3	E2F_Q3		225	0.28090018	1.3702811	0.0045454544	0.07792427	0.994	6666	tags=47%, list=32%, signal=68%	
WCAANNNYCAG_UNKNOWN	WCAANNNYCAG_UNKNOWN		254	0.27420738	1.3690807	0.0049261083	0.07820773	0.994	3583	tags=25%, list=17%, signal=30%	
ZNF623_TARGET_GENES	ZNF623_TARGET_GENES		86	0.318373	1.3681387	0.05792683	0.07842142	0.994	6050	tags=40%, list=29%, signal=55%	
KDM1B_TARGET_GENES	KDM1B_TARGET_GENES		83	0.32197374	1.366802	0.034267914	0.078967735	0.995	7451	tags=61%, list=36%, signal=95%	
E2F1DP1RB_01	E2F1DP1RB_01		231	0.2773567	1.3660069	0.005	0.078957	0.995	6260	tags=41%, list=30%, signal=57%	
MCAATNNNNNGCG_UNKNOWN	MCAATNNNNNGCG_UNKNOWN		85	0.32439288	1.3641367	0.030864198	0.079774596	0.996	4417	tags=35%, list=21%, signal=45%	
CHAMP1_TARGET_GENES	CHAMP1_TARGET_GENES		179	0.2858405	1.3624266	0.016528925	0.08038021	0.996	5688	tags=40%, list=27%, signal=55%	
TBX3_TARGET_GENES	TBX3_TARGET_GENES		335	0.26369944	1.362068	0.0	0.080206685	0.997	5864	tags=36%, list=28%, signal=49%	
LCORL_TARGET_GENES	LCORL_TARGET_GENES		411	0.2599223	1.3610842	0.0	0.08032849	0.997	4488	tags=29%, list=21%, signal=36%	
NFY_Q6	NFY_Q6		259	0.2735935	1.3600808	0.004608295	0.080636814	0.997	3543	tags=23%, list=17%, signal=28%	
ZNF816_TARGET_GENES	ZNF816_TARGET_GENES		401	0.25881866	1.3588691	0.0	0.08099374	0.997	4793	tags=29%, list=23%, signal=37%	
ADNP_TARGET_GENES	ADNP_TARGET_GENES		82	0.32126507	1.3580197	0.045751635	0.081085674	0.997	2172	tags=20%, list=10%, signal=22%	
MYCMAX_01	MYCMAX_01		255	0.27013147	1.3570744	0.0044444446	0.08139791	0.997	4940	tags=35%, list=24%, signal=46%	
ELF1_Q6	ELF1_Q6		247	0.2702638	1.3545153	0.0	0.08262652	0.997	4262	tags=28%, list=20%, signal=34%	
YBX3_TARGET_GENES	YBX3_TARGET_GENES		54	0.34750998	1.3529891	0.077809796	0.08313788	0.997	5902	tags=37%, list=28%, signal=51%	
ELK1_01	ELK1_01		274	0.26568997	1.3472037	0.005	0.08660202	0.999	4422	tags=26%, list=21%, signal=32%	
GR_01	GR_01		200	0.28223538	1.3457274	0.024038462	0.08731319	0.999	3062	tags=23%, list=15%, signal=27%	
IRX3_TARGET_GENES	IRX3_TARGET_GENES		49	0.35015076	1.3449786	0.07692308	0.08746793	0.999	6253	tags=41%, list=30%, signal=58%	
ZNF830_TARGET_GENES	ZNF830_TARGET_GENES		267	0.27019963	1.3418717	0.005	0.0891208	0.999	4405	tags=27%, list=21%, signal=34%	
TFCP2_TARGET_GENES	TFCP2_TARGET_GENES		68	0.32340088	1.340124	0.05901639	0.0900324	1.0	5898	tags=41%, list=28%, signal=57%	
NFY_Q6_01	NFY_Q6_01		261	0.268025	1.3397434	0.0056818184	0.08991984	1.0	3664	tags=23%, list=17%, signal=28%	
ZNF140_TARGET_GENES	ZNF140_TARGET_GENES		491	0.24816757	1.3381296	0.0	0.09054911	1.0	6000	tags=37%, list=29%, signal=51%	
NFXL1_TARGET_GENES	NFXL1_TARGET_GENES		336	0.26024088	1.3362899	0.0057142857	0.091548875	1.0	4080	tags=29%, list=19%, signal=35%	
E2F1DP1_01	E2F1DP1_01		237	0.26547295	1.3303416	0.009302326	0.09554806	1.0	6144	tags=38%, list=29%, signal=54%	
NFY_C	NFY_C		245	0.26811007	1.3301421	0.0	0.09525145	1.0	3439	tags=21%, list=16%, signal=25%	
NEUROG3_TARGET_GENES	NEUROG3_TARGET_GENES		18	0.45250133	1.3300335	0.12722646	0.09489852	1.0	7259	tags=44%, list=35%, signal=68%	
E2F1DP2_01	E2F1DP2_01		237	0.26547295	1.3283356	0.014563107	0.09558658	1.0	6144	tags=38%, list=29%, signal=54%	
E2F_02	E2F_02		237	0.2680109	1.325129	0.013333334	0.09742819	1.0	6144	tags=39%, list=29%, signal=54%	
AR_03	AR_03		55	0.3479498	1.3247038	0.09271523	0.09734626	1.0	2751	tags=29%, list=13%, signal=33%	
E2F4DP2_01	E2F4DP2_01		237	0.26547295	1.317898	0.0	0.10240082	1.0	6144	tags=38%, list=29%, signal=54%	
KLF14_TARGET_GENES	KLF14_TARGET_GENES		230	0.26691023	1.3138386	0.014778325	0.10517094	1.0	5438	tags=34%, list=26%, signal=46%	
PAX8_01	PAX8_01		39	0.3734785	1.3109144	0.10103627	0.106949866	1.0	6414	tags=54%, list=31%, signal=77%	
CTCNANGTGNY_UNKNOWN	CTCNANGTGNY_UNKNOWN		90	0.30870193	1.3101162	0.072164945	0.10718807	1.0	3173	tags=26%, list=15%, signal=30%	
SOX3_TARGET_GENES	SOX3_TARGET_GENES		481	0.2462808	1.3071433	0.0	0.10938302	1.0	4480	tags=30%, list=21%, signal=37%	
ISRE_01	ISRE_01		250	0.2628243	1.3054276	0.01826484	0.110221006	1.0	3922	tags=27%, list=19%, signal=33%	
ZF5_B	ZF5_B		240	0.26532838	1.3048528	0.026737968	0.11033167	1.0	3557	tags=23%, list=17%, signal=28%	
ZBTB44_TARGET_GENES	ZBTB44_TARGET_GENES		307	0.25460917	1.3016043	0.016304348	0.11268303	1.0	5283	tags=34%, list=25%, signal=45%	
AP2ALPHA_01	AP2ALPHA_01		243	0.2588303	1.3015623	0.05	0.112227775	1.0	3770	tags=22%, list=18%, signal=26%	
CREB_Q3	CREB_Q3		251	0.25971848	1.300795	0.023923445	0.11255486	1.0	4391	tags=31%, list=21%, signal=38%	
PTPRA_TARGET_GENES	PTPRA_TARGET_GENES		109	0.28975964	1.3004901	0.04109589	0.11236942	1.0	3220	tags=22%, list=15%, signal=26%	
TBX1_TARGET_GENES	TBX1_TARGET_GENES		162	0.27394292	1.2987128	0.018939395	0.11338778	1.0	3981	tags=23%, list=19%, signal=28%	
ZNF394_TARGET_GENES	ZNF394_TARGET_GENES		364	0.24769752	1.2983624	0.0064935065	0.113270454	1.0	5328	tags=34%, list=25%, signal=44%	
NERF_Q2	NERF_Q2		252	0.2595153	1.2981894	0.018957347	0.11299653	1.0	3743	tags=23%, list=18%, signal=27%	
PRDM4_TARGET_GENES	PRDM4_TARGET_GENES		409	0.24517977	1.2977234	0.0	0.11296628	1.0	5449	tags=33%, list=26%, signal=43%	
MZF1_02	MZF1_02		235	0.26089814	1.2963647	0.020942409	0.11374465	1.0	4352	tags=30%, list=21%, signal=37%	
STTTCRNTTT_IRF_Q6	STTTCRNTTT_IRF_Q6		191	0.26912582	1.2958965	0.03153153	0.11370441	1.0	3172	tags=26%, list=15%, signal=30%	
ASXL2_TARGET_GENES	ASXL2_TARGET_GENES		23	0.39894027	1.2943807	0.13829787	0.114493355	1.0	3624	tags=30%, list=17%, signal=37%	
ZSCAN23_TARGET_GENES	ZSCAN23_TARGET_GENES		71	0.3146263	1.2919692	0.0877193	0.116058595	1.0	3922	tags=25%, list=19%, signal=31%	
FOXQ1_TARGET_GENES	FOXQ1_TARGET_GENES		37	0.35364148	1.2909895	0.109144546	0.116447955	1.0	4361	tags=35%, list=21%, signal=44%	
HLF_01	HLF_01		254	0.25760135	1.289801	0.009615385	0.116919845	1.0	4001	tags=29%, list=19%, signal=35%	
H1_6_TARGET_GENES	H1_6_TARGET_GENES		462	0.24161619	1.2889749	0.0	0.11729246	1.0	4294	tags=25%, list=20%, signal=31%	
CMYB_01	CMYB_01		252	0.25590727	1.2884758	0.020408163	0.117275365	1.0	5637	tags=38%, list=27%, signal=51%	
TTGCWCAAY_CEBPB_02	TTGCWCAAY_CEBPB_02		62	0.32196662	1.2879689	0.08895706	0.117247276	1.0	2119	tags=21%, list=10%, signal=23%	
ZBTB5_TARGET_GENES	ZBTB5_TARGET_GENES		168	0.27500468	1.2873285	0.02892562	0.11731111	1.0	7048	tags=48%, list=34%, signal=71%	
AR_01	AR_01		155	0.27640373	1.2865708	0.020242915	0.11752767	1.0	3757	tags=27%, list=18%, signal=33%	
ZNF223_TARGET_GENES	ZNF223_TARGET_GENES		292	0.2544762	1.2841198	0.023255814	0.118870534	1.0	4534	tags=28%, list=22%, signal=35%	
CREB_Q2	CREB_Q2		267	0.25881362	1.2840387	0.02116402	0.11847822	1.0	4636	tags=25%, list=22%, signal=32%	
USF_01	USF_01		263	0.25420764	1.2835054	0.028301887	0.11853699	1.0	4849	tags=30%, list=23%, signal=39%	
TGIF_01	TGIF_01		251	0.25785005	1.282967	0.01724138	0.11862954	1.0	4653	tags=32%, list=22%, signal=41%	
CENPT_TARGET_GENES	CENPT_TARGET_GENES		73	0.30847046	1.2817178	0.079027355	0.11943838	1.0	2553	tags=22%, list=12%, signal=25%	
HIF1_Q5	HIF1_Q5		248	0.2590417	1.2804388	0.03773585	0.120267995	1.0	3573	tags=23%, list=17%, signal=27%	
ETF_Q6	ETF_Q6		118	0.2881154	1.2799518	0.08421053	0.12028801	1.0	6460	tags=40%, list=31%, signal=57%	
TTTNNANAGCYR_UNKNOWN	TTTNNANAGCYR_UNKNOWN		128	0.27711487	1.2795652	0.049469966	0.120321035	1.0	4018	tags=32%, list=19%, signal=39%	
SRF_01	SRF_01		51	0.33265516	1.2786428	0.08529412	0.12062037	1.0	1431	tags=20%, list=7%, signal=21%	
MAZ_Q6	MAZ_Q6		192	0.26288554	1.271888	0.038793102	0.12612566	1.0	4454	tags=28%, list=21%, signal=35%	
CREB3L2_TARGET_GENES	CREB3L2_TARGET_GENES		119	0.28341147	1.271624	0.06439394	0.1258837	1.0	6237	tags=39%, list=30%, signal=56%	
YBX1_TARGET_GENES	YBX1_TARGET_GENES		66	0.314233	1.2706559	0.07941177	0.12652431	1.0	5380	tags=41%, list=26%, signal=55%	
HSF2_TARGET_GENES	HSF2_TARGET_GENES		228	0.25790668	1.2676549	0.024038462	0.12931827	1.0	4173	tags=24%, list=20%, signal=30%	
CETS1P54_01	CETS1P54_01		263	0.2502998	1.2672231	0.024390243	0.1291554	1.0	4428	tags=26%, list=21%, signal=33%	
ZMYM2_TARGET_GENES	ZMYM2_TARGET_GENES		119	0.27986878	1.2659227	0.06367041	0.130014	1.0	3603	tags=25%, list=17%, signal=30%	
CREB_Q4	CREB_Q4		270	0.25131568	1.2650005	0.018292682	0.13044706	1.0	4636	tags=26%, list=22%, signal=32%	
CREB_02	CREB_02		259	0.2529102	1.263684	0.019138755	0.13133164	1.0	6295	tags=40%, list=30%, signal=56%	
TNCATNTCCYR_UNKNOWN	TNCATNTCCYR_UNKNOWN		135	0.2691555	1.26141	0.05923345	0.13309288	1.0	6512	tags=48%, list=31%, signal=69%	
STAT1_03	STAT1_03		250	0.2525477	1.2549158	0.052083332	0.13914448	1.0	5710	tags=36%, list=27%, signal=49%	
AP1_Q4	AP1_Q4		268	0.2511967	1.2530912	0.026737968	0.14065652	1.0	4909	tags=30%, list=23%, signal=39%	
BCL6B_TARGET_GENES	BCL6B_TARGET_GENES		150	0.27154225	1.2522506	0.072	0.141011	1.0	3416	tags=23%, list=16%, signal=28%	
ER_Q6_01	ER_Q6_01		280	0.24660482	1.2515916	0.02247191	0.14109772	1.0	3161	tags=23%, list=15%, signal=26%	
YY1_01	YY1_01		250	0.24837607	1.2494607	0.032432433	0.14298496	1.0	4724	tags=33%, list=23%, signal=42%	
PHB2_TARGET_GENES	PHB2_TARGET_GENES		170	0.26533824	1.2491006	0.053061225	0.1427795	1.0	5959	tags=41%, list=28%, signal=56%	
DR3_Q4	DR3_Q4		148	0.27124923	1.2464203	0.04528302	0.14509979	1.0	3872	tags=27%, list=18%, signal=33%	
SREBP_Q3	SREBP_Q3		256	0.2469877	1.2461609	0.014423077	0.1449106	1.0	2096	tags=15%, list=10%, signal=16%	
AP2_Q6_01	AP2_Q6_01		269	0.24632357	1.2408878	0.020100502	0.15041748	1.0	3216	tags=19%, list=15%, signal=22%	
ZNF555_TARGET_GENES	ZNF555_TARGET_GENES		47	0.32258245	1.2395809	0.11388889	0.15158334	1.0	5293	tags=43%, list=25%, signal=57%	
CDC5L_TARGET_GENES	CDC5L_TARGET_GENES		258	0.24344826	1.2355008	0.027472528	0.15608442	1.0	4037	tags=24%, list=19%, signal=30%	
CCTNTMAGA_UNKNOWN	CCTNTMAGA_UNKNOWN		129	0.27000365	1.2345583	0.057692308	0.15674837	1.0	3596	tags=25%, list=17%, signal=30%	
RRAGTTGT_UNKNOWN	RRAGTTGT_UNKNOWN		254	0.2464248	1.2344857	0.033653848	0.15627578	1.0	4599	tags=30%, list=22%, signal=38%	
CREL_01	CREL_01		255	0.24602991	1.233135	0.032258064	0.15764587	1.0	4128	tags=27%, list=20%, signal=33%	
CREBP1CJUN_01	CREBP1CJUN_01		261	0.24044375	1.2302943	0.031088082	0.16078748	1.0	4636	tags=28%, list=22%, signal=35%	
ALPHACP1_01	ALPHACP1_01		259	0.24412794	1.2301215	0.057017542	0.16042253	1.0	3472	tags=22%, list=17%, signal=26%	
EGR_Q6	EGR_Q6		275	0.24649	1.2290846	0.027624309	0.1612042	1.0	3739	tags=24%, list=18%, signal=29%	
STAT1_02	STAT1_02		259	0.24561945	1.2280203	0.05235602	0.16192593	1.0	6307	tags=40%, list=30%, signal=57%	
MAF_Q6	MAF_Q6		263	0.2466347	1.2260411	0.031746034	0.16393858	1.0	5362	tags=36%, list=26%, signal=47%	
SOX5_01	SOX5_01		265	0.24567395	1.2258205	0.015384615	0.16363655	1.0	2852	tags=21%, list=14%, signal=24%	
THRAP3_TARGET_GENES	THRAP3_TARGET_GENES		21	0.3945553	1.2246487	0.17585301	0.16469747	1.0	5408	tags=43%, list=26%, signal=58%	
FOXC1_TARGET_GENES	FOXC1_TARGET_GENES		36	0.3401888	1.223115	0.18836565	0.16631468	1.0	3395	tags=25%, list=16%, signal=30%	
TFIIA_Q6	TFIIA_Q6		253	0.24534895	1.2223774	0.036649216	0.16682993	1.0	2957	tags=19%, list=14%, signal=21%	
AACWWCAANK_UNKNOWN	AACWWCAANK_UNKNOWN		145	0.26614556	1.2212169	0.11929824	0.1677541	1.0	4307	tags=30%, list=21%, signal=37%	
FOXO4_01	FOXO4_01		243	0.24383436	1.2195649	0.05970149	0.16934717	1.0	3819	tags=24%, list=18%, signal=29%	
SMAD_Q6	SMAD_Q6		254	0.2408506	1.2177567	0.04	0.17123964	1.0	2813	tags=19%, list=13%, signal=21%	
IRF1_01	IRF1_01		253	0.24260266	1.216465	0.036458332	0.1724778	1.0	4898	tags=30%, list=23%, signal=39%	
HFH8_01	HFH8_01		205	0.2473679	1.2154734	0.034146342	0.17328142	1.0	3301	tags=23%, list=16%, signal=28%	
CEBPB_01	CEBPB_01		262	0.2386102	1.205998	0.059139784	0.1862571	1.0	3425	tags=22%, list=16%, signal=26%	
ZNF781_TARGET_GENES	ZNF781_TARGET_GENES		146	0.25984952	1.2055674	0.08064516	0.18631852	1.0	5458	tags=38%, list=26%, signal=52%	
ZNF404_TARGET_GENES	ZNF404_TARGET_GENES		19	0.39549446	1.2035272	0.21374045	0.18865997	1.0	3922	tags=37%, list=19%, signal=45%	
ZIC1_01	ZIC1_01		263	0.24144442	1.2017366	0.06349207	0.19050223	1.0	5323	tags=33%, list=25%, signal=43%	
TEL2_Q6	TEL2_Q6		238	0.24253996	1.1998298	0.042857144	0.19250068	1.0	3865	tags=22%, list=18%, signal=27%	
PTTG1_TARGET_GENES	PTTG1_TARGET_GENES		66	0.29356432	1.1987226	0.13826367	0.1935404	1.0	3919	tags=23%, list=19%, signal=28%	
ZNF585B_TARGET_GENES	ZNF585B_TARGET_GENES		113	0.26654524	1.1984632	0.11071429	0.19339359	1.0	3090	tags=23%, list=15%, signal=27%	
METHYLCYTOSINE_DIOXYGENASE_TET_UNIPROT_A0A023HHK9_UNREVIEWED_TARGET_GENES	METHYLCYTOSINE_DIOXYGENASE_TET_UNIPROT_A0A023HHK9_UNREVIEWED_TARGET_GENES		128	0.2618575	1.1970627	0.10726643	0.19479719	1.0	4697	tags=30%, list=22%, signal=38%	
PPARA_02	PPARA_02		131	0.25847366	1.1941829	0.08391608	0.1986798	1.0	4290	tags=26%, list=20%, signal=32%	
ZNF584_TARGET_GENES	ZNF584_TARGET_GENES		166	0.25156686	1.192783	0.08429119	0.20023121	1.0	5439	tags=33%, list=26%, signal=44%	
SRPK2_TARGET_GENES	SRPK2_TARGET_GENES		62	0.2937599	1.19143	0.16109422	0.20162354	1.0	1972	tags=16%, list=9%, signal=18%	
GCTNWTTGK_UNKNOWN	GCTNWTTGK_UNKNOWN		302	0.23563246	1.1897794	0.051813472	0.20349467	1.0	2798	tags=19%, list=13%, signal=21%	
DNMT1_TARGET_GENES	DNMT1_TARGET_GENES		159	0.24899192	1.1881799	0.098712444	0.20554304	1.0	5207	tags=28%, list=25%, signal=37%	
MYCMAX_03	MYCMAX_03		261	0.23707177	1.1860957	0.084269665	0.20786396	1.0	4940	tags=31%, list=24%, signal=40%	
PR_01	PR_01		144	0.25569198	1.1860629	0.10227273	0.20727699	1.0	3115	tags=24%, list=15%, signal=28%	
PAX4_01	PAX4_01		265	0.23288858	1.1793822	0.06806283	0.2175257	1.0	4072	tags=23%, list=19%, signal=29%	
NFKB_C	NFKB_C		263	0.23723412	1.1790318	0.072463766	0.21745613	1.0	3846	tags=25%, list=18%, signal=30%	
CCCNNNNNNAAGWT_UNKNOWN	CCCNNNNNNAAGWT_UNKNOWN		103	0.26705727	1.1787539	0.15714286	0.21730182	1.0	6225	tags=39%, list=30%, signal=55%	
AHRARNT_02	AHRARNT_02		15	0.40540528	1.1780186	0.24938875	0.21771224	1.0	3399	tags=33%, list=16%, signal=40%	
E2F_01	E2F_01		67	0.28703326	1.1771373	0.16969697	0.21870744	1.0	6501	tags=48%, list=31%, signal=69%	
IRF7_01	IRF7_01		255	0.2345829	1.1765802	0.07177033	0.21900514	1.0	4898	tags=30%, list=23%, signal=39%	
YTCCCRNNAGGY_UNKNOWN	YTCCCRNNAGGY_UNKNOWN		73	0.2873643	1.1752245	0.19384615	0.22068268	1.0	5939	tags=40%, list=28%, signal=55%	
HTF_01	HTF_01		71	0.28595653	1.1726469	0.17	0.22441524	1.0	3525	tags=30%, list=17%, signal=35%	
HAND1_TARGET_GENES	HAND1_TARGET_GENES		418	0.22179328	1.1703205	0.05	0.22782883	1.0	4980	tags=31%, list=24%, signal=39%	
RAX2_TARGET_GENES	RAX2_TARGET_GENES		66	0.28880867	1.1681451	0.17610063	0.23107451	1.0	5032	tags=29%, list=24%, signal=38%	
F10_TARGET_GENES	F10_TARGET_GENES		241	0.23556611	1.1664758	0.09947644	0.23326476	1.0	4472	tags=31%, list=21%, signal=39%	
MAZR_01	MAZR_01		223	0.23476408	1.1647522	0.11165048	0.2358134	1.0	5742	tags=37%, list=27%, signal=50%	
SKP2_TARGET_GENES	SKP2_TARGET_GENES		53	0.29760748	1.1640266	0.20376176	0.2365108	1.0	2506	tags=19%, list=12%, signal=21%	
SIPA1_TARGET_GENES	SIPA1_TARGET_GENES		123	0.2551972	1.1637125	0.14285715	0.23632535	1.0	3124	tags=18%, list=15%, signal=21%	
MYB_Q3	MYB_Q3		248	0.23377472	1.1630893	0.077319585	0.23684284	1.0	3910	tags=22%, list=19%, signal=27%	
STAT_01	STAT_01		255	0.23194066	1.1614629	0.08585858	0.23899922	1.0	3527	tags=23%, list=17%, signal=27%	
TAZ_TARGET_GENES	TAZ_TARGET_GENES		420	0.22122435	1.1611016	0.05035971	0.23891734	1.0	4165	tags=25%, list=20%, signal=30%	
AP2_Q3	AP2_Q3		253	0.23076528	1.1600424	0.109195404	0.23994371	1.0	3247	tags=20%, list=16%, signal=23%	
ZF5_01	ZF5_01		234	0.2371941	1.159076	0.116883114	0.24091852	1.0	4478	tags=26%, list=21%, signal=32%	
YRCCAKNNGNCGC_UNKNOWN	YRCCAKNNGNCGC_UNKNOWN		66	0.27752802	1.1587484	0.189441	0.24078743	1.0	1358	tags=11%, list=6%, signal=11%	
TTAYRTAA_E4BP4_01	TTAYRTAA_E4BP4_01		265	0.22981742	1.1565572	0.107317075	0.24419868	1.0	3244	tags=22%, list=15%, signal=25%	
MYOD_Q6_01	MYOD_Q6_01		255	0.23396343	1.156344	0.09045226	0.24384233	1.0	3506	tags=22%, list=17%, signal=26%	
NFY_01	NFY_01		257	0.23041646	1.1551896	0.09756097	0.24522878	1.0	3439	tags=19%, list=16%, signal=23%	
KRCTCNNNNMANAGC_UNKNOWN	KRCTCNNNNMANAGC_UNKNOWN		61	0.28592676	1.1550974	0.18042813	0.24473068	1.0	3723	tags=34%, list=18%, signal=42%	
IRF_Q6	IRF_Q6		242	0.23277576	1.1542777	0.09174312	0.24553515	1.0	4232	tags=27%, list=20%, signal=33%	
ATM_TARGET_GENES	ATM_TARGET_GENES		15	0.41172218	1.1504033	0.26804122	0.25184438	1.0	2346	tags=33%, list=11%, signal=38%	
CREB_Q2_01	CREB_Q2_01		224	0.23464239	1.1486869	0.09210526	0.25489393	1.0	3199	tags=19%, list=15%, signal=22%	
NGFIC_01	NGFIC_01		254	0.23007707	1.146089	0.105	0.25954157	1.0	3696	tags=25%, list=18%, signal=30%	
PAX2_02	PAX2_02		264	0.22815832	1.1456068	0.113300495	0.2596805	1.0	2261	tags=17%, list=11%, signal=18%	
TCANNTGAY_SREBP1_01	TCANNTGAY_SREBP1_01		477	0.21600898	1.1448351	0.057142857	0.26043433	1.0	4949	tags=29%, list=24%, signal=37%	
MEIS1_01	MEIS1_01		248	0.2279883	1.1441414	0.09178744	0.26133475	1.0	4111	tags=28%, list=20%, signal=35%	
NFKAPPAB_01	NFKAPPAB_01		251	0.22669487	1.1387242	0.12195122	0.27153277	1.0	3566	tags=23%, list=17%, signal=28%	
HOXA7_TARGET_GENES	HOXA7_TARGET_GENES		104	0.25670853	1.137032	0.20422535	0.27438655	1.0	6200	tags=36%, list=30%, signal=50%	
STAT6_02	STAT6_02		256	0.22658603	1.1359932	0.12435233	0.27593422	1.0	4837	tags=29%, list=23%, signal=37%	
SOX11_TARGET_GENES	SOX11_TARGET_GENES		41	0.30456093	1.1346769	0.25287357	0.2777419	1.0	6417	tags=44%, list=31%, signal=63%	
TGASTMAGC_NFE2_01	TGASTMAGC_NFE2_01		192	0.23379324	1.1340921	0.1399177	0.2782441	1.0	1495	tags=10%, list=7%, signal=11%	
EGR2_01	EGR2_01		197	0.23232113	1.1313632	0.15384616	0.28387368	1.0	3591	tags=25%, list=17%, signal=30%	
TGACGTCA_ATF3_Q6	TGACGTCA_ATF3_Q6		232	0.2290337	1.1297318	0.15151516	0.28682193	1.0	4636	tags=27%, list=22%, signal=34%	
CATTGTYY_SOX9_B1	CATTGTYY_SOX9_B1		363	0.21935387	1.129418	0.08695652	0.28666374	1.0	2855	tags=18%, list=14%, signal=20%	
SRY_01	SRY_01		227	0.227978	1.1244775	0.14285715	0.2965603	1.0	2777	tags=19%, list=13%, signal=22%	
RORA1_01	RORA1_01		245	0.22697078	1.1225789	0.12041885	0.30030286	1.0	4130	tags=26%, list=20%, signal=32%	
PAX8_B	PAX8_B		106	0.25886208	1.1220522	0.21167883	0.30088684	1.0	4871	tags=33%, list=23%, signal=43%	
HOXD1_TARGET_GENES	HOXD1_TARGET_GENES		55	0.2897923	1.1198854	0.24679486	0.30469885	1.0	5126	tags=36%, list=24%, signal=48%	
ER_Q6	ER_Q6		282	0.21946187	1.1197578	0.12562814	0.30418754	1.0	2855	tags=18%, list=14%, signal=20%	
ZNF436_TARGET_GENES	ZNF436_TARGET_GENES		450	0.21315278	1.1191245	0.0979021	0.30480272	1.0	3505	tags=20%, list=17%, signal=24%	
FAC1_01	FAC1_01		224	0.23106675	1.1189001	0.175	0.3044045	1.0	4104	tags=26%, list=20%, signal=32%	
SP1_Q4_01	SP1_Q4_01		259	0.2231479	1.1173147	0.1773399	0.30744117	1.0	5167	tags=30%, list=25%, signal=39%	
IRF2_01	IRF2_01		129	0.2444775	1.1158344	0.19931272	0.3096834	1.0	4614	tags=29%, list=22%, signal=37%	
AREB6_03	AREB6_03		262	0.22113308	1.114522	0.12169312	0.31186914	1.0	1326	tags=9%, list=6%, signal=9%	
HEY2_TARGET_GENES	HEY2_TARGET_GENES		58	0.28107625	1.1103605	0.25757575	0.32094228	1.0	4145	tags=31%, list=20%, signal=39%	
ZNF490_TARGET_GENES	ZNF490_TARGET_GENES		287	0.21910733	1.1101428	0.1761658	0.32065064	1.0	4796	tags=30%, list=23%, signal=38%	
YGTCCTTGR_UNKNOWN	YGTCCTTGR_UNKNOWN		97	0.25538802	1.1099951	0.24342105	0.32012713	1.0	3091	tags=23%, list=15%, signal=26%	
USF_C	USF_C		280	0.221883	1.1086196	0.17391305	0.3228653	1.0	3376	tags=20%, list=16%, signal=24%	
CEBP_C	CEBP_C		202	0.22555281	1.1073931	0.19730942	0.32507387	1.0	3816	tags=26%, list=18%, signal=31%	
CAVIN1_TARGET_GENES	CAVIN1_TARGET_GENES		78	0.27108842	1.1061094	0.23659305	0.32737046	1.0	3919	tags=26%, list=19%, signal=31%	
ZIC2_01	ZIC2_01		249	0.22119066	1.1050005	0.17431192	0.32937667	1.0	4123	tags=24%, list=20%, signal=29%	
E2F1_Q3_01	E2F1_Q3_01		246	0.22466798	1.1048049	0.1797235	0.32903278	1.0	5759	tags=36%, list=27%, signal=49%	
GLI1_TARGET_GENES	GLI1_TARGET_GENES		480	0.20710741	1.1038771	0.06153846	0.3304037	1.0	3961	tags=23%, list=19%, signal=27%	
CREBP1_01	CREBP1_01		181	0.23069865	1.1012836	0.19266056	0.3355148	1.0	3990	tags=26%, list=19%, signal=32%	
GGGNRMNNYCAT_UNKNOWN	GGGNRMNNYCAT_UNKNOWN		82	0.26220575	1.100466	0.25739646	0.33674702	1.0	3664	tags=26%, list=17%, signal=31%	
YRTCANNRCGC_UNKNOWN	YRTCANNRCGC_UNKNOWN		64	0.27164942	1.0999248	0.28869048	0.3372985	1.0	4579	tags=30%, list=22%, signal=38%	
TAXCREB_02	TAXCREB_02		27	0.32620078	1.0992013	0.29396325	0.33825716	1.0	3453	tags=30%, list=16%, signal=35%	
TCF1P_Q6	TCF1P_Q6		267	0.21803164	1.0982797	0.17171717	0.33971998	1.0	3770	tags=24%, list=18%, signal=29%	
DR4_Q2	DR4_Q2		264	0.22086295	1.0969791	0.19387755	0.3420845	1.0	3526	tags=22%, list=17%, signal=27%	
STAT5A_02	STAT5A_02		143	0.2350469	1.0937165	0.22463769	0.34962	1.0	4585	tags=31%, list=22%, signal=39%	
HDAC8_TARGET_GENES	HDAC8_TARGET_GENES		115	0.25002944	1.090822	0.29710144	0.35637838	1.0	5931	tags=34%, list=28%, signal=47%	
MYBL1_TARGET_GENES	MYBL1_TARGET_GENES		186	0.22594012	1.0900633	0.24267782	0.35756165	1.0	5283	tags=32%, list=25%, signal=43%	
YGACNNYACAR_UNKNOWN	YGACNNYACAR_UNKNOWN		98	0.24990645	1.0883301	0.27062705	0.36144918	1.0	4407	tags=32%, list=21%, signal=40%	
SMTTTTGT_UNKNOWN	SMTTTTGT_UNKNOWN		405	0.20936443	1.0870467	0.16981132	0.36412683	1.0	4949	tags=30%, list=24%, signal=39%	
MYOCD_TARGET_GENES	MYOCD_TARGET_GENES		495	0.20410903	1.0862281	0.1440678	0.36556375	1.0	5138	tags=30%, list=25%, signal=39%	
FOXO4_02	FOXO4_02		261	0.21735904	1.0812649	0.203125	0.37798673	1.0	3797	tags=25%, list=18%, signal=30%	
CREB_Q4_01	CREB_Q4_01		214	0.2171128	1.080453	0.23444976	0.37928894	1.0	4636	tags=24%, list=22%, signal=30%	
PRMT5_TARGET_GENES	PRMT5_TARGET_GENES		77	0.26087102	1.080129	0.30959752	0.37921363	1.0	4497	tags=29%, list=21%, signal=36%	
TGTYNNNNNRGCARM_UNKNOWN	TGTYNNNNNRGCARM_UNKNOWN		87	0.24950464	1.0777346	0.27364865	0.38492322	1.0	2487	tags=18%, list=12%, signal=21%	
SRF_C	SRF_C		213	0.22071622	1.0772489	0.24444444	0.385252	1.0	3911	tags=23%, list=19%, signal=28%	
AP1FJ_Q2	AP1FJ_Q2		268	0.21579103	1.0752647	0.22790697	0.38960907	1.0	5064	tags=28%, list=24%, signal=37%	
GR_Q6_01	GR_Q6_01		276	0.21481296	1.0752169	0.24431819	0.38871962	1.0	3440	tags=22%, list=16%, signal=27%	
MIF1_01	MIF1_01		181	0.22230822	1.0747756	0.24472573	0.38899398	1.0	3194	tags=23%, list=15%, signal=27%	
YNGTTNNNATT_UNKNOWN	YNGTTNNNATT_UNKNOWN		371	0.20474754	1.0739034	0.1971831	0.39064142	1.0	5405	tags=34%, list=26%, signal=45%	
ZID_01	ZID_01		268	0.2101711	1.0716218	0.2029703	0.39665976	1.0	4871	tags=31%, list=23%, signal=39%	
SOX9_B1	SOX9_B1		237	0.21736771	1.0713955	0.2283105	0.396188	1.0	3124	tags=20%, list=15%, signal=24%	
CREB_01	CREB_01		265	0.21675776	1.0710257	0.23737374	0.39635226	1.0	4636	tags=26%, list=22%, signal=33%	
ZNF512_TARGET_GENES	ZNF512_TARGET_GENES		362	0.20476526	1.0698855	0.19411765	0.39853653	1.0	4266	tags=26%, list=20%, signal=32%	
SP3_Q3	SP3_Q3		249	0.21350873	1.069701	0.24038461	0.39805022	1.0	5774	tags=33%, list=28%, signal=44%	
ICSBP_Q6	ICSBP_Q6		252	0.21304116	1.0686493	0.25615764	0.40007183	1.0	4109	tags=26%, list=20%, signal=32%	
YWATTWNNRGCT_UNKNOWN	YWATTWNNRGCT_UNKNOWN		70	0.25710604	1.0680492	0.3220859	0.40070266	1.0	3492	tags=23%, list=17%, signal=27%	
MMEF2_Q6	MMEF2_Q6		270	0.20966521	1.0666795	0.27604166	0.40343243	1.0	2730	tags=18%, list=13%, signal=20%	
ERR1_Q2	ERR1_Q2		266	0.20963728	1.0640665	0.2320442	0.40996405	1.0	3405	tags=20%, list=16%, signal=23%	
FOXO1_02	FOXO1_02		248	0.22023603	1.0633485	0.28061223	0.4110974	1.0	3890	tags=25%, list=19%, signal=30%	
PAF1_TARGET_GENES	PAF1_TARGET_GENES		60	0.2678266	1.0630473	0.30397728	0.41095275	1.0	4374	tags=32%, list=21%, signal=40%	
MAPK3_TARGET_GENES	MAPK3_TARGET_GENES		48	0.281879	1.062258	0.32380953	0.4122376	1.0	3439	tags=21%, list=16%, signal=25%	
MYOD_Q6	MYOD_Q6		246	0.21374248	1.0616978	0.26595744	0.4128267	1.0	4111	tags=25%, list=20%, signal=31%	
NUFIP1_TARGET_GENES	NUFIP1_TARGET_GENES		38	0.29386574	1.0601265	0.36778116	0.41618758	1.0	6994	tags=53%, list=33%, signal=79%	
VDR_Q6	VDR_Q6		270	0.21046337	1.0585502	0.2614679	0.4200448	1.0	3074	tags=19%, list=15%, signal=22%	
ZNF41_TARGET_GENES	ZNF41_TARGET_GENES		88	0.24866986	1.0579455	0.34726688	0.42080423	1.0	5062	tags=36%, list=24%, signal=48%	
MCM3_TARGET_GENES	MCM3_TARGET_GENES		181	0.21870321	1.057585	0.30701753	0.4208366	1.0	4674	tags=28%, list=22%, signal=36%	
CEBP_Q2	CEBP_Q2		234	0.21730627	1.0562739	0.29946524	0.42370555	1.0	4599	tags=28%, list=22%, signal=36%	
IK2_01	IK2_01		272	0.20984809	1.0523127	0.27941176	0.43460962	1.0	3471	tags=21%, list=17%, signal=24%	
TCCATTKW_UNKNOWN	TCCATTKW_UNKNOWN		238	0.21315476	1.0514501	0.2511628	0.43647105	1.0	4122	tags=26%, list=20%, signal=32%	
STAT6_01	STAT6_01		270	0.21068655	1.048671	0.31603774	0.44400072	1.0	3565	tags=24%, list=17%, signal=28%	
SOX10_TARGET_GENES	SOX10_TARGET_GENES		252	0.21230938	1.0484135	0.35365853	0.44371545	1.0	2659	tags=18%, list=13%, signal=21%	
CDC5_01	CDC5_01		259	0.20970488	1.0468277	0.28804347	0.44743425	1.0	3910	tags=24%, list=19%, signal=29%	
SREBP1_Q6	SREBP1_Q6		247	0.21208023	1.0464184	0.28502417	0.4478256	1.0	2096	tags=13%, list=10%, signal=14%	
GGAMTNNNNNTCCY_UNKNOWN	GGAMTNNNNNTCCY_UNKNOWN		119	0.23410387	1.042611	0.3605948	0.45896146	1.0	4476	tags=26%, list=21%, signal=33%	
RYTGCNNRGNAAC_MIF1_01	RYTGCNNRGNAAC_MIF1_01		87	0.24818681	1.0409343	0.37728938	0.46313205	1.0	4409	tags=33%, list=21%, signal=42%	
E2F_Q2	E2F_Q2		177	0.21877256	1.0405062	0.34497815	0.46365175	1.0	6368	tags=36%, list=30%, signal=52%	
CREBP1_Q2	CREBP1_Q2		256	0.21156894	1.0404251	0.31506848	0.46278167	1.0	4677	tags=25%, list=22%, signal=32%	
AP1_Q6	AP1_Q6		255	0.20931792	1.040243	0.33507854	0.46228734	1.0	4731	tags=25%, list=23%, signal=33%	
CACBINDINGPROTEIN_Q6	CACBINDINGPROTEIN_Q6		244	0.2099558	1.039586	0.31455398	0.46317494	1.0	4871	tags=29%, list=23%, signal=37%	
ZNF486_TARGET_GENES	ZNF486_TARGET_GENES		179	0.21774495	1.0394592	0.33620688	0.46249217	1.0	3129	tags=22%, list=15%, signal=25%	
CEBP_Q3	CEBP_Q3		249	0.20859653	1.0385725	0.34358975	0.46400574	1.0	2739	tags=18%, list=13%, signal=21%	
TGANNYRGCA_TCF11MAFG_01	TGANNYRGCA_TCF11MAFG_01		304	0.20427313	1.0354183	0.29213482	0.47262743	1.0	3622	tags=18%, list=17%, signal=22%	
TTCYNRGAA_STAT5B_01	TTCYNRGAA_STAT5B_01		339	0.20196135	1.0346478	0.2969697	0.47410077	1.0	4147	tags=24%, list=20%, signal=30%	
AP1_Q2	AP1_Q2		263	0.20791155	1.0340617	0.3364929	0.47477606	1.0	2782	tags=16%, list=13%, signal=18%	
AML1_Q6	AML1_Q6		269	0.20523515	1.0329299	0.3233831	0.47711727	1.0	4310	tags=24%, list=21%, signal=30%	
EGR1_01	EGR1_01		269	0.20751984	1.0301039	0.35820895	0.484822	1.0	3641	tags=22%, list=17%, signal=27%	
MYCMAX_B	MYCMAX_B		266	0.20407228	1.0297002	0.38190955	0.48498768	1.0	6427	tags=41%, list=31%, signal=59%	
USF_02	USF_02		275	0.20169058	1.029217	0.3548387	0.4854878	1.0	4260	tags=23%, list=20%, signal=29%	
TCF11_01	TCF11_01		253	0.204721	1.0279385	0.38647342	0.4886917	1.0	3855	tags=24%, list=18%, signal=29%	
CCCNNGGGAR_OLF1_01	CCCNNGGGAR_OLF1_01		321	0.19780679	1.0272331	0.34502923	0.48984262	1.0	3696	tags=20%, list=18%, signal=24%	
HNF3B_01	HNF3B_01		220	0.2079353	1.0271337	0.35443038	0.48905012	1.0	3471	tags=20%, list=17%, signal=24%	
SRF_Q5_01	SRF_Q5_01		223	0.20595804	1.0247583	0.4	0.49571365	1.0	3332	tags=18%, list=16%, signal=21%	
CGGAARNGGCNG_UNKNOWN	CGGAARNGGCNG_UNKNOWN		56	0.2637102	1.0244726	0.4258675	0.49569893	1.0	4124	tags=25%, list=20%, signal=31%	
SF1_Q6	SF1_Q6		257	0.20693317	1.0239958	0.37914693	0.4960953	1.0	4098	tags=22%, list=20%, signal=27%	
AML1_01	AML1_01		269	0.20523515	1.0228482	0.3964497	0.49887094	1.0	4310	tags=24%, list=21%, signal=30%	
ZNF595_TARGET_GENES	ZNF595_TARGET_GENES		83	0.2479095	1.022212	0.43636364	0.49974892	1.0	6830	tags=40%, list=33%, signal=59%	
AR_Q2	AR_Q2		121	0.22515595	1.0221434	0.39222616	0.49887702	1.0	3708	tags=26%, list=18%, signal=32%	
NFKB_Q6	NFKB_Q6		253	0.20546009	1.0215882	0.3939394	0.4996551	1.0	4590	tags=25%, list=22%, signal=32%	
ZNF433_TARGET_GENES	ZNF433_TARGET_GENES		53	0.26406902	1.0213739	0.39823008	0.49938124	1.0	5424	tags=40%, list=26%, signal=53%	
GCM_Q2	GCM_Q2		240	0.20623186	1.0204445	0.40609136	0.5012812	1.0	3645	tags=21%, list=17%, signal=25%	
GGAANCGGAANY_UNKNOWN	GGAANCGGAANY_UNKNOWN		110	0.22662377	1.0194156	0.3784722	0.50358343	1.0	4078	tags=23%, list=19%, signal=28%	
ZNF677_TARGET_GENES	ZNF677_TARGET_GENES		117	0.22722554	1.0191636	0.4021739	0.5033122	1.0	5155	tags=28%, list=25%, signal=37%	
CAGNYGKNAAA_UNKNOWN	CAGNYGKNAAA_UNKNOWN		77	0.24650759	1.0147914	0.39145908	0.5167595	1.0	5427	tags=30%, list=26%, signal=40%	
SS18_SSX1_FUSION_UNIPROT_Q8IZH1_UNREVIEWED_TARGET_GENES	SS18_SSX1_FUSION_UNIPROT_Q8IZH1_UNREVIEWED_TARGET_GENES		87	0.2378322	1.0136104	0.41776314	0.5198891	1.0	2081	tags=20%, list=10%, signal=22%	
AREB6_04	AREB6_04		250	0.20486727	1.0131499	0.41584158	0.5202495	1.0	3922	tags=24%, list=19%, signal=30%	
PRDM12_TARGET_GENES	PRDM12_TARGET_GENES		109	0.22931615	1.0122067	0.40614334	0.5223086	1.0	5424	tags=37%, list=26%, signal=49%	
HNF4_01_B	HNF4_01_B		255	0.20322973	1.0117998	0.39613527	0.52244484	1.0	4382	tags=25%, list=21%, signal=32%	
RFX1_01	RFX1_01		259	0.20169644	1.009182	0.3939394	0.53025013	1.0	3350	tags=20%, list=16%, signal=24%	
ATF1_Q6	ATF1_Q6		234	0.20505889	1.0076628	0.40723982	0.53454393	1.0	1413	tags=10%, list=7%, signal=10%	
XBP1_01	XBP1_01		135	0.21793579	1.0059428	0.42124543	0.5391486	1.0	4010	tags=27%, list=19%, signal=34%	
FREAC3_01	FREAC3_01		252	0.20241773	1.0058043	0.4526316	0.5384382	1.0	2189	tags=15%, list=10%, signal=17%	
YGCANTGCR_UNKNOWN	YGCANTGCR_UNKNOWN		127	0.2195821	1.0048395	0.456446	0.54069245	1.0	4138	tags=29%, list=20%, signal=36%	
YYCATTCAWW_UNKNOWN	YYCATTCAWW_UNKNOWN		190	0.20835036	1.0040274	0.44489795	0.5422472	1.0	3320	tags=18%, list=16%, signal=22%	
RACCACAR_AML_Q6	RACCACAR_AML_Q6		261	0.19931492	1.0024697	0.45365855	0.54668105	1.0	2270	tags=15%, list=11%, signal=17%	
TAL1ALPHAE47_01	TAL1ALPHAE47_01		254	0.20093514	1.0015094	0.43589744	0.54861945	1.0	3425	tags=20%, list=16%, signal=24%	
HNF4ALPHA_Q6	HNF4ALPHA_Q6		267	0.20070356	1.0009111	0.43229166	0.5495358	1.0	4320	tags=24%, list=21%, signal=30%	
BRF1_TARGET_GENES	BRF1_TARGET_GENES		46	0.26735723	0.99987024	0.45757577	0.5519043	1.0	6225	tags=41%, list=30%, signal=59%	
YKACATTT_UNKNOWN	YKACATTT_UNKNOWN		286	0.19859922	0.99868935	0.46276596	0.5549306	1.0	3614	tags=22%, list=17%, signal=26%	
FOXO3_01	FOXO3_01		249	0.1989628	0.9945575	0.48258707	0.56884605	1.0	3853	tags=23%, list=18%, signal=28%	
TRIP13_TARGET_GENES	TRIP13_TARGET_GENES		85	0.23526081	0.99361116	0.45302013	0.5709513	1.0	1770	tags=14%, list=8%, signal=15%	
AREB6_01	AREB6_01		266	0.19883116	0.99193764	0.4848485	0.5752756	1.0	2219	tags=12%, list=11%, signal=14%	
E47_02	E47_02		250	0.19663993	0.9892794	0.47572815	0.5833658	1.0	2605	tags=14%, list=12%, signal=16%	
PAX4_04	PAX4_04		222	0.20074986	0.9873544	0.5251142	0.5886452	1.0	5044	tags=31%, list=24%, signal=41%	
FREAC2_01	FREAC2_01		263	0.1991167	0.98629767	0.4883721	0.5912264	1.0	3770	tags=24%, list=18%, signal=28%	
TFIII_Q6	TFIII_Q6		205	0.20310715	0.9862269	0.48815167	0.59023505	1.0	4378	tags=25%, list=21%, signal=32%	
E4F1_Q6	E4F1_Q6		289	0.19491044	0.9849846	0.4973822	0.5934182	1.0	6230	tags=36%, list=30%, signal=51%	
SRF_Q4	SRF_Q4		229	0.20026888	0.9820628	0.52307695	0.6023524	1.0	3911	tags=25%, list=19%, signal=30%	
STAT_Q6	STAT_Q6		260	0.19643208	0.98083997	0.4852941	0.6054267	1.0	3234	tags=20%, list=15%, signal=24%	
CTR9_TARGET_GENES	CTR9_TARGET_GENES		59	0.24467047	0.976759	0.47368422	0.61921436	1.0	5566	tags=39%, list=27%, signal=53%	
RNCTGNYNRNCTGNY_UNKNOWN	RNCTGNYNRNCTGNY_UNKNOWN		81	0.22670232	0.9748073	0.4950166	0.62477183	1.0	3657	tags=17%, list=17%, signal=21%	
NFKB_Q6_01	NFKB_Q6_01		233	0.20150983	0.97311705	0.5645933	0.6295735	1.0	3566	tags=23%, list=17%, signal=27%	
PTF1BETA_Q6	PTF1BETA_Q6		243	0.19530913	0.97212374	0.5469613	0.63177264	1.0	3130	tags=16%, list=15%, signal=19%	
PR_02	PR_02		132	0.21313176	0.97209835	0.53231937	0.63056266	1.0	3062	tags=20%, list=15%, signal=24%	
ZSCAN5B_TARGET_GENES	ZSCAN5B_TARGET_GENES		57	0.24783863	0.97114474	0.5041783	0.6327608	1.0	6225	tags=37%, list=30%, signal=52%	
TITF1_Q3	TITF1_Q3		238	0.1967525	0.9652596	0.5980392	0.6527178	1.0	4554	tags=28%, list=22%, signal=35%	
WCTCNATGGY_UNKNOWN	WCTCNATGGY_UNKNOWN		81	0.2300731	0.9641157	0.546875	0.6555339	1.0	6531	tags=41%, list=31%, signal=59%	
EVI1_06	EVI1_06		22	0.31055388	0.9587544	0.5065963	0.67298687	1.0	2219	tags=27%, list=11%, signal=30%	
USF2_Q6	USF2_Q6		252	0.19149515	0.956887	0.6009852	0.6785394	1.0	5209	tags=30%, list=25%, signal=39%	
ATF6_01	ATF6_01		125	0.20978718	0.95425725	0.58007115	0.68675745	1.0	2746	tags=18%, list=13%, signal=20%	
RTTTNNNYTGGM_UNKNOWN	RTTTNNNYTGGM_UNKNOWN		153	0.20496817	0.9538539	0.59388644	0.68691516	1.0	4037	tags=27%, list=19%, signal=33%	
MEF2_Q6_01	MEF2_Q6_01		246	0.1902531	0.953031	0.6142857	0.6885298	1.0	3910	tags=23%, list=19%, signal=28%	
P53_DECAMER_Q2	P53_DECAMER_Q2		245	0.19021031	0.95190036	0.6210526	0.6911108	1.0	4860	tags=28%, list=23%, signal=36%	
AP4_01	AP4_01		265	0.18945836	0.95021933	0.6615385	0.6954878	1.0	3736	tags=20%, list=18%, signal=24%	
STAT5B_01	STAT5B_01		255	0.18820502	0.9461423	0.6492891	0.7085439	1.0	4055	tags=23%, list=19%, signal=28%	
XPO1_TARGET_GENES	XPO1_TARGET_GENES		23	0.304215	0.9445802	0.53904283	0.71274006	1.0	3595	tags=35%, list=17%, signal=42%	
RGAANNTTC_HSF1_01	RGAANNTTC_HSF1_01		449	0.17947932	0.94446224	0.7430556	0.71171683	1.0	4123	tags=21%, list=20%, signal=26%	
WIZ_TARGET_GENES	WIZ_TARGET_GENES		16	0.3249056	0.9390141	0.54404145	0.72883475	1.0	6575	tags=50%, list=31%, signal=73%	
AP2GAMMA_01	AP2GAMMA_01		252	0.19028644	0.9388789	0.6302083	0.72775817	1.0	3596	tags=18%, list=17%, signal=22%	
PER1_TARGET_GENES	PER1_TARGET_GENES		23	0.28955948	0.93742156	0.5457064	0.7317591	1.0	6333	tags=39%, list=30%, signal=56%	
NFAT_Q4_01	NFAT_Q4_01		264	0.18695222	0.9313923	0.71859294	0.7505998	1.0	4144	tags=21%, list=20%, signal=26%	
OSF2_Q6	OSF2_Q6		267	0.1846111	0.93049634	0.74358976	0.75215536	1.0	3231	tags=18%, list=15%, signal=21%	
ZNF169_TARGET_GENES	ZNF169_TARGET_GENES		42	0.2558893	0.9294681	0.58055556	0.75401986	1.0	5070	tags=38%, list=24%, signal=50%	
GGCKCATGS_UNKNOWN	GGCKCATGS_UNKNOWN		68	0.22864972	0.9290569	0.62917936	0.7539772	1.0	1545	tags=12%, list=7%, signal=13%	
PAX2_01	PAX2_01		59	0.23197304	0.92900866	0.5946745	0.75262636	1.0	5006	tags=34%, list=24%, signal=44%	
DR1_Q3	DR1_Q3		262	0.1859604	0.9289571	0.70652175	0.75129646	1.0	3689	tags=21%, list=18%, signal=26%	
GATA4_Q3	GATA4_Q3		251	0.18962936	0.92796564	0.71428573	0.75319546	1.0	3189	tags=17%, list=15%, signal=20%	
E2A_Q2	E2A_Q2		251	0.18747815	0.9271526	0.75	0.7543759	1.0	3911	tags=22%, list=19%, signal=27%	
HNF4_01	HNF4_01		272	0.18453878	0.92519623	0.73255813	0.75932515	1.0	4147	tags=22%, list=20%, signal=27%	
CDPCR3_01	CDPCR3_01		54	0.23540811	0.922837	0.6121372	0.7655997	1.0	3837	tags=24%, list=18%, signal=29%	
MYAATNNNNNNNGGC_UNKNOWN	MYAATNNNNNNNGGC_UNKNOWN		111	0.20482711	0.92271644	0.6594982	0.76448745	1.0	6510	tags=44%, list=31%, signal=64%	
PGBD5_TARGET_GENES	PGBD5_TARGET_GENES		15	0.32787907	0.92103344	0.55919397	0.76841164	1.0	5997	tags=40%, list=29%, signal=56%	
STAT5A_04	STAT5A_04		212	0.1885854	0.9142857	0.7510917	0.7884564	1.0	3962	tags=23%, list=19%, signal=28%	
GATA1_01	GATA1_01		241	0.18429093	0.9124429	0.77880186	0.7925683	1.0	3852	tags=22%, list=18%, signal=26%	
STAT5A_01	STAT5A_01		258	0.18127659	0.90994745	0.8108108	0.79867506	1.0	3005	tags=17%, list=14%, signal=20%	
OLF1_01	OLF1_01		273	0.1805422	0.9091947	0.7948718	0.79954565	1.0	4268	tags=22%, list=20%, signal=28%	
PPAR_DR1_Q2	PPAR_DR1_Q2		264	0.18037805	0.90583414	0.7616279	0.80826426	1.0	3902	tags=22%, list=19%, signal=27%	
MEIS1BHOXA9_01	MEIS1BHOXA9_01		144	0.19461003	0.9047594	0.7255639	0.80975395	1.0	2481	tags=17%, list=12%, signal=20%	
SIRT3_TARGET_GENES	SIRT3_TARGET_GENES		43	0.2445075	0.90297246	0.61538464	0.8134001	1.0	5741	tags=42%, list=27%, signal=58%	
TAXCREB_01	TAXCREB_01		138	0.19583821	0.90148115	0.7318008	0.816158	1.0	5269	tags=30%, list=25%, signal=40%	
PAX5_01	PAX5_01		154	0.19406411	0.9006148	0.7406015	0.8171169	1.0	5375	tags=34%, list=26%, signal=45%	
MYC_Q2	MYC_Q2		185	0.18864903	0.8990145	0.77380955	0.8201467	1.0	5166	tags=29%, list=25%, signal=38%	
NFAT_Q6	NFAT_Q6		245	0.18055527	0.89676744	0.8382353	0.8250215	1.0	3911	tags=21%, list=19%, signal=26%	
BACH2_01	BACH2_01		268	0.17998458	0.8902903	0.8469945	0.84136546	1.0	3783	tags=19%, list=18%, signal=22%	
SP1_Q6	SP1_Q6		259	0.17631406	0.89026386	0.8666667	0.8398229	1.0	5167	tags=27%, list=25%, signal=36%	
SPZ1_01	SPZ1_01		232	0.1788378	0.8874836	0.8333333	0.8456105	1.0	4889	tags=27%, list=23%, signal=35%	
AML_Q6	AML_Q6		264	0.17793405	0.8874572	0.8507463	0.8440674	1.0	2776	tags=15%, list=13%, signal=17%	
ZNF418_TARGET_GENES	ZNF418_TARGET_GENES		34	0.25345334	0.88474786	0.61764705	0.84970134	1.0	4205	tags=38%, list=20%, signal=48%	
CCAWYNNGAAR_UNKNOWN	CCAWYNNGAAR_UNKNOWN		146	0.19163583	0.8833743	0.768	0.85157794	1.0	2935	tags=16%, list=14%, signal=19%	
TERT_TARGET_GENES	TERT_TARGET_GENES		83	0.20812446	0.88171196	0.7387097	0.8538734	1.0	6244	tags=37%, list=30%, signal=53%	
ZNF548_TARGET_GENES	ZNF548_TARGET_GENES		41	0.24011277	0.87967825	0.7080925	0.857252	1.0	2203	tags=20%, list=11%, signal=22%	
ARID3B_TARGET_GENES	ARID3B_TARGET_GENES		87	0.2051834	0.87859696	0.7210884	0.85840446	1.0	4605	tags=33%, list=22%, signal=43%	
SP1_Q6_01	SP1_Q6_01		247	0.17283252	0.8728846	0.90425533	0.8706954	1.0	3431	tags=17%, list=16%, signal=20%	
DROSHA_TARGET_GENES	DROSHA_TARGET_GENES		43	0.23747718	0.872048	0.6876791	0.8710257	1.0	4091	tags=26%, list=20%, signal=32%	
SNAPC4_TARGET_GENES	SNAPC4_TARGET_GENES		72	0.20669311	0.86599606	0.75	0.88340753	1.0	4694	tags=26%, list=22%, signal=34%	
EFC_Q6	EFC_Q6		271	0.17254601	0.8649218	0.90909094	0.88414544	1.0	3743	tags=20%, list=18%, signal=24%	
TGACCTTG_SF1_Q6	TGACCTTG_SF1_Q6		250	0.17426626	0.86308914	0.875576	0.886672	1.0	3907	tags=20%, list=19%, signal=24%	
MTF1_Q4	MTF1_Q4		254	0.17173317	0.85855967	0.92432433	0.89439136	1.0	3826	tags=21%, list=18%, signal=25%	
GTGGGTGK_UNKNOWN	GTGGGTGK_UNKNOWN		291	0.16990338	0.85854465	0.9408602	0.8927471	1.0	3372	tags=19%, list=16%, signal=22%	
LMO2COM_01	LMO2COM_01		262	0.17048663	0.85531384	0.9072165	0.8973829	1.0	3500	tags=18%, list=17%, signal=21%	
COUP_DR1_Q6	COUP_DR1_Q6		253	0.17163591	0.85450006	0.9072165	0.8972994	1.0	4786	tags=25%, list=23%, signal=32%	
CCAWWNAAGG_SRF_Q4	CCAWWNAAGG_SRF_Q4		87	0.19516481	0.8532495	0.7898305	0.8981036	1.0	3997	tags=22%, list=19%, signal=27%	
PPARG_01	PPARG_01		47	0.22943816	0.8470269	0.730659	0.9081051	1.0	3797	tags=23%, list=18%, signal=29%	
COUP_01	COUP_01		262	0.169119	0.8470082	0.9392265	0.90645653	1.0	3641	tags=18%, list=17%, signal=22%	
RPA1_TARGET_GENES	RPA1_TARGET_GENES		36	0.23746406	0.84264904	0.7513812	0.91294837	1.0	2636	tags=17%, list=13%, signal=19%	
RREB1_01	RREB1_01		208	0.17229694	0.8408168	0.9308756	0.91427106	1.0	3503	tags=20%, list=17%, signal=24%	
E47_01	E47_01		253	0.16984361	0.8403818	0.94570136	0.91332704	1.0	4572	tags=23%, list=22%, signal=29%	
HNF4_Q6	HNF4_Q6		269	0.16604085	0.83751714	0.9516908	0.9164977	1.0	3641	tags=18%, list=17%, signal=21%	
MCM2_TARGET_GENES	MCM2_TARGET_GENES		56	0.21354154	0.83742094	0.79268295	0.91493225	1.0	5964	tags=27%, list=28%, signal=37%	
PSIP1_TARGET_GENES	PSIP1_TARGET_GENES		50	0.21782674	0.8323626	0.7859155	0.92145526	1.0	4827	tags=36%, list=23%, signal=47%	
ACAWYAAAG_UNKNOWN	ACAWYAAAG_UNKNOWN		102	0.19145975	0.83220756	0.8213059	0.9199969	1.0	3122	tags=20%, list=15%, signal=23%	
CDH4_TARGET_GENES	CDH4_TARGET_GENES		63	0.20525312	0.8308816	0.82111436	0.92041403	1.0	6296	tags=41%, list=30%, signal=59%	
NKX6_1_TARGET_GENES	NKX6_1_TARGET_GENES		25	0.25171998	0.8304125	0.7082153	0.9195618	1.0	402	tags=8%, list=2%, signal=8%	
COBLL1_TARGET_GENES	COBLL1_TARGET_GENES		130	0.17937157	0.82604414	0.88235295	0.9243536	1.0	4446	tags=26%, list=21%, signal=33%	
MEIS1AHOXA9_01	MEIS1AHOXA9_01		119	0.18632084	0.8240781	0.89534885	0.9255628	1.0	2648	tags=15%, list=13%, signal=17%	
TTF1_Q6	TTF1_Q6		263	0.16113992	0.8039329	0.9791667	0.9489483	1.0	2939	tags=16%, list=14%, signal=18%	
LXR_Q3	LXR_Q3		81	0.18442358	0.79011816	0.90228015	0.9609803	1.0	3377	tags=20%, list=16%, signal=23%	
PAX3_B	PAX3_B		90	0.18592666	0.78553975	0.9094077	0.9634339	1.0	4404	tags=24%, list=21%, signal=31%	
MCRS1_TARGET_GENES	MCRS1_TARGET_GENES		35	0.21895157	0.78195256	0.8087432	0.96488595	1.0	5705	tags=29%, list=27%, signal=39%	
ACCTGTTG_UNKNOWN	ACCTGTTG_UNKNOWN		158	0.16661093	0.77917504	0.956	0.96539885	1.0	3462	tags=19%, list=17%, signal=23%	
MYB_Q6	MYB_Q6		254	0.15870985	0.7779428	0.9787234	0.9646541	1.0	5036	tags=26%, list=24%, signal=34%	
PAX3_01	PAX3_01		22	0.24388106	0.7703725	0.8172324	0.96874803	1.0	6224	tags=45%, list=30%, signal=65%	
P53_02	P53_02		249	0.15231444	0.7617752	0.9948454	0.97271305	1.0	4264	tags=20%, list=20%, signal=24%	
CATRRAGC_UNKNOWN	CATRRAGC_UNKNOWN		137	0.16388573	0.75318074	0.972332	0.9762449	1.0	4568	tags=26%, list=22%, signal=32%	
PPARGC1A_TARGET_GENES	PPARGC1A_TARGET_GENES		92	0.17265311	0.7489936	0.9501661	0.9767792	1.0	5328	tags=25%, list=25%, signal=33%	
PBXIP1_TARGET_GENES	PBXIP1_TARGET_GENES		200	0.15268224	0.73879796	0.98712444	0.9804119	1.0	4646	tags=21%, list=22%, signal=26%	
TTCNRGNNNNTTC_HSF_Q6	TTCNRGNNNNTTC_HSF_Q6		155	0.15655151	0.73201185	0.97692305	0.9817645	1.0	5841	tags=31%, list=28%, signal=43%	
CDX1_TARGET_GENES	CDX1_TARGET_GENES		36	0.2029668	0.72410107	0.88547486	0.98338205	1.0	2307	tags=17%, list=11%, signal=19%	
AGCYRWTTC_UNKNOWN	AGCYRWTTC_UNKNOWN		119	0.15888739	0.7238379	0.9847328	0.98177457	1.0	4871	tags=26%, list=23%, signal=34%	
BAHD1_TARGET_GENES	BAHD1_TARGET_GENES		24	0.22222102	0.71648884	0.8537234	0.98291975	1.0	535	tags=8%, list=3%, signal=9%	
GRE_C	GRE_C		128	0.15779072	0.7098023	0.9963235	0.9834064	1.0	5543	tags=31%, list=26%, signal=42%	
ZNF707_TARGET_GENES	ZNF707_TARGET_GENES		39	0.1797943	0.6609501	0.9591837	0.9932087	1.0	2854	tags=15%, list=14%, signal=18%	
ALX4_TARGET_GENES	ALX4_TARGET_GENES		27	0.19679303	0.65869784	0.94414896	0.9918109	1.0	4451	tags=30%, list=21%, signal=38%	
ZNF582_TARGET_GENES	ZNF582_TARGET_GENES		60	0.16119348	0.6438885	0.9825073	0.99258	1.0	3167	tags=15%, list=15%, signal=18%	
NKX2_8_TARGET_GENES	NKX2_8_TARGET_GENES		35	0.17179035	0.61693347	0.9785523	0.99401265	1.0	5566	tags=31%, list=27%, signal=43%	
