NAME	SYMBOL	TITLE	RANK IN GENE LIST	RANK METRIC SCORE	RUNNING ES	CORE ENRICHMENT	
row_0	ZFP36L1	NA	418	0.24330094456672668	-0.0093145035	No	
row_1	ZFPM2	NA	542	0.22297914326190948	-0.0052876635	No	
row_2	SLC39A14	NA	1066	0.1726483553647995	-0.02283267	No	
row_3	EML4	NA	1112	0.16997279226779938	-0.01740773	No	
row_4	SLC12A2	NA	1174	0.16672492027282715	-0.012900858	No	
row_5	TBL1X	NA	1192	0.16588285565376282	-0.0063062324	No	
row_6	RAB3IP	NA	1226	0.16397492587566376	-5.6977343E-4	No	
row_7	RNF111	NA	1267	0.16125237941741943	0.0047068424	No	
row_8	ZFHX3	NA	1279	0.16053980588912964	0.011352434	No	
row_9	MXI1	NA	1295	0.15933316946029663	0.017750865	No	
row_10	CLC	NA	1970	0.12903469800949097	-0.009037874	No	
row_11	EMX2	NA	2096	0.12467329949140549	-0.009502411	No	
row_12	POU2F1	NA	2129	0.12397124618291855	-0.005506014	No	
row_13	ELF4	NA	2206	0.12174097448587418	-0.0037347202	No	
row_14	ZNF827	NA	2243	0.1204608827829361	-8.847233E-5	No	
row_15	EPC2	NA	2293	0.1192181184887886	0.002874259	No	
row_16	GUCY2F	NA	2421	0.11518514156341553	0.0018889438	No	
row_17	SREK1	NA	2441	0.11469631642103195	0.006098663	No	
row_18	SSH2	NA	2496	0.11318201571702957	0.008550027	No	
row_19	ROBO3	NA	2521	0.11275972425937653	0.012431649	No	
row_20	ARFGEF1	NA	2651	0.10922238230705261	0.01108316	No	
row_21	ARPP21	NA	2655	0.10918192565441132	0.01581923	No	
row_22	CAST	NA	2693	0.10827282816171646	0.018872306	No	
row_23	EGR1	NA	2715	0.1076510027050972	0.022670455	No	
row_24	PRMT3	NA	2730	0.10726732760667801	0.026789583	No	
row_25	JADE1	NA	2813	0.10511786490678787	0.027527913	No	
row_26	RLIM	NA	2935	0.10191672295331955	0.02623926	No	
row_27	FAM20C	NA	2954	0.1013767346739769	0.02990183	No	
row_28	SLC1A1	NA	2995	0.10055404156446457	0.032464925	No	
row_29	RASA2	NA	3009	0.10014380514621735	0.0363139	No	
row_30	APAF1	NA	3051	0.09925391525030136	0.038770568	No	
row_31	MIOX	NA	3176	0.09628643095493317	0.0370853	No	
row_32	TLE4	NA	3178	0.09626743942499161	0.041340634	No	
row_33	SERPINA4	NA	3210	0.09567254781723022	0.04412024	No	
row_34	VCPKMT	NA	3230	0.09534478187561035	0.047464848	No	
row_35	CNTLN	NA	3321	0.09324716776609421	0.047286063	No	
row_36	SUPT16H	NA	3399	0.09145504236221313	0.047655117	No	
row_37	JPT2	NA	3471	0.09003270417451859	0.048250414	No	
row_38	SLC25A12	NA	3604	0.0873563289642334	0.04577949	No	
row_39	HOXB3	NA	3689	0.0858016088604927	0.045557674	No	
row_40	NOL4L	NA	3831	0.083392433822155	0.042474803	No	
row_41	LRRFIP2	NA	3846	0.08311714977025986	0.045514297	No	
row_42	CLOCK	NA	3852	0.0830191820859909	0.04898415	No	
row_43	PBX2	NA	3895	0.08206911385059357	0.050624263	No	
row_44	TBXAS1	NA	3999	0.08018466830253601	0.04923356	No	
row_45	DPYD	NA	4015	0.07992415875196457	0.052082006	No	
row_46	SERPINA7	NA	4018	0.0798787847161293	0.055556383	No	
row_47	LUC7L3	NA	4098	0.07814613729715347	0.05523385	No	
row_48	HAVCR1	NA	4119	0.0777936801314354	0.057745535	No	
row_49	MINK1	NA	4220	0.07580959051847458	0.056304153	No	
row_50	BTBD3	NA	4227	0.07557216286659241	0.059392784	No	
row_51	ARHGAP12	NA	4310	0.07435446977615356	0.058755834	No	
row_52	NFIX	NA	4773	0.06640657037496567	0.03940786	No	
row_53	HOXB8	NA	4871	0.0646473616361618	0.037612386	No	
row_54	RORA	NA	4904	0.06413315236568451	0.038933717	No	
row_55	C8A	NA	5034	0.06232286989688873	0.035488583	No	
row_56	GJB1	NA	5053	0.06203668192028999	0.037392456	No	
row_57	CRTC2	NA	5141	0.06078191474080086	0.03590722	No	
row_58	HESX1	NA	5243	0.05900411680340767	0.03366625	No	
row_59	UBE3A	NA	5382	0.05678899586200714	0.02953898	No	
row_60	HOXC4	NA	5698	0.052205685526132584	0.016656918	No	
row_61	CGN	NA	5747	0.05149318650364876	0.016640307	No	
row_62	LHX5	NA	5836	0.05006451904773712	0.014627647	No	
row_63	SHKBP1	NA	5986	0.04791058227419853	0.009572119	No	
row_64	YES1	NA	6088	0.04674484580755234	0.0067830947	No	
row_65	SLC18A2	NA	6168	0.045480865985155106	0.005000263	No	
row_66	DMD	NA	6414	0.04203422740101814	-0.0049552	No	
row_67	G6PC	NA	6575	0.03977646678686142	-0.010905713	No	
row_68	MGAT4C	NA	6582	0.03963809087872505	-0.009423517	No	
row_69	PROC	NA	6641	0.03884724900126457	-0.01048851	No	
row_70	GEN1	NA	6658	0.03857238590717316	-0.009537001	No	
row_71	CLIP3	NA	6746	0.037383709102869034	-0.012068253	No	
row_72	BUB3	NA	6901	0.03527918457984924	-0.01792999	No	
row_73	PCDH8	NA	6959	0.03437462076544762	-0.019146629	No	
row_74	ZNF362	NA	7092	0.032754264771938324	-0.024058541	No	
row_75	CSF3	NA	7177	0.03173032030463219	-0.026697615	No	
row_76	NLGN2	NA	7352	0.0292498916387558	-0.033794984	No	
row_77	SLC37A4	NA	7431	0.028157005086541176	-0.036303975	No	
row_78	SRSF7	NA	7439	0.028072964400053024	-0.035387103	No	
row_79	TWNK	NA	7865	0.022998983040452003	-0.05488835	No	
row_80	POU3F3	NA	7988	0.021481230854988098	-0.05982118	No	
row_81	SLC5A4	NA	8007	0.02123771607875824	-0.05974123	No	
row_82	MRPL43	NA	8249	0.018142474815249443	-0.07057156	No	
row_83	KLK13	NA	8273	0.0178724005818367	-0.07088357	No	
row_84	POLR2A	NA	8323	0.017306504771113396	-0.072476804	No	
row_85	CHMP2A	NA	8346	0.01685487851500511	-0.072786	No	
row_86	EEPD1	NA	8374	0.016500549390912056	-0.07335257	No	
row_87	GPX1	NA	8436	0.015880031511187553	-0.075589225	No	
row_88	RNASE4	NA	8847	0.01078115589916706	-0.094912104	No	
row_89	MIER1	NA	8999	0.00928045716136694	-0.1017912	No	
row_90	CBFA2T2	NA	9201	0.006990410387516022	-0.111187905	No	
row_91	FGFR4	NA	9248	0.006412155460566282	-0.11312325	No	
row_92	DAAM1	NA	9364	0.004851753357797861	-0.11846138	No	
row_93	PRDM1	NA	9433	0.004025306086987257	-0.12156613	No	
row_94	TMEM126B	NA	9466	0.003727812087163329	-0.12294522	No	
row_95	NDST2	NA	9602	0.0022604826372116804	-0.12936528	No	
row_96	FGB	NA	9649	0.0015595410950481892	-0.13151756	No	
row_97	SIAH3	NA	9737	4.5475573278963566E-4	-0.13569973	No	
row_98	ANKS1B	NA	9748	3.4190723090432584E-4	-0.13616748	No	
row_99	MBNL1	NA	9884	-0.0012406163150444627	-0.14263314	No	
row_100	APOM	NA	9888	-0.0012853756779804826	-0.14272058	No	
row_101	ZNF143	NA	9908	-0.0015018947888165712	-0.14357123	No	
row_102	FGF16	NA	9978	-0.0024256675969809294	-0.1467958	No	
row_103	BAIAP2L2	NA	10049	-0.0032548606395721436	-0.15003161	No	
row_104	RPL35A	NA	10129	-0.004266337025910616	-0.15365694	No	
row_105	AFM	NA	10215	-0.00524692190811038	-0.15752825	No	
row_106	PTGS2	NA	10783	-0.012190451845526695	-0.18437193	No	
row_107	VSIG1	NA	10847	-0.012895806692540646	-0.18683861	No	
row_108	SLC22A8	NA	10966	-0.014184384606778622	-0.19190444	No	
row_109	PLS3	NA	11032	-0.014915168285369873	-0.19437745	No	
row_110	GRIN2A	NA	11052	-0.015066806226968765	-0.19462167	No	
row_111	KCNK12	NA	11060	-0.015145421028137207	-0.19428273	No	
row_112	DBF4	NA	11083	-0.015477544628083706	-0.1946535	No	
row_113	SSH3	NA	11183	-0.016845649108290672	-0.19868256	No	
row_114	UBALD2	NA	11271	-0.017902959138154984	-0.2020847	No	
row_115	SLC17A2	NA	11315	-0.018441377207636833	-0.20333737	No	
row_116	IKBIP	NA	11322	-0.018496878445148468	-0.20280029	No	
row_117	SPATA18	NA	11332	-0.01859392412006855	-0.20240378	No	
row_118	ZEB2	NA	11374	-0.01910335384309292	-0.20353027	No	
row_119	C12orf50	NA	11478	-0.0205233134329319	-0.20758812	No	
row_120	CCDC85B	NA	11564	-0.021809063851833344	-0.21071903	No	
row_121	TOB1	NA	11667	-0.023237813264131546	-0.21460725	No	
row_122	HNF1A	NA	11802	-0.025010591372847557	-0.21996196	No	
row_123	CMTM4	NA	11831	-0.025372467935085297	-0.2201802	No	
row_124	FOXD3	NA	11856	-0.025600139051675797	-0.22019506	No	
row_125	PLA2G4A	NA	11883	-0.02593880146741867	-0.22029138	No	
row_126	LRRC19	NA	11905	-0.026204081252217293	-0.22013432	No	
row_127	SLC25A40	NA	12132	-0.029158495366573334	-0.22974761	No	
row_128	ST6GALNAC5	NA	12164	-0.029575733467936516	-0.22992286	No	
row_129	SLC5A1	NA	12273	-0.030994385480880737	-0.23375414	No	
row_130	SLC44A4	NA	12341	-0.031824834644794464	-0.23556781	No	
row_131	UQCRFS1	NA	12350	-0.03202079236507416	-0.23452276	No	
row_132	CPN1	NA	12362	-0.03213028609752655	-0.23361772	No	
row_133	ARL4C	NA	12444	-0.03318296745419502	-0.23604694	No	
row_134	ZBTB4	NA	12505	-0.03392532467842102	-0.23742858	No	
row_135	SOX3	NA	12665	-0.03627368062734604	-0.24348737	No	
row_136	STC1	NA	12789	-0.037757545709609985	-0.24774088	No	
row_137	AGR3	NA	12905	-0.0393616259098053	-0.25153622	No	
row_138	TTLL6	NA	12910	-0.03944501280784607	-0.24996606	No	
row_139	HCN1	NA	13110	-0.04234091192483902	-0.2576858	No	
row_140	NSMCE3	NA	13341	-0.045818157494068146	-0.26674753	No	
row_141	GOLT1A	NA	13384	-0.04661864414811134	-0.26669225	No	
row_142	PPP2R5C	NA	13393	-0.04681185260415077	-0.26498595	No	
row_143	TBR1	NA	13441	-0.04754449427127838	-0.2651308	No	
row_144	CDH16	NA	13449	-0.0476573221385479	-0.2633384	No	
row_145	KCNJ1	NA	13515	-0.04860339313745499	-0.26430535	No	
row_146	CCDC50	NA	13841	-0.05314312502741814	-0.27762857	No	
row_147	FLRT1	NA	13871	-0.05359039455652237	-0.27663365	No	
row_148	HOXD4	NA	14028	-0.05603489279747009	-0.2816641	No	
row_149	SALL3	NA	14166	-0.05817731097340584	-0.285681	No	
row_150	THRA	NA	14230	-0.05925905704498291	-0.286075	No	
row_151	DLX1	NA	14280	-0.060077086091041565	-0.28575617	No	
row_152	LINC00173	NA	14466	-0.06305941194295883	-0.29187343	No	
row_153	ATP2B3	NA	14497	-0.06340335309505463	-0.29048812	No	
row_154	F2	NA	14571	-0.06457749009132385	-0.2911274	No	
row_155	SYNE4	NA	14623	-0.06540058553218842	-0.2906672	No	
row_156	SLC26A3	NA	14677	-0.06621226668357849	-0.29026732	No	
row_157	COA3	NA	14725	-0.06697815656661987	-0.28954336	No	
row_158	KALRN	NA	14891	-0.06991282105445862	-0.29438815	No	
row_159	PRDM12	NA	14918	-0.07024481147527695	-0.29250377	No	
row_160	NCKAP5	NA	15163	-0.07455787807703018	-0.30095696	No	
row_161	FOXA2	NA	15288	-0.07642332464456558	-0.30353022	No	
row_162	AQP4	NA	15295	-0.07651232182979584	-0.30039954	No	
row_163	AFP	NA	15318	-0.07703329622745514	-0.2980185	No	
row_164	SORBS1	NA	15515	-0.08082497864961624	-0.30387288	Yes	
row_165	APCS	NA	15529	-0.08106586337089539	-0.30087677	Yes	
row_166	HNF1B	NA	15595	-0.08225089311599731	-0.30033955	Yes	
row_167	RBFOX1	NA	15605	-0.08252806216478348	-0.29708487	Yes	
row_168	A1CF	NA	15641	-0.08307783305644989	-0.29506153	Yes	
row_169	KLF14	NA	15712	-0.08429744839668274	-0.2946743	Yes	
row_170	ANXA13	NA	15725	-0.08460722863674164	-0.2914716	Yes	
row_171	NEK10	NA	15791	-0.08591758459806442	-0.29077044	Yes	
row_172	FST	NA	15916	-0.08819244801998138	-0.29281756	Yes	
row_173	CNGB3	NA	15930	-0.08849052339792252	-0.28948954	Yes	
row_174	FGA	NA	15938	-0.08875510841608047	-0.28585985	Yes	
row_175	PREX2	NA	16205	-0.09446446597576141	-0.29448584	Yes	
row_176	MAB21L2	NA	16213	-0.09450995922088623	-0.29059887	Yes	
row_177	PKHD1	NA	16340	-0.09703104943037033	-0.29234746	Yes	
row_178	CDH20	NA	16439	-0.09880073368549347	-0.2926644	Yes	
row_179	BACE2	NA	16516	-0.10042960941791534	-0.29184586	Yes	
row_180	ADAM11	NA	16558	-0.10145726054906845	-0.2892907	Yes	
row_181	PDZRN4	NA	16620	-0.10286857187747955	-0.28763852	Yes	
row_182	NECTIN1	NA	16626	-0.10303372144699097	-0.2832739	Yes	
row_183	PKLR	NA	16747	-0.10579057037830353	-0.28434107	Yes	
row_184	NKX2-2	NA	16801	-0.10713709145784378	-0.28211164	Yes	
row_185	FRMD5	NA	16846	-0.10792265087366104	-0.27941236	Yes	
row_186	CNTD1	NA	17019	-0.11168871074914932	-0.2827277	Yes	
row_187	RNF186	NA	17049	-0.1125127300620079	-0.27909863	Yes	
row_188	NRP1	NA	17056	-0.11272641271352768	-0.274349	Yes	
row_189	RBP4	NA	17101	-0.11401437968015671	-0.27137738	Yes	
row_190	HABP2	NA	17159	-0.1152561753988266	-0.2689782	Yes	
row_191	SLC13A2	NA	17165	-0.11540184170007706	-0.2640607	Yes	
row_192	TRPS1	NA	17217	-0.11680079251527786	-0.26130265	Yes	
row_193	ACVR2A	NA	17331	-0.11954566091299057	-0.26141676	Yes	
row_194	ASPA	NA	17389	-0.12061410397291183	-0.25877807	Yes	
row_195	LPP	NA	17554	-0.12389374524354935	-0.26116133	Yes	
row_196	HOXA10	NA	17584	-0.12470947951078415	-0.256987	Yes	
row_197	SLC7A13	NA	17605	-0.125261127948761	-0.25235328	Yes	
row_198	SOSTDC1	NA	17631	-0.12594544887542725	-0.2479305	Yes	
row_199	NEO1	NA	17666	-0.12652689218521118	-0.24391647	Yes	
row_200	SLC7A9	NA	17674	-0.12692952156066895	-0.2385802	Yes	
row_201	ASB4	NA	17719	-0.1282382756471634	-0.2349727	Yes	
row_202	TMED6	NA	17737	-0.1286098062992096	-0.23004436	Yes	
row_203	NAALADL2	NA	17751	-0.1289583146572113	-0.22490723	Yes	
row_204	SPINK1	NA	17878	-0.13244585692882538	-0.2250726	Yes	
row_205	WNT9A	NA	17973	-0.13473889231681824	-0.22358972	Yes	
row_206	CES5A	NA	17984	-0.1349431872367859	-0.21804012	Yes	
row_207	ERRFI1	NA	18006	-0.13559764623641968	-0.21299262	Yes	
row_208	ALX1	NA	18013	-0.13572710752487183	-0.20721476	Yes	
row_209	SEMA4G	NA	18273	-0.14329031109809875	-0.21331982	Yes	
row_210	TCF4	NA	18285	-0.14348547160625458	-0.20743665	Yes	
row_211	HOXA3	NA	18426	-0.14804285764694214	-0.20758101	Yes	
row_212	RXFP2	NA	18430	-0.14817006886005402	-0.20110199	Yes	
row_213	SP8	NA	18755	-0.15856750309467316	-0.20966388	Yes	
row_214	TMCC2	NA	18922	-0.16434496641159058	-0.21033537	Yes	
row_215	PPP2R2B	NA	18929	-0.16454847157001495	-0.20326905	Yes	
row_216	TMPRSS15	NA	18940	-0.1649971306324005	-0.19637589	Yes	
row_217	LRAT	NA	19100	-0.17179358005523682	-0.19637626	Yes	
row_218	TINAG	NA	19167	-0.17440885305404663	-0.19176741	Yes	
row_219	FOXF2	NA	19179	-0.17488688230514526	-0.18448043	Yes	
row_220	TMEM37	NA	19191	-0.17539244890213013	-0.17717086	Yes	
row_221	GC	NA	19384	-0.18272681534290314	-0.17827651	Yes	
row_222	PAX2	NA	19422	-0.18421639502048492	-0.17182837	Yes	
row_223	KBTBD12	NA	19575	-0.191623717546463	-0.17060411	Yes	
row_224	TNS1	NA	19654	-0.1959250122308731	-0.16561303	Yes	
row_225	SGK2	NA	19708	-0.19850407540798187	-0.15929903	Yes	
row_226	HOXC6	NA	19719	-0.19899193942546844	-0.15088612	Yes	
row_227	PHLDB1	NA	19766	-0.20131522417068481	-0.14410833	Yes	
row_228	ANGPTL1	NA	19891	-0.20835062861442566	-0.14078376	Yes	
row_229	CDH17	NA	19914	-0.20983974635601044	-0.13246556	Yes	
row_230	MARCKS	NA	19961	-0.21311809122562408	-0.12516011	Yes	
row_231	AQP9	NA	19969	-0.21338322758674622	-0.11595893	Yes	
row_232	NCAM1	NA	20094	-0.2221318483352661	-0.11201827	Yes	
row_233	PHOX2B	NA	20097	-0.22217997908592224	-0.102182314	Yes	
row_234	LINC00671	NA	20102	-0.22267529368400574	-0.092420824	Yes	
row_235	DNAI4	NA	20204	-0.2320898026227951	-0.086923994	Yes	
row_236	UBXN10	NA	20320	-0.24420441687107086	-0.08156184	Yes	
row_237	ISL1	NA	20325	-0.2446042001247406	-0.07082001	Yes	
row_238	ARHGAP24	NA	20330	-0.24486379325389862	-0.06006658	Yes	
row_239	GUCA2B	NA	20415	-0.25374385714530945	-0.052780528	Yes	
row_240	SLC6A5	NA	20416	-0.25380322337150574	-0.04143424	Yes	
row_241	FGF7	NA	20562	-0.2737750709056854	-0.036199264	Yes	
row_242	F13A1	NA	20681	-0.29713308811187744	-0.028615847	Yes	
row_243	SERPINA10	NA	20699	-0.3010716736316681	-0.015977599	Yes	
row_244	KLB	NA	20711	-0.30367061495780945	-0.0029333362	Yes	
row_245	EVA1A	NA	20760	-0.31953972578048706	0.009033089	Yes	
