NAME	SYMBOL	TITLE	RANK IN GENE LIST	RANK METRIC SCORE	RUNNING ES	CORE ENRICHMENT	
row_0	SLC7A11	NA	1	1.2010973691940308	0.25386444	Yes	
row_1	H1-4	NA	324	0.2654207646846771	0.2945788	Yes	
row_2	H2BC9	NA	360	0.2569912075996399	0.34723333	Yes	
row_3	TNRC18	NA	502	0.2284165918827057	0.38877907	Yes	
row_4	H2BC17	NA	530	0.22546949982643127	0.43515244	Yes	
row_5	F12	NA	543	0.22285065054893494	0.48168936	Yes	
row_6	CRAMP1	NA	725	0.19975608587265015	0.51526374	Yes	
row_7	HOXA9	NA	729	0.19922961294651031	0.5572375	Yes	
row_8	PAXIP1-AS2	NA	895	0.18534694612026215	0.58853084	Yes	
row_9	PCDH1	NA	1144	0.1684645712375641	0.61228675	Yes	
row_10	SETD9	NA	1146	0.16842572391033173	0.64784414	Yes	
row_11	H3C12	NA	1628	0.1425611972808838	0.65498376	Yes	
row_12	H2BC6	NA	1879	0.13222087919712067	0.6709822	Yes	
row_13	H2AC4	NA	2896	0.10295222699642181	0.64416873	No	
row_14	RBBP8	NA	3859	0.0828964039683342	0.6156973	No	
row_15	IFT140	NA	3882	0.0823940858244896	0.63206357	No	
row_16	H3C1	NA	4471	0.07150525599718094	0.619066	No	
row_17	HOXB8	NA	4871	0.0646473616361618	0.61365527	No	
row_18	ZFP62	NA	5296	0.058039579540491104	0.60565233	No	
row_19	H2BC5	NA	6545	0.04020277038216591	0.5544811	No	
row_20	H2AC17	NA	6760	0.0372222475707531	0.552118	No	
row_21	TOP2A	NA	8737	0.012297900393605232	0.46024013	No	
row_22	MSL2	NA	10152	-0.004462807904928923	0.3935766	No	
row_23	GRK6	NA	10736	-0.011417006142437458	0.36811543	No	
row_24	H3-3A	NA	10848	-0.012923598289489746	0.36554027	No	
row_25	ENC1	NA	11507	-0.021013779565691948	0.33852193	No	
row_26	UNC45A	NA	13286	-0.04512307420372963	0.2630502	No	
row_27	TRIM7	NA	13331	-0.04567158594727516	0.27060142	No	
row_28	H2AC15	NA	14558	-0.06437550485134125	0.2255922	No	
row_29	HMGN4	NA	14615	-0.0653175562620163	0.23672284	No	
row_30	H2BC15	NA	15353	-0.0775880292057991	0.2178871	No	
row_31	TMEM62	NA	17167	-0.11541971564292908	0.15560266	No	
row_32	H3C6	NA	17294	-0.11864247173070908	0.17465931	No	
