NAME	SYMBOL	TITLE	RANK IN GENE LIST	RANK METRIC SCORE	RUNNING ES	CORE ENRICHMENT	
row_0	MPP6	NA	505	0.22802014648914337	0.01408896	No	
row_1	ZFPM2	NA	542	0.22297914326190948	0.049787138	No	
row_2	NFIL3	NA	770	0.1953597366809845	0.07170516	No	
row_3	ELF4	NA	2206	0.12174097448587418	0.02343022	No	
row_4	FBXW7	NA	2523	0.11270008236169815	0.027214535	No	
row_5	EGR1	NA	2715	0.1076510027050972	0.036136348	No	
row_6	MSS51	NA	2901	0.10287582129240036	0.044544034	No	
row_7	LRRFIP2	NA	3846	0.08311714977025986	0.013295559	No	
row_8	TRIM8	NA	4404	0.07270295917987823	-0.0011715362	No	
row_9	MAT2A	NA	4418	0.07239034026861191	0.010355058	No	
row_10	NALCN	NA	4722	0.06736532598733902	0.0071534226	No	
row_11	SHKBP1	NA	5986	0.04791058227419853	-0.04527704	No	
row_12	RNF145	NA	6520	0.040487948805093765	-0.064001575	No	
row_13	MED26	NA	6777	0.03703019395470619	-0.07004394	No	
row_14	SLC22A12	NA	6851	0.03597266599535942	-0.06750193	No	
row_15	PCDH8	NA	6959	0.03437462076544762	-0.06685601	No	
row_16	NLGN2	NA	7352	0.0292498916387558	-0.08071566	No	
row_17	TSPEAR	NA	7508	0.02730485610663891	-0.08355442	No	
row_18	GLRA2	NA	7830	0.02351263351738453	-0.09497752	No	
row_19	H3-3B	NA	8006	0.021248986944556236	-0.09979019	No	
row_20	KLF9	NA	8209	0.018609926104545593	-0.1063385	No	
row_21	SMARCAL1	NA	8238	0.018267344683408737	-0.10461337	No	
row_22	EEF1A2	NA	8425	0.015975071117281914	-0.11083782	No	
row_23	HSF2	NA	8516	0.015004514716565609	-0.112628765	No	
row_24	SCN2A	NA	8736	0.012300759553909302	-0.121049866	No	
row_25	FZD6	NA	9982	-0.0024646553210914135	-0.18024553	No	
row_26	H4C3	NA	10099	-0.003895181929692626	-0.18514578	No	
row_27	SLC22A8	NA	10966	-0.014184384606778622	-0.22422844	No	
row_28	GTPBP1	NA	11690	-0.02355811931192875	-0.25489125	No	
row_29	GIP	NA	12023	-0.027851898223161697	-0.26611277	No	
row_30	TLE3	NA	12179	-0.02977980114519596	-0.26853618	No	
row_31	BMX	NA	12963	-0.04021916165947914	-0.29927558	No	
row_32	KCNIP2	NA	13344	-0.045866258442401886	-0.30977198	No	
row_33	SLC23A3	NA	13446	-0.047632161527872086	-0.30661383	No	
row_34	PACSIN3	NA	14083	-0.05699015408754349	-0.3275004	No	
row_35	FOXP2	NA	14363	-0.06140787526965141	-0.33055276	No	
row_36	NCKAP5	NA	15163	-0.07455787807703018	-0.35629526	Yes	
row_37	PTH1R	NA	15241	-0.0757756158709526	-0.34726477	Yes	
row_38	KLF14	NA	15712	-0.08429744839668274	-0.35562053	Yes	
row_39	SULF2	NA	15770	-0.08563023805618286	-0.3439786	Yes	
row_40	COL16A1	NA	15771	-0.08563945442438126	-0.32960603	Yes	
row_41	TP63	NA	16261	-0.09532065689563751	-0.3370215	Yes	
row_42	SRD5A2	NA	16337	-0.09701108932495117	-0.3243314	Yes	
row_43	CA4	NA	16535	-0.10114012658596039	-0.31678954	Yes	
row_44	PCK1	NA	16701	-0.1048344224691391	-0.3070956	Yes	
row_45	GPR34	NA	16735	-0.10546157509088516	-0.29097635	Yes	
row_46	SI	NA	16914	-0.10958141833543777	-0.2811081	Yes	
row_47	UGT1A1	NA	17194	-0.11613162606954575	-0.27497637	Yes	
row_48	HAO1	NA	17253	-0.11763116717338562	-0.25801173	Yes	
row_49	RARB	NA	17750	-0.12894102931022644	-0.26011997	Yes	
row_50	WNT8B	NA	18088	-0.13774637877941132	-0.25313768	Yes	
row_51	SEMA4G	NA	18273	-0.14329031109809875	-0.23789948	Yes	
row_52	TDRD5	NA	18393	-0.1468336582183838	-0.21895449	Yes	
row_53	STMN2	NA	18652	-0.15546810626983643	-0.20521559	Yes	
row_54	SLC22A6	NA	19181	-0.17494188249111176	-0.20113578	Yes	
row_55	GC	NA	19384	-0.18272681534290314	-0.18014093	Yes	
row_56	CDH17	NA	19914	-0.20983974635601044	-0.17025222	Yes	
row_57	BDNF	NA	19977	-0.21390509605407715	-0.13732176	Yes	
row_58	GDF10	NA	20283	-0.23942144215106964	-0.11174357	Yes	
row_59	GUCA2B	NA	20415	-0.25374385714530945	-0.07543076	Yes	
row_60	CREB5	NA	20680	-0.29698821902275085	-0.0382283	Yes	
row_61	KLB	NA	20711	-0.30367061495780945	0.011299324	Yes	
