NAME	SYMBOL	TITLE	RANK IN GENE LIST	RANK METRIC SCORE	RUNNING ES	CORE ENRICHMENT	
row_0	SLC7A11	NA	1	1.2010973691940308	0.045146015	Yes	
row_1	CHAC1	NA	2	1.000258207321167	0.08278329	Yes	
row_2	ASNS	NA	5	0.9418644905090332	0.11812665	Yes	
row_3	PCK2	NA	12	0.6701359748840332	0.14305213	Yes	
row_4	SLC3A2	NA	35	0.5110788941383362	0.16121906	Yes	
row_5	TUBE1	NA	78	0.3977035880088806	0.17415293	Yes	
row_6	PIGW	NA	80	0.3924274146556854	0.18887065	Yes	
row_7	SLC1A5	NA	100	0.36955559253692627	0.20185746	Yes	
row_8	PYCR1	NA	151	0.3398810923099518	0.21222879	Yes	
row_9	IARS1	NA	159	0.33313998579978943	0.22442558	Yes	
row_10	DDIT4	NA	166	0.3259049355983734	0.23639849	Yes	
row_11	ZBED3	NA	182	0.31731361150741577	0.24761295	Yes	
row_12	EPRS1	NA	207	0.3031342923641205	0.25785872	Yes	
row_13	YARS1	NA	218	0.2980564832687378	0.26859036	Yes	
row_14	UTP25	NA	221	0.2957318425178528	0.27962133	Yes	
row_15	TSEN2	NA	249	0.28734779357910156	0.28912804	Yes	
row_16	UTP15	NA	257	0.2837502658367157	0.2994664	Yes	
row_17	CWF19L2	NA	303	0.2706189751625061	0.30747333	Yes	
row_18	RALGAPA1	NA	316	0.2677892744541168	0.31696936	Yes	
row_19	H2BC17	NA	530	0.22546949982643127	0.31515443	Yes	
row_20	GZF1	NA	563	0.21983380615711212	0.321879	Yes	
row_21	ZNHIT6	NA	584	0.21590593457221985	0.329036	Yes	
row_22	SLC31A1	NA	589	0.2155998796224594	0.3369551	Yes	
row_23	SEPTIN7P14	NA	591	0.21525917947292328	0.3450064	Yes	
row_24	SRRM2	NA	622	0.21091488003730774	0.35149208	Yes	
row_25	TPT1-AS1	NA	662	0.2069268673658371	0.35739255	Yes	
row_26	CCDC138	NA	703	0.20222565531730652	0.36306775	Yes	
row_27	MED29	NA	781	0.19464626908302307	0.3666688	Yes	
row_28	FAM117B	NA	865	0.18747137486934662	0.36970973	Yes	
row_29	ASB7	NA	880	0.18657104671001434	0.376053	Yes	
row_30	PDSS2	NA	881	0.18641382455825806	0.3830673	Yes	
row_31	HERPUD1	NA	994	0.17717990279197693	0.38431883	Yes	
row_32	FKTN	NA	1002	0.17673563957214355	0.39063048	Yes	
row_33	LEO1	NA	1130	0.1689532846212387	0.39084718	Yes	
row_34	NOL6	NA	1242	0.16294269263744354	0.39161134	Yes	
row_35	RNF111	NA	1267	0.16125237941741943	0.39651844	Yes	
row_36	ESYT1	NA	1399	0.15393728017807007	0.39597672	Yes	
row_37	PKN2	NA	1428	0.15209190547466278	0.40034574	Yes	
row_38	AASDH	NA	1443	0.15127265453338623	0.40536085	Yes	
row_39	H2BC7	NA	1577	0.14459630846977234	0.40437093	Yes	
row_40	NCOA5	NA	1599	0.14342519640922546	0.4087523	Yes	
row_41	H3C12	NA	1628	0.1425611972808838	0.4127627	Yes	
row_42	WASF1	NA	1702	0.13934768736362457	0.41447636	Yes	
row_43	ZZEF1	NA	1798	0.13520029187202454	0.41497025	Yes	
row_44	UBR1	NA	1855	0.13299135863780975	0.41726673	Yes	
row_45	MYO19	NA	1907	0.13128629326820374	0.4197408	Yes	
row_46	LRRCC1	NA	1911	0.13106413185596466	0.42452738	Yes	
row_47	PREPL	NA	1957	0.12949901819229126	0.4272243	Yes	
row_48	ARID5B	NA	2081	0.12520912289619446	0.4259884	Yes	
row_49	PCNX4	NA	2092	0.12480631470680237	0.43020105	Yes	
row_50	ELP3	NA	2102	0.12458375096321106	0.43445367	Yes	
row_51	H2AC7	NA	2142	0.12341391295194626	0.43721175	Yes	
row_52	AXIN2	NA	2177	0.1224595159292221	0.44017565	Yes	
row_53	ETFDH	NA	2187	0.1222706213593483	0.44434124	Yes	
row_54	PIGK	NA	2255	0.12021226435899734	0.445625	Yes	
row_55	RPL32P3	NA	2277	0.119686059653759	0.44911313	Yes	
row_56	IPO8	NA	2604	0.11064520478248596	0.43751392	Yes	
row_57	FAAP100	NA	2646	0.10941524058580399	0.43964857	Yes	
row_58	RAD52	NA	2672	0.10880988836288452	0.44253403	Yes	
row_59	AKAP1	NA	2718	0.10759223997592926	0.44440666	Yes	
row_60	EIF4B	NA	2755	0.10675305873155594	0.44668287	Yes	
row_61	CLEC16A	NA	2795	0.10550878196954727	0.44876722	Yes	
row_62	MZF1	NA	2837	0.10441017895936966	0.45071352	Yes	
row_63	ZEB1	NA	2869	0.1035381481051445	0.45311052	Yes	
row_64	PDPR	NA	2962	0.1010621041059494	0.4524649	Yes	
row_65	TMEM69	NA	3017	0.1000250056385994	0.45361766	Yes	
row_66	ACO2	NA	3161	0.09688255935907364	0.45034888	Yes	
row_67	TBC1D8	NA	3251	0.09480763226747513	0.449613	Yes	
row_68	NUDT9	NA	3289	0.09388180822134018	0.45135656	Yes	
row_69	ANTKMT	NA	3296	0.09374815225601196	0.45459396	Yes	
row_70	AFF1	NA	3309	0.09341724961996078	0.4575288	Yes	
row_71	RBM33	NA	3364	0.09227558225393295	0.45838994	Yes	
row_72	FAF1	NA	3461	0.09030506014823914	0.4571462	Yes	
row_73	TGDS	NA	3485	0.08968041092157364	0.45940855	Yes	
row_74	CEP290	NA	3497	0.08934883028268814	0.46223867	Yes	
row_75	RNF187	NA	3517	0.08912064880132675	0.4646734	Yes	
row_76	NIFK-AS1	NA	3529	0.08892623335123062	0.4674876	Yes	
row_77	MKS1	NA	3575	0.08791571110486984	0.46861985	Yes	
row_78	CEP192	NA	3607	0.08735504001379013	0.47040793	Yes	
row_79	ZNF330	NA	3616	0.08724146336317062	0.4733038	Yes	
row_80	DNAAF5	NA	3676	0.08607115596532822	0.47368973	Yes	
row_81	BET1L	NA	3692	0.08574996143579483	0.476191	Yes	
row_82	PHKB	NA	3762	0.08464083075523376	0.47603962	Yes	
row_83	UTP14A	NA	3884	0.08231575787067413	0.47328645	Yes	
row_84	HAX1	NA	3936	0.08135253936052322	0.47388166	Yes	
row_85	HS2ST1	NA	3983	0.08050487190485	0.47468668	Yes	
row_86	CLASP1	NA	3990	0.08039777725934982	0.47742176	Yes	
row_87	PBRM1	NA	4073	0.07859597355127335	0.47641432	Yes	
row_88	CEPT1	NA	4090	0.07837478816509247	0.47858977	Yes	
row_89	CORO7	NA	4186	0.07652068138122559	0.4768757	Yes	
row_90	WDR7	NA	4282	0.0747135803103447	0.4750936	Yes	
row_91	DTWD1	NA	4288	0.07466687262058258	0.4776614	Yes	
row_92	ZC3H10	NA	4295	0.07455020397901535	0.48017642	Yes	
row_93	GCLM	NA	4537	0.070427805185318	0.4711738	Yes	
row_94	H1-2	NA	4541	0.0703740194439888	0.47367674	Yes	
row_95	C16orf70	NA	4561	0.07004016637802124	0.47539353	Yes	
row_96	CHERP	NA	4610	0.06924943625926971	0.47567835	Yes	
row_97	DLAT	NA	4637	0.06878809630870819	0.47700953	Yes	
row_98	ZC3H15	NA	4654	0.06859726458787918	0.47881708	Yes	
row_99	GNL3	NA	4759	0.06668729335069656	0.47629783	Yes	
row_100	RIOK2	NA	4838	0.0652376040816307	0.47498116	Yes	
row_101	MYO9A	NA	4867	0.06471527367830276	0.47606242	Yes	
row_102	TXNL1	NA	4984	0.06291107833385468	0.47282085	Yes	
row_103	MAP4K1	NA	5021	0.06252337992191315	0.4734328	Yes	
row_104	TIMM23	NA	5038	0.0622757263481617	0.47500247	Yes	
row_105	FAM227B	NA	5062	0.06195041537284851	0.47622144	Yes	
row_106	H1-10	NA	5122	0.06107494235038757	0.47566682	Yes	
row_107	CDCA7	NA	5147	0.06060916557908058	0.47678697	Yes	
row_108	MARF1	NA	5239	0.05903194844722748	0.47460824	Yes	
row_109	NDE1	NA	5268	0.05850996822118759	0.475456	Yes	
row_110	HIGD2A	NA	5282	0.058344993740320206	0.4770228	Yes	
row_111	DGCR6L	NA	5310	0.05777939036488533	0.47789142	Yes	
row_112	CDC40	NA	5327	0.05750133842229843	0.47928143	Yes	
row_113	CDK8	NA	5330	0.05746358260512352	0.48134694	Yes	
row_114	CAMKMT	NA	5389	0.05674183741211891	0.48067763	No	
row_115	MCTS1	NA	5458	0.05548956245183945	0.47947767	No	
row_116	ITFG1	NA	5651	0.05282086879014969	0.47218177	No	
row_117	TBC1D23	NA	5667	0.05258685350418091	0.47343522	No	
row_118	PRKAR1B	NA	5690	0.052335917949676514	0.47434077	No	
row_119	IFT122	NA	5794	0.05083437263965607	0.47127336	No	
row_120	FKBP15	NA	5872	0.04956939443945885	0.4694155	No	
row_121	ZNF862	NA	5879	0.04943786934018135	0.47098562	No	
row_122	NAA30	NA	5954	0.048425931483507156	0.46922976	No	
row_123	CNOT11	NA	6056	0.047161493450403214	0.46612087	No	
row_124	ZEB1-AS1	NA	6092	0.04665146768093109	0.46618396	No	
row_125	COPB1	NA	6119	0.04628506675362587	0.46666843	No	
row_126	H2BC10	NA	6171	0.0453932024538517	0.46591055	No	
row_127	MBD4	NA	6252	0.044144608080387115	0.4637035	No	
row_128	AHCY	NA	6296	0.04363630712032318	0.4632663	No	
row_129	BAG5	NA	6421	0.041927047073841095	0.4588484	No	
row_130	DLD	NA	6502	0.040803760290145874	0.45651564	No	
row_131	HAT1	NA	6540	0.0402335487306118	0.45624053	No	
row_132	H2BC5	NA	6545	0.04020277038216591	0.45755985	No	
row_133	H2AC17	NA	6760	0.0372222475707531	0.4486133	No	
row_134	PARG	NA	6762	0.03720911219716072	0.449965	No	
row_135	LINS1	NA	6835	0.0361398309469223	0.44784358	No	
row_136	DCAF8	NA	6913	0.035126425325870514	0.44544226	No	
row_137	GGCX	NA	6932	0.034773748368024826	0.44588038	No	
row_138	TAF6	NA	6985	0.03409802168607712	0.44464916	No	
row_139	KIFBP	NA	7141	0.03211524337530136	0.43836313	No	
row_140	E4F1	NA	7180	0.03164577856659889	0.43771654	No	
row_141	TUBB	NA	7201	0.03134501725435257	0.43792894	No	
row_142	EIF3D	NA	7202	0.03132380545139313	0.4391076	No	
row_143	MRFAP1	NA	7267	0.030459625646471977	0.43715924	No	
row_144	DNAJA3	NA	7303	0.029943520203232765	0.43659362	No	
row_145	CHEK1	NA	7358	0.029103869572281837	0.4350778	No	
row_146	PLEC	NA	7380	0.02879893220961094	0.43514603	No	
row_147	ANKRA2	NA	7395	0.028575606644153595	0.43554434	No	
row_148	TCEA1	NA	7515	0.027230486273765564	0.43081516	No	
row_149	EMC8	NA	7774	0.02419281378388405	0.41925088	No	
row_150	CDK7	NA	7859	0.02312467433512211	0.4160595	No	
row_151	H3C8	NA	7938	0.022239426150918007	0.41312492	No	
row_152	NSUN5	NA	8237	0.018269946798682213	0.3994037	No	
row_153	MRFAP1L1	NA	8239	0.018259752541780472	0.4000424	No	
row_154	SOX2-OT	NA	8339	0.016962680965662003	0.3958939	No	
row_155	TFDP1	NA	8434	0.015889404341578484	0.3919468	No	
row_156	USP48	NA	8442	0.015820542350411415	0.3922036	No	
row_157	CZIB	NA	8527	0.014856101013720036	0.3887011	No	
row_158	RPL23A	NA	8552	0.014551766216754913	0.38808823	No	
row_159	TAF5	NA	8575	0.014284757897257805	0.387562	No	
row_160	RIC8A	NA	8728	0.012332211248576641	0.38067663	No	
row_161	RPL32	NA	8757	0.012091892771422863	0.3797778	No	
row_162	RNF7	NA	8768	0.011869322508573532	0.3797409	No	
row_163	S100PBP	NA	8770	0.011860771104693413	0.38013884	No	
row_164	CCDC174	NA	8792	0.011537931859493256	0.3795576	No	
row_165	C4orf46	NA	9073	0.008454713970422745	0.3663374	No	
row_166	EEF1AKNMT	NA	9114	0.008035075850784779	0.36470568	No	
row_167	DDI2	NA	9178	0.007273276336491108	0.36193323	No	
row_168	OSTC	NA	9280	0.005989582743495703	0.35727513	No	
row_169	INHBE	NA	9392	0.004573476500809193	0.35208023	No	
row_170	DRAM2	NA	9438	0.003994958475232124	0.35005474	No	
row_171	EEF1G	NA	9480	0.0036163933109492064	0.34820843	No	
row_172	GUSB	NA	9689	0.00110950181260705	0.33819312	No	
row_173	USP54	NA	9691	0.0011064873542636633	0.3381864	No	
row_174	METTL3	NA	9870	-0.0011002488899976015	0.3296213	No	
row_175	HCP5	NA	9958	-0.0021813202183693647	0.32549682	No	
row_176	SH3BP5L	NA	10019	-0.0028824787586927414	0.3227042	No	
row_177	GOLGA7	NA	10172	-0.004727033898234367	0.31553268	No	
row_178	PSMB6	NA	10177	-0.004748384468257427	0.31551793	No	
row_179	GTF2IP20	NA	10268	-0.005758758168667555	0.311383	No	
row_180	ETFRF1	NA	10283	-0.005915949121117592	0.3109287	No	
row_181	NDUFAB1	NA	10308	-0.006136163137853146	0.30999917	No	
row_182	GPBP1L1	NA	10342	-0.0065045468509197235	0.30864832	No	
row_183	EED	NA	10544	-0.00916680134832859	0.29927465	No	
row_184	CYCS	NA	10755	-0.011780433356761932	0.28956416	No	
row_185	H4C2	NA	10852	-0.012974420562386513	0.28541064	No	
row_186	RPS16	NA	10875	-0.013182329945266247	0.28484294	No	
row_187	BIRC2	NA	10917	-0.013635176233947277	0.2833736	No	
row_188	CNIH2	NA	10941	-0.013868073001503944	0.28278333	No	
row_189	CNPY4	NA	10985	-0.01441946066915989	0.2812468	No	
row_190	MPC1	NA	11033	-0.014919490553438663	0.27953568	No	
row_191	MRPS16	NA	11137	-0.01598002016544342	0.2751568	No	
row_192	DNAJC19	NA	11144	-0.016135970130562782	0.27547383	No	
row_193	CHMP4B	NA	11175	-0.01669357344508171	0.27465144	No	
row_194	TMTC3	NA	11191	-0.016934823244810104	0.2745634	No	
row_195	H2BC4	NA	11200	-0.016982633620500565	0.2748156	No	
row_196	EIF3K	NA	11262	-0.017823709174990654	0.27253684	No	
row_197	TPT1	NA	11364	-0.018976809456944466	0.2683674	No	
row_198	CTNNBL1	NA	11371	-0.019075894728302956	0.26879507	No	
row_199	SUPT5H	NA	11381	-0.019213344901800156	0.26908287	No	
row_200	ZBED3-AS1	NA	11395	-0.019451627507805824	0.26918623	No	
row_201	PITHD1	NA	11510	-0.02103922702372074	0.26446584	No	
row_202	PSMD8	NA	11673	-0.023300571367144585	0.25750968	No	
row_203	KIAA2013	NA	11681	-0.023385409265756607	0.25805116	No	
row_204	MRPL15	NA	11732	-0.024066099897027016	0.25653917	No	
row_205	CACUL1	NA	11860	-0.02563927136361599	0.2513633	No	
row_206	P2RX6	NA	11927	-0.02648400515317917	0.24916863	No	
row_207	PPP5C	NA	11999	-0.027482464909553528	0.2467698	No	
row_208	FAM229B	NA	12115	-0.02888980321586132	0.24229646	No	
row_209	LSM4	NA	12211	-0.030154159292578697	0.23883772	No	
row_210	H2BC11	NA	12261	-0.03082256205379963	0.2376283	No	
row_211	CRLS1	NA	12267	-0.030887754634022713	0.23854877	No	
row_212	H2AC11	NA	12326	-0.03161797672510147	0.23693411	No	
row_213	SENP8	NA	12352	-0.032031212002038956	0.23693058	No	
row_214	PRPF31	NA	12464	-0.03337970748543739	0.23281959	No	
row_215	TFPT	NA	12473	-0.03356938809156418	0.23369591	No	
row_216	DNTTIP1	NA	12749	-0.03733081370592117	0.221804	No	
row_217	CIAO3	NA	13021	-0.04093402251601219	0.21024106	No	
row_218	COX4I1	NA	13197	-0.043698735535144806	0.20342387	No	
row_219	DPH5	NA	13310	-0.04538427293300629	0.19971624	No	
row_220	REXO2	NA	13389	-0.04671056568622589	0.19770245	No	
row_221	TOMM7	NA	13423	-0.04732120409607887	0.19788744	No	
row_222	CDK2AP2	NA	13526	-0.04877237603068352	0.1947908	No	
row_223	CSNK1G2	NA	13559	-0.04924454167485237	0.19509651	No	
row_224	CENPBD1P1	NA	13579	-0.04947734624147415	0.19603956	No	
row_225	WFDC3	NA	13581	-0.04948483780026436	0.1978532	No	
row_226	TTI2	NA	13603	-0.04982203617691994	0.1987125	No	
row_227	ELOA-AS1	NA	13706	-0.05114259943366051	0.19570504	No	
row_228	SELENOF	NA	13771	-0.05219751596450806	0.19457464	No	
row_229	ZMAT2	NA	13914	-0.054239463061094284	0.18974966	No	
row_230	PAF1	NA	13920	-0.05433124676346779	0.19155225	No	
row_231	TAF13	NA	14026	-0.055998899042606354	0.18858248	No	
row_232	DPY30	NA	14051	-0.056403763592243195	0.18954438	No	
row_233	CDKN2C	NA	14060	-0.05659366026520729	0.19128706	No	
row_234	TAZ	NA	14352	-0.06127070635557175	0.17952232	No	
row_235	CFAP94	NA	14569	-0.0645684003829956	0.171508	No	
row_236	PZP	NA	14822	-0.0689549669623375	0.1619181	No	
row_237	CYB5D2	NA	14827	-0.06899949908256531	0.16432098	No	
row_238	BOLA1	NA	14972	-0.07108328491449356	0.16003309	No	
row_239	C1orf122	NA	15074	-0.07271037995815277	0.15788554	No	
row_240	ABT1	NA	15262	-0.07607100903987885	0.15170622	No	
row_241	RHBDF1	NA	15325	-0.0772201418876648	0.15161406	No	
row_242	TPD52L1	NA	15451	-0.0793893113732338	0.14855738	No	
row_243	NEURL4	NA	15707	-0.08422806113958359	0.13939711	No	
row_244	TRAPPC5	NA	15789	-0.08589320629835129	0.13871261	No	
row_245	ZNF219	NA	15892	-0.08780140429735184	0.13708454	No	
row_246	ARHGAP28	NA	16186	-0.09404297918081284	0.12645625	No	
row_247	C4orf36	NA	16236	-0.09494496881961823	0.12765959	No	
row_248	COA8	NA	16429	-0.09861826151609421	0.12208691	No	
row_249	PHF5A	NA	16512	-0.10038528591394424	0.12189937	No	
row_250	NDUFS5	NA	16907	-0.10922206193208694	0.10695875	No	
row_251	TUBA3FP	NA	17095	-0.11384374648332596	0.102200724	No	
row_252	H2BC12	NA	17106	-0.11415370553731918	0.10601254	No	
row_253	VAMP8	NA	17213	-0.11662082374095917	0.10527547	No	
row_254	MPG	NA	17270	-0.11800777167081833	0.107008144	No	
row_255	CCDC184	NA	17341	-0.11975006014108658	0.108129464	No	
row_256	MCM8-AS1	NA	17531	-0.12327601760625839	0.103629656	No	
row_257	NAALADL2	NA	17751	-0.1289583146572113	0.09789313	No	
row_258	GTF2IP12	NA	18686	-0.15672512352466583	0.05863027	No	
row_259	PARGP1	NA	18835	-0.16160224378108978	0.057554986	No	
row_260	RPS6KL1	NA	19123	-0.17272275686264038	0.05017732	No	
row_261	NFKBIA	NA	19170	-0.17445312440395355	0.05451741	No	
row_262	DNAJC9-AS1	NA	19329	-0.1800856739282608	0.0536541	No	
row_263	H2AC6	NA	19518	-0.18912623822689056	0.05168043	No	
row_264	LINC01359	NA	19600	-0.19321230053901672	0.05503409	No	
row_265	H2BC21	NA	20517	-0.26699042320251465	0.020790568	No	
