NAME	SYMBOL	TITLE	RANK IN GENE LIST	RANK METRIC SCORE	RUNNING ES	CORE ENRICHMENT	
row_0	C20orf197	NA	54	1.4301542043685913	0.04423673	Yes	
row_1	FLT3LG	NA	166	0.9449548125267029	0.069849595	Yes	
row_2	SEC31B	NA	258	0.7741932272911072	0.090831175	Yes	
row_3	GRK5	NA	329	0.7093233466148376	0.11069681	Yes	
row_4	SLCO3A1	NA	404	0.6538923978805542	0.12855537	Yes	
row_5	POU2F3	NA	590	0.572192370891571	0.1384099	Yes	
row_6	LINC00518	NA	787	0.5186331272125244	0.14598258	Yes	
row_7	INKA1	NA	833	0.5089408159255981	0.16048704	Yes	
row_8	PYM1	NA	875	0.5020898580551147	0.17495923	Yes	
row_9	CSMD3	NA	1126	0.46138978004455566	0.1780651	Yes	
row_10	SLIT3	NA	1661	0.4065265357494354	0.16574036	Yes	
row_11	USH1G	NA	1999	0.37731218338012695	0.16191652	Yes	
row_12	CA14	NA	2028	0.37551313638687134	0.17286816	Yes	
row_13	WWC1	NA	2052	0.3740042448043823	0.18401043	Yes	
row_14	PCDH12	NA	2314	0.3551812469959259	0.18311052	Yes	
row_15	PITPNM1	NA	2327	0.3544485569000244	0.19414054	Yes	
row_16	HOXA10	NA	2353	0.3528067171573639	0.20449269	Yes	
row_17	RERG	NA	2512	0.34339553117752075	0.20815167	Yes	
row_18	ALK	NA	2953	0.31804177165031433	0.19744228	Yes	
row_19	SOX10	NA	3034	0.31375402212142944	0.20387527	Yes	
row_20	CADPS	NA	3092	0.31082913279533386	0.21131666	Yes	
row_21	DGKA	NA	3123	0.30947577953338623	0.22000994	Yes	
row_22	SLC26A10	NA	3309	0.30038028955459595	0.22096421	Yes	
row_23	OPCML	NA	3318	0.30014482140541077	0.23040813	Yes	
row_24	COL11A1	NA	3539	0.28993934392929077	0.22934024	Yes	
row_25	RORA	NA	3557	0.2890114188194275	0.23798753	Yes	
row_26	MB	NA	3698	0.2835674285888672	0.24055164	Yes	
row_27	BCL6B	NA	3903	0.2743503451347351	0.23974143	Yes	
row_28	GRPR	NA	3995	0.2706120014190674	0.24423368	Yes	
row_29	GPR37L1	NA	4154	0.2645566761493683	0.24531114	Yes	
row_30	CDC20B	NA	4255	0.26138296723365784	0.24906912	Yes	
row_31	SRCIN1	NA	4291	0.25987157225608826	0.25589812	Yes	
row_32	DAPK2	NA	4313	0.2585008442401886	0.26335436	Yes	
row_33	CXCL12	NA	4327	0.2579347789287567	0.2711761	Yes	
row_34	LRP1	NA	4630	0.24666082859039307	0.26475447	No	
row_35	ELN	NA	4942	0.2347501814365387	0.25751078	No	
row_36	GPR156	NA	5299	0.2227349728345871	0.2477133	No	
row_37	LETMD1	NA	5497	0.21495844423770905	0.2452944	No	
row_38	UPK2	NA	5742	0.20737504959106445	0.24037085	No	
row_39	STK32B	NA	5953	0.19958500564098358	0.23682448	No	
row_40	CORIN	NA	6603	0.1802271455526352	0.21156888	No	
row_41	C3orf49	NA	6801	0.17357982695102692	0.20779508	No	
row_42	ZNF366	NA	6824	0.17285488545894623	0.21239889	No	
row_43	IL6	NA	6874	0.1716890186071396	0.21566832	No	
row_44	CNTNAP1	NA	7196	0.1618812531232834	0.20555851	No	
row_45	DENND2C	NA	7340	0.15781530737876892	0.20386094	No	
row_46	C11orf52	NA	7418	0.15526731312274933	0.20524845	No	
row_47	C3orf20	NA	7570	0.15079069137573242	0.20293678	No	
row_48	VSTM2L	NA	7873	0.14176663756370544	0.19308048	No	
row_49	CIAO1	NA	7965	0.1388617306947708	0.1932587	No	
row_50	AQP6	NA	8477	0.12353374809026718	0.17277178	No	
row_51	PCGF1	NA	8532	0.1213005781173706	0.17415124	No	
row_52	CSF3	NA	8538	0.12119001895189285	0.17787947	No	
row_53	GAD1	NA	8558	0.12042583525180817	0.18091056	No	
row_54	GFI1B	NA	8840	0.11262886226177216	0.17110834	No	
row_55	TMEM31	NA	8900	0.11072444915771484	0.17190145	No	
row_56	THBS3	NA	9036	0.1067642867565155	0.16891631	No	
row_57	TMEM51-AS1	NA	9234	0.10071499645709991	0.16275664	No	
row_58	CHRM1	NA	9687	0.08611515164375305	0.14387693	No	
row_59	LINC02724	NA	9902	0.07884316891431808	0.13618493	No	
row_60	ARMCX6	NA	10126	0.07149988412857056	0.12782042	No	
row_61	TMEM51	NA	10337	0.0647965744137764	0.119860515	No	
row_62	TMEM127	NA	10344	0.06462588906288147	0.12168859	No	
row_63	SORCS2	NA	10711	0.05313216894865036	0.10585754	No	
row_64	ADGRB2	NA	10739	0.052157267928123474	0.10626918	No	
row_65	ARL8B	NA	10758	0.05155300348997116	0.107093096	No	
row_66	SOST	NA	10800	0.05014531686902046	0.106766745	No	
row_67	NOP10	NA	11195	0.03766540810465813	0.08908504	No	
row_68	ARF1	NA	11390	0.03223200887441635	0.08082696	No	
row_69	MMP1	NA	11450	0.03059098869562149	0.07899618	No	
row_70	ADORA1	NA	11527	0.027925778180360794	0.076262005	No	
row_71	ACBD4	NA	11684	0.02264038845896721	0.06951415	No	
row_72	RPL38	NA	11986	0.013061704114079475	0.055491526	No	
row_73	NPDC1	NA	12013	0.012389972805976868	0.054649025	No	
row_74	RPP25L	NA	12049	0.01131395436823368	0.053339224	No	
row_75	YY1	NA	12065	0.010826561599969864	0.052973613	No	
row_76	PTMA	NA	12188	0.00752683961763978	0.047363136	No	
row_77	KCND2	NA	12206	0.007169325370341539	0.04678176	No	
row_78	RPLP0	NA	12576	-0.004663744010031223	0.029219635	No	
row_79	CCNB1IP1	NA	12896	-0.013654625974595547	0.014352293	No	
row_80	RPS4X	NA	13766	-0.04363366216421127	-0.025937635	No	
row_81	OTOP2	NA	13790	-0.04464728385210037	-0.025579877	No	
row_82	ESR2	NA	13967	-0.05018414556980133	-0.032385994	No	
row_83	SMAD7	NA	14511	-0.07056482881307602	-0.056143582	No	
row_84	TYSND1	NA	14578	-0.07311374694108963	-0.056918044	No	
row_85	CCR10	NA	14717	-0.07883692532777786	-0.060961656	No	
row_86	MDK	NA	14731	-0.07926724851131439	-0.058990218	No	
row_87	PIK3R1	NA	15133	-0.09522589296102524	-0.07512321	No	
row_88	C1QBP	NA	15220	-0.09890632331371307	-0.07601327	No	
row_89	SLC35E4	NA	15243	-0.09995722770690918	-0.07379643	No	
row_90	CABP1	NA	15308	-0.10264544188976288	-0.07350788	No	
row_91	STAG1	NA	15389	-0.10611488670110703	-0.07387386	No	
row_92	ANKRD2	NA	15405	-0.106838159263134	-0.07109565	No	
row_93	PUM2	NA	15463	-0.10882432758808136	-0.070268735	No	
row_94	FIS1	NA	15709	-0.1208711788058281	-0.078072794	No	
row_95	EXT2	NA	16142	-0.13943997025489807	-0.094246276	No	
row_96	MED13	NA	16156	-0.14023731648921967	-0.090278424	No	
row_97	LRCH1	NA	16359	-0.15038837492465973	-0.09505164	No	
row_98	SERBP1	NA	16444	-0.1542726755142212	-0.094032764	No	
row_99	ARMC12	NA	16500	-0.15723595023155212	-0.09152463	No	
row_100	NUFIP2	NA	16646	-0.1644114851951599	-0.09310224	No	
row_101	TOMM40L	NA	17012	-0.1843007504940033	-0.104590274	No	
row_102	KAZALD1	NA	17100	-0.18982067704200745	-0.10255143	No	
row_103	MTX1	NA	17485	-0.21210429072380066	-0.11404121	No	
row_104	TTI1	NA	17669	-0.22269952297210693	-0.115534514	No	
row_105	ARTN	NA	18180	-0.2589614689350128	-0.13153897	No	
row_106	PLXNA2	NA	18465	-0.2800951600074768	-0.13600168	No	
row_107	RPRD1B	NA	18522	-0.2851758301258087	-0.12935227	No	
row_108	GRN	NA	18667	-0.2991354465484619	-0.12647046	No	
row_109	TSC22D3	NA	19396	-0.38287773728370667	-0.14888304	No	
row_110	EXOSC2	NA	19686	-0.4323645830154419	-0.14859988	No	
row_111	GAS7	NA	19791	-0.45593470335006714	-0.13866349	No	
row_112	KPNA6	NA	19888	-0.47658881545066833	-0.12766674	No	
row_113	SSH2	NA	20242	-0.5770646333694458	-0.12571798	No	
row_114	ANKS6	NA	20789	-1.0830636024475098	-0.11646621	No	
row_115	SCN3A	NA	20802	-1.113741159439087	-0.08057382	No	
row_116	FBXO16	NA	20811	-1.1222755908966064	-0.04420995	No	
row_117	DLX2	NA	20902	-1.5480940341949463	0.0021603398	No	
