NAME	SYMBOL	TITLE	RANK IN GENE LIST	RANK METRIC SCORE	RUNNING ES	CORE ENRICHMENT	
row_0	ENKUR	NA	551	0.5853167772293091	-0.015991358	No	
row_1	SH3BP1	NA	1065	0.47135451436042786	-0.0322193	No	
row_2	MSMO1	NA	1377	0.43223249912261963	-0.03939137	No	
row_3	MCPH1-AS1	NA	1799	0.39395710825920105	-0.052579198	No	
row_4	UNC5B-AS1	NA	1950	0.381396621465683	-0.05289118	No	
row_5	NR1D1	NA	2581	0.3392462134361267	-0.07718112	No	
row_6	PLBD1	NA	2842	0.32443878054618835	-0.083848886	No	
row_7	THAP7-AS1	NA	2871	0.3226773738861084	-0.07933014	No	
row_8	BAZ2B	NA	2891	0.32175832986831665	-0.07439291	No	
row_9	FBXL19	NA	2908	0.32033631205558777	-0.0693365	No	
row_10	ZNF628	NA	2927	0.31940969824790955	-0.064393654	No	
row_11	EEF1AKMT3	NA	3080	0.31135573983192444	-0.06607709	No	
row_12	SH3RF2	NA	3187	0.3058924674987793	-0.065635584	No	
row_13	CCDC144NL-AS1	NA	3363	0.2978276312351227	-0.06867742	No	
row_14	TNK2	NA	3664	0.28504645824432373	-0.07799635	No	
row_15	TMEM18	NA	3725	0.2825830578804016	-0.0757547	No	
row_16	MOV10	NA	3836	0.2773679792881012	-0.07602576	No	
row_17	PARP10	NA	3907	0.274170458316803	-0.07442079	No	
row_18	TAPBPL	NA	3908	0.2741650938987732	-0.06943099	No	
row_19	KRT7	NA	4577	0.2483680695295334	-0.09721244	No	
row_20	ERP29	NA	4581	0.24827253818511963	-0.09283896	No	
row_21	FGGY	NA	4689	0.24456782639026642	-0.09356192	No	
row_22	PKIB	NA	4998	0.23263654112815857	-0.10422155	No	
row_23	TMEM253	NA	5062	0.23060071468353271	-0.10307106	No	
row_24	DNASE1	NA	5473	0.21628031134605408	-0.11896068	No	
row_25	HOXA11-AS	NA	5562	0.21308794617652893	-0.119337805	No	
row_26	MIR194-2HG	NA	5607	0.21181771159172058	-0.11761039	No	
row_27	EIPR1	NA	5625	0.21097609400749207	-0.11459269	No	
row_28	HSD3B7	NA	5818	0.20382900536060333	-0.12016734	No	
row_29	CYB561D2	NA	5827	0.20356659591197968	-0.11684928	No	
row_30	TRIM31	NA	6002	0.19787588715553284	-0.12166187	No	
row_31	CDC14A	NA	6153	0.19331590831279755	-0.1253969	No	
row_32	RPS19BP1	NA	6240	0.19069130718708038	-0.12608495	No	
row_33	LTBR	NA	6383	0.1867835521697998	-0.12955204	No	
row_34	FDFT1	NA	6407	0.18637406826019287	-0.12727222	No	
row_35	C12orf76	NA	6442	0.18555933237075806	-0.12553914	No	
row_36	LMNA	NA	6585	0.1807335466146469	-0.12911634	No	
row_37	ZNF821	NA	6939	0.16959424316883087	-0.14309937	No	
row_38	CREB3L4	NA	7073	0.16542603075504303	-0.14651994	No	
row_39	TMED1	NA	7366	0.15699520707130432	-0.15778257	No	
row_40	PRORP	NA	7544	0.1514889895915985	-0.16358447	No	
row_41	ATF2	NA	7964	0.13894547522068024	-0.18131678	No	
row_42	MLF2	NA	8200	0.13172927498817444	-0.19028296	No	
row_43	RAB30	NA	8220	0.13110637664794922	-0.18881558	No	
row_44	DPY30	NA	8299	0.12911313772201538	-0.19023749	No	
row_45	EMC3	NA	8614	0.11877245455980301	-0.20325959	No	
row_46	PCDH1	NA	8624	0.11836806684732437	-0.2015405	No	
row_47	PPP6R2	NA	8728	0.11562077701091766	-0.20441686	No	
row_48	NEAT1	NA	8933	0.10964571684598923	-0.2122859	No	
row_49	FKBP2	NA	8970	0.10843226313591003	-0.21205327	No	
row_50	COPZ1	NA	9074	0.10560990869998932	-0.21511182	No	
row_51	C2orf49	NA	9212	0.10127925872802734	-0.2198933	No	
row_52	EIF3D	NA	9283	0.09903137385845184	-0.22147585	No	
row_53	MITD1	NA	9392	0.09610440582036972	-0.2249492	No	
row_54	PRR11	NA	9588	0.08968539535999298	-0.23274632	No	
row_55	TMCO1	NA	9689	0.08598951995372772	-0.2360169	No	
row_56	MRPS28	NA	9720	0.0848720371723175	-0.23592292	No	
row_57	MPV17L2	NA	10044	0.07451242208480835	-0.25018576	No	
row_58	PTPRO	NA	10049	0.07431753724813461	-0.2490266	No	
row_59	CKS2	NA	10060	0.07387431710958481	-0.24816564	No	
row_60	UBL5	NA	10091	0.07268349826335907	-0.24829347	No	
row_61	GIPR	NA	10097	0.07250477373600006	-0.24721567	No	
row_62	KMT5C	NA	10273	0.06689699739217758	-0.25446042	No	
row_63	CNNM4	NA	10275	0.06686390936374664	-0.25329188	No	
row_64	ZMAT5	NA	10432	0.06170613691210747	-0.25971234	No	
row_65	ERLEC1	NA	10494	0.0599665604531765	-0.26157066	No	
row_66	RDM1	NA	10631	0.055558111518621445	-0.26713592	No	
row_67	SDHD	NA	10677	0.054229456931352615	-0.26832494	No	
row_68	COQ10B	NA	10682	0.05414510890841484	-0.26753294	No	
row_69	MANF	NA	10720	0.05271785706281662	-0.26836264	No	
row_70	MRPL33	NA	10741	0.05212859809398651	-0.26838103	No	
row_71	NCBP2AS2	NA	10841	0.048852089792490005	-0.27227914	No	
row_72	STARD5	NA	10935	0.045671626925468445	-0.27594504	No	
row_73	FBXO33	NA	10974	0.04446427896618843	-0.2769733	No	
row_74	HMGB2	NA	11159	0.03892512246966362	-0.28516236	No	
row_75	ESRP2	NA	11172	0.03841013461351395	-0.28504357	No	
row_76	SUB1	NA	11182	0.03808632120490074	-0.2847856	No	
row_77	POLR1B	NA	11227	0.03662571683526039	-0.28624666	No	
row_78	IBTK	NA	11242	0.03628099337220192	-0.28626335	No	
row_79	FASN	NA	11252	0.03600417450070381	-0.28604326	No	
row_80	TNFRSF10A	NA	11572	0.02630312740802765	-0.30099007	No	
row_81	GRM8	NA	11626	0.024845415726304054	-0.30310076	No	
row_82	SERF2	NA	11641	0.02439015544950962	-0.30333385	No	
row_83	MGAT2	NA	11645	0.024141885340213776	-0.30303952	No	
row_84	POLR1A	NA	11689	0.02253815531730652	-0.30470863	No	
row_85	PPIL2	NA	11839	0.017437856644392014	-0.3115963	No	
row_86	SKA2	NA	11840	0.01740102842450142	-0.3112796	No	
row_87	ERCC1	NA	11870	0.016479233279824257	-0.31238198	No	
row_88	RAB11A	NA	11928	0.01495004165917635	-0.3148662	No	
row_89	ASNS	NA	11987	0.013057748787105083	-0.31743318	No	
row_90	PPIA	NA	11991	0.012859050184488297	-0.31734422	No	
row_91	MRPL51	NA	12022	0.012016610242426395	-0.3185762	No	
row_92	PTMA	NA	12188	0.00752683961763978	-0.32641792	No	
row_93	RPS3A	NA	12356	0.002303538378328085	-0.33445144	No	
row_94	HOXA10-AS	NA	12370	0.0019631485920399427	-0.33504432	No	
row_95	IST1	NA	12375	0.001626417157240212	-0.33520815	No	
row_96	ENSA	NA	12406	3.38623853167519E-4	-0.33665267	No	
row_97	NACA	NA	12450	-8.535130764357746E-4	-0.33871645	No	
row_98	CDK4	NA	12600	-0.005310597829520702	-0.3458248	No	
row_99	NCAPD2	NA	12607	-0.0055938647128641605	-0.34601316	No	
row_100	RPL37	NA	12739	-0.0093946922570467	-0.3521768	No	
row_101	TNFRSF1A	NA	12800	-0.011061044409871101	-0.35487682	No	
row_102	RPS13	NA	12912	-0.01409298088401556	-0.35998785	No	
row_103	AIMP1	NA	12928	-0.014855354093015194	-0.36044282	No	
row_104	THAP7	NA	12976	-0.016358880326151848	-0.36241782	No	
row_105	SCYL2	NA	13019	-0.017692454159259796	-0.36412674	No	
row_106	NPRL2	NA	13039	-0.018335457891225815	-0.36471182	No	
row_107	PSMA2	NA	13258	-0.02593209035694599	-0.37478143	No	
row_108	PLOD3	NA	13397	-0.0307938139885664	-0.3808941	No	
row_109	FOXK2	NA	13431	-0.03221559897065163	-0.38190353	No	
row_110	FNTB	NA	13515	-0.03445204347372055	-0.38529003	No	
row_111	SAMM50	NA	13551	-0.03573925420641899	-0.38633204	No	
row_112	RPS6	NA	13600	-0.03765903785824776	-0.38796774	No	
row_113	RACK1	NA	13627	-0.03890455141663551	-0.38851693	No	
row_114	POC5	NA	13632	-0.03910275176167488	-0.38799867	No	
row_115	NUP42	NA	13661	-0.04016552492976189	-0.38862163	No	
row_116	ASB3	NA	13680	-0.040788114070892334	-0.3887497	No	
row_117	PURB	NA	13714	-0.04184326156973839	-0.3895839	No	
row_118	LRRC46	NA	13866	-0.0470321848988533	-0.39602965	No	
row_119	PEX11B	NA	13931	-0.049052294343709946	-0.3982317	No	
row_120	CCT2	NA	14072	-0.054257601499557495	-0.40401402	No	
row_121	EBAG9	NA	14206	-0.059308011084795	-0.40936595	No	
row_122	MZT1	NA	14216	-0.059681933373212814	-0.40871495	No	
row_123	THOC6	NA	14218	-0.059764131903648376	-0.4076756	No	
row_124	RAPGEF6	NA	14228	-0.06004420667886734	-0.407018	No	
row_125	SLC25A23	NA	14232	-0.06041926145553589	-0.40606344	No	
row_126	ETV6	NA	14308	-0.0631384328007698	-0.40854102	No	
row_127	PPP2R3C	NA	14312	-0.06324956566095352	-0.40753493	No	
row_128	EMC3-AS1	NA	14347	-0.06448203325271606	-0.40800548	No	
row_129	AJUBA	NA	14355	-0.06466101855039597	-0.40716714	No	
row_130	SNHG1	NA	14366	-0.06495650112628937	-0.40646848	No	
row_131	ATP13A1	NA	14499	-0.07012410461902618	-0.4115752	No	
row_132	MRPL30	NA	14525	-0.0711490586400032	-0.4114892	No	
row_133	POP7	NA	14581	-0.07327987253665924	-0.41281506	No	
row_134	CAPRIN1	NA	14640	-0.07652927190065384	-0.4142269	No	
row_135	PRMT5	NA	14671	-0.07772428542375565	-0.41426298	No	
row_136	MAP3K11	NA	14729	-0.07915245741605759	-0.4155787	No	
row_137	DLAT	NA	14742	-0.07971830666065216	-0.4147081	No	
row_138	ZBED5-AS1	NA	14758	-0.08068172633647919	-0.41396505	No	
row_139	SLC35A5	NA	14772	-0.08122757077217102	-0.41311532	No	
row_140	ATP5MF	NA	14810	-0.0825759768486023	-0.4134016	No	
row_141	EPM2AIP1	NA	14895	-0.08621728420257568	-0.41589436	No	
row_142	LASP1	NA	14991	-0.08989769965410233	-0.41885203	No	
row_143	CEP70	NA	15013	-0.09107464551925659	-0.41820994	No	
row_144	FBXL12	NA	15085	-0.0934755951166153	-0.41994196	No	
row_145	GABPB1	NA	15116	-0.09460330754518509	-0.41967088	No	
row_146	GALE	NA	15122	-0.09492487460374832	-0.41818503	No	
row_147	NT5C3A	NA	15260	-0.10077270865440369	-0.42297572	No	
row_148	EHMT2	NA	15306	-0.10254201292991638	-0.42328548	No	
row_149	CLIP1	NA	15398	-0.10662098973989487	-0.42574537	No	
row_150	ARMT1	NA	15422	-0.10733438283205032	-0.42490408	No	
row_151	TPR	NA	15555	-0.11299284547567368	-0.42923057	No	
row_152	EED	NA	15606	-0.11546141654253006	-0.42954698	Yes	
row_153	ZNHIT1	NA	15626	-0.1168215423822403	-0.4283396	Yes	
row_154	SDR39U1	NA	15634	-0.11705669015645981	-0.42654765	Yes	
row_155	TNPO3	NA	15664	-0.11869698762893677	-0.4257897	Yes	
row_156	UBE2Z	NA	15710	-0.12087120860815048	-0.42576587	Yes	
row_157	TRIM11	NA	15771	-0.1239376962184906	-0.42641157	Yes	
row_158	SLC12A9	NA	15785	-0.1245146319270134	-0.42477402	Yes	
row_159	AHCYL1	NA	15798	-0.12489856034517288	-0.42308113	Yes	
row_160	MSL2	NA	15866	-0.12724778056144714	-0.4240051	Yes	
row_161	ZBTB45	NA	15900	-0.12898269295692444	-0.42325336	Yes	
row_162	IP6K2	NA	15910	-0.12937195599079132	-0.421334	Yes	
row_163	ZSCAN5A	NA	15944	-0.13094423711299896	-0.42054656	Yes	
row_164	SOCS5	NA	15987	-0.1330140382051468	-0.42015666	Yes	
row_165	H2AC8	NA	16090	-0.13749800622463226	-0.4225865	Yes	
row_166	NDUFS4	NA	16099	-0.13782237470149994	-0.42046496	Yes	
row_167	CTDSPL2	NA	16109	-0.1382063925266266	-0.41838482	Yes	
row_168	PSMD7	NA	16141	-0.13943439722061157	-0.41734615	Yes	
row_169	MLH1	NA	16189	-0.14201614260673523	-0.4170342	Yes	
row_170	FAM234A	NA	16262	-0.1457391381263733	-0.41786337	Yes	
row_171	SCRN3	NA	16282	-0.14686287939548492	-0.41610923	Yes	
row_172	BLOC1S2	NA	16313	-0.14821520447731018	-0.4148624	Yes	
row_173	MRPS22	NA	16315	-0.1482325941324234	-0.41221294	Yes	
row_174	DNAJC14	NA	16369	-0.1512419581413269	-0.4120232	Yes	
row_175	RELCH	NA	16372	-0.15136344730854034	-0.40936512	Yes	
row_176	GNRHR2	NA	16396	-0.15245042741298676	-0.40770268	Yes	
row_177	ZBED5	NA	16398	-0.15248507261276245	-0.40497583	Yes	
row_178	ODR4	NA	16476	-0.156037837266922	-0.40585935	Yes	
row_179	SNHG21	NA	16618	-0.1624140441417694	-0.4097216	Yes	
row_180	CHTOP	NA	16684	-0.16667845845222473	-0.4098312	Yes	
row_181	GOLGA3	NA	16724	-0.1691766381263733	-0.40863806	Yes	
row_182	ATF6B	NA	16784	-0.1723998785018921	-0.4083534	Yes	
row_183	UBQLN1	NA	16827	-0.17455118894577026	-0.40720752	Yes	
row_184	UBAP1	NA	16834	-0.17487160861492157	-0.404315	Yes	
row_185	MRPL27	NA	16866	-0.17634429037570953	-0.40260458	Yes	
row_186	ALAS1	NA	16902	-0.17859278619289398	-0.40104663	Yes	
row_187	CIC	NA	16990	-0.18340453505516052	-0.40191564	Yes	
row_188	VCP	NA	17031	-0.18548649549484253	-0.40047404	Yes	
row_189	EME1	NA	17063	-0.18768340349197388	-0.39855725	Yes	
row_190	NCBP2	NA	17085	-0.18890687823295593	-0.39613461	Yes	
row_191	TBL3	NA	17179	-0.19441072642803192	-0.39709345	Yes	
row_192	FBXO30	NA	17237	-0.19825613498687744	-0.3962415	Yes	
row_193	UPF1	NA	17293	-0.20214803516864777	-0.39522198	Yes	
row_194	FEM1A	NA	17298	-0.2026609182357788	-0.39172697	Yes	
row_195	PARP2	NA	17361	-0.20574207603931427	-0.39098054	Yes	
row_196	KLHL28	NA	17374	-0.2068566083908081	-0.387796	Yes	
row_197	SSBP1	NA	17375	-0.20686133205890656	-0.38403115	Yes	
row_198	FBXO30-DT	NA	17386	-0.20730946958065033	-0.3807417	Yes	
row_199	PFKL	NA	17443	-0.20935757458209991	-0.37963933	Yes	
row_200	B9D1	NA	17452	-0.20987851917743683	-0.3762064	Yes	
row_201	TK2	NA	17477	-0.21165937185287476	-0.37351474	Yes	
row_202	SRP54	NA	17494	-0.21239334344863892	-0.37042287	Yes	
row_203	TARS1	NA	17677	-0.2234228402376175	-0.37515736	Yes	
row_204	ZNF563	NA	17717	-0.2268001288175583	-0.3729155	Yes	
row_205	FPGS	NA	17744	-0.2285803258419037	-0.3700126	Yes	
row_206	SEC31A	NA	17864	-0.23862984776496887	-0.3714239	Yes	
row_207	PTCD1	NA	17962	-0.2444084882736206	-0.3716662	Yes	
row_208	WASL	NA	18038	-0.2498263269662857	-0.37074605	Yes	
row_209	PITRM1	NA	18065	-0.252032071352005	-0.36741632	Yes	
row_210	MRPS10	NA	18239	-0.2621307373046875	-0.37101114	Yes	
row_211	LARP4	NA	18257	-0.26380985975265503	-0.36703184	Yes	
row_212	ZNF395	NA	18285	-0.26564693450927734	-0.3635027	Yes	
row_213	WEE2-AS1	NA	18301	-0.26688385009765625	-0.35937077	Yes	
row_214	BSDC1	NA	18410	-0.2761598229408264	-0.3595671	Yes	
row_215	PCNX3	NA	18431	-0.2778971195220947	-0.3554765	Yes	
row_216	NME1	NA	18453	-0.2792437970638275	-0.35140976	Yes	
row_217	TWNK	NA	18496	-0.282827764749527	-0.34829324	Yes	
row_218	HARS2	NA	18511	-0.2843356430530548	-0.34379533	Yes	
row_219	PIGN	NA	18513	-0.28455162048339844	-0.33866486	Yes	
row_220	DHX8	NA	18519	-0.28487443923950195	-0.33372194	Yes	
row_221	DSN1	NA	18540	-0.2873409688472748	-0.32945946	Yes	
row_222	UBAP2L	NA	18646	-0.29720404744148254	-0.32912773	Yes	
row_223	DHRS7B	NA	18649	-0.29730626940727234	-0.32381347	Yes	
row_224	RMND1	NA	18704	-0.3030574321746826	-0.32090905	Yes	
row_225	TMEM267	NA	18709	-0.3033030033111572	-0.31558236	Yes	
row_226	BCLAF1	NA	18779	-0.3102222681045532	-0.3132729	Yes	
row_227	CDKL3	NA	18781	-0.31039923429489136	-0.307672	Yes	
row_228	ZNF770	NA	18846	-0.3181476891040802	-0.3049765	Yes	
row_229	TBP	NA	18847	-0.3184017837047577	-0.2991816	Yes	
row_230	RAB30-DT	NA	18917	-0.3263522684574127	-0.29657856	Yes	
row_231	DHX34	NA	18952	-0.3307143449783325	-0.29220366	Yes	
row_232	SPRED2	NA	19063	-0.3422948718070984	-0.29129308	Yes	
row_233	SECISBP2L	NA	19118	-0.34866008162498474	-0.28755867	Yes	
row_234	LARS1	NA	19158	-0.35381755232810974	-0.2830051	Yes	
row_235	MAP1S	NA	19209	-0.3599143624305725	-0.27887246	Yes	
row_236	MAP2K7	NA	19210	-0.35991886258125305	-0.27232197	Yes	
row_237	IPO8	NA	19211	-0.35993120074272156	-0.26577124	Yes	
row_238	ABHD2	NA	19217	-0.36066797375679016	-0.25944886	Yes	
row_239	PGGT1B	NA	19234	-0.36308369040489197	-0.25361446	Yes	
row_240	ZNF398	NA	19249	-0.3643183708190918	-0.24766085	Yes	
row_241	BRD4	NA	19303	-0.3704591691493988	-0.24348137	Yes	
row_242	THAP9-AS1	NA	19391	-0.38174334168434143	-0.24074063	Yes	
row_243	ZNF440	NA	19411	-0.38450711965560913	-0.23466137	Yes	
row_244	ZSCAN29	NA	19623	-0.41998782753944397	-0.2372207	Yes	
row_245	MOCS3	NA	19639	-0.42209160327911377	-0.230264	Yes	
row_246	SELENOI	NA	19690	-0.43419066071510315	-0.22477953	Yes	
row_247	NCOR2	NA	19744	-0.44581764936447144	-0.21922852	Yes	
row_248	COPG1	NA	19807	-0.4591250717639923	-0.21387054	Yes	
row_249	HSDL2	NA	20014	-0.5072602033615112	-0.21459973	Yes	
row_250	ERLIN2	NA	20040	-0.5147518515586853	-0.20644017	Yes	
row_251	BRAF	NA	20099	-0.5304208397865295	-0.19959117	Yes	
row_252	CCDC77	NA	20117	-0.533805251121521	-0.19069798	Yes	
row_253	C2orf49-DT	NA	20176	-0.5541954636573792	-0.18341629	Yes	
row_254	PALLD	NA	20203	-0.5648754239082336	-0.17439283	Yes	
row_255	KLHL8	NA	20216	-0.5679423809051514	-0.16463658	Yes	
row_256	ANKRD17	NA	20226	-0.5722385048866272	-0.15465707	Yes	
row_257	CHAC1	NA	20422	-0.6661667227745056	-0.15196225	Yes	
row_258	ANTXR2	NA	20451	-0.685742974281311	-0.14083572	Yes	
row_259	APOLD1	NA	20522	-0.728201150894165	-0.13096741	Yes	
row_260	THAP9	NA	20525	-0.729011595249176	-0.11779613	Yes	
row_261	NOTCH3	NA	20588	-0.7775532007217407	-0.10664276	Yes	
row_262	TSEN2	NA	20657	-0.852533757686615	-0.094414875	Yes	
row_263	TRIB1	NA	20697	-0.9028347730636597	-0.079869196	Yes	
row_264	LIMA1	NA	20707	-0.9284185171127319	-0.06340722	Yes	
row_265	USP53	NA	20749	-1.0114423036575317	-0.046981603	Yes	
row_266	TOGARAM1	NA	20868	-1.33551025390625	-0.02838136	Yes	
row_267	IGF2BP3	NA	20923	-1.766660213470459	0.0011605681	Yes	
