NAME	SYMBOL	TITLE	RANK IN GENE LIST	RANK METRIC SCORE	RUNNING ES	CORE ENRICHMENT	
row_0	EGR1	NA	264	0.7692363262176514	-2.2799557E-4	Yes	
row_1	BTG4	NA	266	0.7679620981216431	0.012223675	Yes	
row_2	ROBO3	NA	292	0.741036593914032	0.023078112	Yes	
row_3	HOXC6	NA	314	0.7174773216247559	0.03374224	Yes	
row_4	SOAT2	NA	336	0.7037076950073242	0.04418225	Yes	
row_5	CDH17	NA	363	0.6819609999656677	0.05402683	Yes	
row_6	LECT2	NA	433	0.6397510170936584	0.06110788	Yes	
row_7	PRICKLE1	NA	454	0.6310257315635681	0.07041315	Yes	
row_8	P2RX5	NA	552	0.5852725505828857	0.07525533	Yes	
row_9	PPP2R2B	NA	574	0.5781019330024719	0.08365087	Yes	
row_10	CA5A	NA	623	0.5621185898780823	0.090482414	Yes	
row_11	ANPEP	NA	682	0.541363537311554	0.09649323	Yes	
row_12	LINC00671	NA	811	0.5150152444839478	0.09869484	Yes	
row_13	SLC6A5	NA	839	0.5083887577056885	0.10566594	Yes	
row_14	PKHD1	NA	856	0.5050309300422668	0.113113575	Yes	
row_15	SLC4A4	NA	888	0.5004879236221313	0.119762905	Yes	
row_16	TCEA3	NA	910	0.4974426329135895	0.12684557	Yes	
row_17	A1CF	NA	987	0.4836132824420929	0.13104717	Yes	
row_18	COLCA1	NA	1010	0.4793761074542999	0.13778749	Yes	
row_19	SLC5A7	NA	1105	0.4647943079471588	0.14081353	Yes	
row_20	ARHGAP24	NA	1132	0.460868775844574	0.14705946	Yes	
row_21	SERPINA10	NA	1158	0.45863527059555054	0.1533173	Yes	
row_22	SLC7A9	NA	1206	0.45192065834999084	0.15840346	Yes	
row_23	HABP2	NA	1462	0.42485201358795166	0.15300462	Yes	
row_24	RBM47	NA	1518	0.41994351148605347	0.15718396	Yes	
row_25	UGT1A6	NA	1520	0.41969388723373413	0.16396694	Yes	
row_26	TINAG	NA	1535	0.4175908863544464	0.17008792	Yes	
row_27	TTLL6	NA	1609	0.41130682826042175	0.17325747	Yes	
row_28	NR1H4	NA	1660	0.40663161873817444	0.1774616	Yes	
row_29	SEMA4G	NA	1669	0.40537768602371216	0.18367353	Yes	
row_30	COL4A6	NA	1745	0.3984854221343994	0.1865378	Yes	
row_31	BDNF	NA	1779	0.3953188955783844	0.19137874	Yes	
row_32	LYSMD2	NA	1801	0.39383986592292786	0.1967751	Yes	
row_33	SGK2	NA	1804	0.393577516078949	0.20308469	Yes	
row_34	ANKS1B	NA	1833	0.3911683261394501	0.20809951	Yes	
row_35	FGA	NA	1976	0.3789788782596588	0.20741083	Yes	
row_36	RARB	NA	1988	0.3781682848930359	0.213035	Yes	
row_37	BPIFA1	NA	2340	0.3539423942565918	0.20184608	Yes	
row_38	HOXA10	NA	2353	0.3528067171573639	0.20700915	Yes	
row_39	NR2F1	NA	2551	0.34137123823165894	0.20305234	Yes	
row_40	TNS1	NA	2562	0.340692400932312	0.20811482	Yes	
row_41	NRP1	NA	2587	0.3387979567050934	0.2124704	Yes	
row_42	GLRA2	NA	2721	0.33044689893722534	0.21142638	Yes	
row_43	TMEM88	NA	2766	0.32843950390815735	0.21464753	Yes	
row_44	SLC5A1	NA	2875	0.3224731385707855	0.21468098	Yes	
row_45	ADAM11	NA	2890	0.32176080346107483	0.21924216	Yes	
row_46	COL9A1	NA	3021	0.31451404094696045	0.21808366	Yes	
row_47	ATP2B3	NA	3062	0.3124048411846161	0.22123699	Yes	
row_48	PDZK1IP1	NA	3091	0.3108481764793396	0.22494447	Yes	
row_49	ISL1	NA	3149	0.3080899715423584	0.22720663	Yes	
row_50	GPX1	NA	3191	0.30574604868888855	0.23020329	Yes	
row_51	GUCA2B	NA	3251	0.30320969223976135	0.23228942	Yes	
row_52	EEPD1	NA	3341	0.2988886535167694	0.23285651	Yes	
row_53	CALD1	NA	3505	0.2915841341018677	0.22973122	Yes	
row_54	CFI	NA	3569	0.2882923483848572	0.23138139	Yes	
row_55	PAQR9	NA	3585	0.28761720657348633	0.23533852	Yes	
row_56	TLCD1	NA	3648	0.2856593430042267	0.23699413	Yes	
row_57	SOSTDC1	NA	3703	0.28327909111976624	0.23899731	Yes	
row_58	ASB4	NA	3779	0.2802430987358093	0.23993698	Yes	
row_59	CES5A	NA	3887	0.275055855512619	0.23924692	Yes	
row_60	CRB3	NA	4089	0.26685965061187744	0.23388416	Yes	
row_61	KITLG	NA	4115	0.2660689949989319	0.23700763	Yes	
row_62	UGT1A1	NA	4155	0.2645341753959656	0.23943007	Yes	
row_63	SLC5A4	NA	4331	0.25776365399360657	0.2351748	Yes	
row_64	PLG	NA	4337	0.2575548589229584	0.23912552	Yes	
row_65	MITF	NA	4382	0.25603967905044556	0.24116825	Yes	
row_66	DZIP1L	NA	4429	0.2539178729057312	0.24307984	Yes	
row_67	MMP11	NA	4432	0.25366947054862976	0.24711218	Yes	
row_68	CDH16	NA	4455	0.2528226971626282	0.25016493	Yes	
row_69	RBMS1	NA	4570	0.24850353598594666	0.24870466	Yes	
row_70	HOXB9	NA	4584	0.2482428103685379	0.25211748	Yes	
row_71	HNF1B	NA	4644	0.24613970518112183	0.2532747	Yes	
row_72	AGTR2	NA	4705	0.24432875216007233	0.25435418	Yes	
row_73	SLC7A13	NA	4719	0.2437741607427597	0.25769424	Yes	
row_74	PDGFRA	NA	4752	0.24258971214294434	0.26009753	Yes	
row_75	CNTD1	NA	4757	0.24246953427791595	0.26385102	Yes	
row_76	OLFM4	NA	4763	0.2422521710395813	0.26755264	Yes	
row_77	EVA1A	NA	4830	0.23924824595451355	0.26825964	Yes	
row_78	NECTIN1	NA	4858	0.2380167543888092	0.27082998	Yes	
row_79	FOXP2	NA	4972	0.23350884020328522	0.26917392	Yes	
row_80	PLA1A	NA	5003	0.23249152302742004	0.2715094	Yes	
row_81	RBFOX1	NA	5020	0.23190055787563324	0.27451137	Yes	
row_82	GC	NA	5029	0.2315516322851181	0.27789396	Yes	
row_83	NPAS2	NA	5050	0.23098108172416687	0.28068778	Yes	
row_84	ELF4	NA	5192	0.22633856534957886	0.2775629	No	
row_85	PLA2G4A	NA	5329	0.22134771943092346	0.2745982	No	
row_86	AFM	NA	5579	0.21263821423053741	0.26603493	No	
row_87	SERPINA6	NA	5631	0.2108098566532135	0.26700342	No	
row_88	HNF1A	NA	5661	0.20995409786701202	0.26902038	No	
row_89	LPAL2	NA	5757	0.20666413009166718	0.2677966	No	
row_90	SFRP4	NA	5830	0.20349891483783722	0.267632	No	
row_91	TBX2	NA	5992	0.1980765014886856	0.26308128	No	
row_92	HOATZ	NA	6102	0.19485510885715485	0.26098922	No	
row_93	APCS	NA	6135	0.19376952946186066	0.2625979	No	
row_94	SLC26A3	NA	6254	0.1902221292257309	0.25999582	No	
row_95	TM4SF4	NA	6341	0.18791070580482483	0.25890142	No	
row_96	ERRFI1	NA	6638	0.17920248210430145	0.24752425	No	
row_97	TM4SF20	NA	6686	0.17762625217437744	0.24814579	No	
row_98	HEPACAM2	NA	6751	0.17554986476898193	0.24791259	No	
row_99	MTMR11	NA	6759	0.1750226765871048	0.25042334	No	
row_100	KLHDC7A	NA	6880	0.17139488458633423	0.24741825	No	
row_101	HPN	NA	6906	0.17063571512699127	0.24898839	No	
row_102	SERPINA4	NA	6935	0.16970424354076385	0.2503985	No	
row_103	OR2W1	NA	6982	0.16841641068458557	0.25091842	No	
row_104	ADAMTS6	NA	7126	0.16394032537937164	0.24668129	No	
row_105	KLF9	NA	7137	0.16353096067905426	0.24886015	No	
row_106	HOXD4	NA	7221	0.16128045320510864	0.24747716	No	
row_107	HNF4A	NA	7311	0.15844860672950745	0.24575834	No	
row_108	DRAM2	NA	7325	0.1580868661403656	0.24770372	No	
row_109	SHKBP1	NA	7336	0.1578555554151535	0.24979019	No	
row_110	IGFBP1	NA	7445	0.15441633760929108	0.24708822	No	
row_111	ZFHX4	NA	7555	0.1512637734413147	0.24428664	No	
row_112	FGFR4	NA	7591	0.1502036601305008	0.24504131	No	
row_113	VSIG1	NA	7621	0.1494426727294922	0.24607334	No	
row_114	TBXAS1	NA	7782	0.14436985552310944	0.24069673	No	
row_115	SSTR3	NA	7796	0.1439548134803772	0.24241208	No	
row_116	HAO1	NA	7827	0.1430230736732483	0.24329132	No	
row_117	GATA6	NA	7858	0.1420873999595642	0.24415532	No	
row_118	ANXA13	NA	8032	0.13702508807182312	0.23803139	No	
row_119	PKP3	NA	8105	0.1348387748003006	0.23674922	No	
row_120	PTH1R	NA	8175	0.1326088309288025	0.23557562	No	
row_121	NFE2L2	NA	8198	0.13175639510154724	0.2366578	No	
row_122	DMD	NA	8330	0.12819811701774597	0.2324184	No	
row_123	MGAM	NA	8344	0.12761618196964264	0.23386781	No	
row_124	RNF186	NA	8417	0.1254076510667801	0.23243213	No	
row_125	C1orf116	NA	8439	0.12455202639102936	0.23344533	No	
row_126	SLC5A2	NA	8442	0.12450702488422394	0.23537531	No	
row_127	ACVR2A	NA	8524	0.12151111662387848	0.2334416	No	
row_128	DPYD	NA	8611	0.11883506923913956	0.23122287	No	
row_129	ALB	NA	8633	0.11812667548656464	0.2321315	No	
row_130	HOXA4	NA	8660	0.11735142767429352	0.23278604	No	
row_131	MBNL2	NA	8677	0.11684124171733856	0.2339152	No	
row_132	E2F6	NA	8749	0.11518865078687668	0.23236147	No	
row_133	CBFA2T2	NA	8757	0.1150115504860878	0.23389547	No	
row_134	SPTSSB	NA	8832	0.11284583061933517	0.23215874	No	
row_135	ZMYND8	NA	8931	0.10966252535581589	0.22921121	No	
row_136	NCKAP5	NA	8988	0.10807695984840393	0.22826609	No	
row_137	KCNH6	NA	9100	0.10490360856056213	0.22461334	No	
row_138	GOLT1A	NA	9125	0.10426318645477295	0.22515143	No	
row_139	SOX3	NA	9225	0.10095955431461334	0.22201397	No	
row_140	NR5A2	NA	9451	0.09410786628723145	0.21268038	No	
row_141	HTR7	NA	9518	0.09223296493291855	0.21099447	No	
row_142	FAM20C	NA	9527	0.09200303256511688	0.21210565	No	
row_143	CHCHD7	NA	9541	0.0914803221821785	0.21296689	No	
row_144	ARL4C	NA	9688	0.08599384129047394	0.20731618	No	
row_145	MAB21L2	NA	9788	0.08264521509408951	0.20388061	No	
row_146	SEMA3A	NA	9839	0.0807747095823288	0.20278084	No	
row_147	SLC26A1	NA	9924	0.07803463190793991	0.1999946	No	
row_148	NLGN1	NA	9947	0.07745666801929474	0.20019294	No	
row_149	MYRF	NA	10084	0.07295837253332138	0.19481295	No	
row_150	G6PC	NA	10107	0.07209667563438416	0.19492407	No	
row_151	ZNF143	NA	10143	0.07094025611877441	0.19438858	No	
row_152	THOC5	NA	10351	0.06439956277608871	0.18544066	No	
row_153	MSX2	NA	10382	0.06348195672035217	0.18502523	No	
row_154	HGFAC	NA	10386	0.06343100965023041	0.18591282	No	
row_155	CARMIL3	NA	10683	0.05411276966333389	0.1724996	No	
row_156	SLCO1B1	NA	10692	0.05393613502383232	0.17299119	No	
row_157	CHRD	NA	10784	0.05071001499891281	0.16942215	No	
row_158	DAB2	NA	10881	0.04720423370599747	0.1655546	No	
row_159	PCBP1	NA	10900	0.046710554510354996	0.16544566	No	
row_160	FXYD2	NA	11323	0.03418949246406555	0.14562356	No	
row_161	PDLIM1	NA	11469	0.02998979575932026	0.13910957	No	
row_162	UGT2A3	NA	11698	0.02223828434944153	0.1284613	No	
row_163	BCL11A	NA	11890	0.01616976037621498	0.119501	No	
row_164	HAVCR1	NA	11910	0.01573631353676319	0.11883962	No	
row_165	MYL2	NA	11993	0.012774520553648472	0.115087725	No	
row_166	NRK	NA	12014	0.012338689528405666	0.11432275	No	
row_167	FOXA2	NA	12087	0.010301418602466583	0.11101351	No	
row_168	SUCNR1	NA	12144	0.008757051080465317	0.108451776	No	
row_169	NOL4L	NA	12327	0.003328082850202918	0.09971707	No	
row_170	VWA7	NA	12353	0.0023382289800792933	0.09854787	No	
row_171	KIF12	NA	12399	8.729496039450169E-4	0.096389	No	
row_172	LGALS2	NA	12567	-0.004471828695386648	0.08839727	No	
row_173	FLRT1	NA	12601	-0.005322026554495096	0.08689031	No	
row_174	SRSF7	NA	12677	-0.007654404733330011	0.08339311	No	
row_175	ZFHX3	NA	13633	-0.03911912441253662	0.037912406	No	
row_176	PABPC3	NA	13656	-0.03993635252118111	0.03750005	No	
row_177	LEAP2	NA	13768	-0.04382019490003586	0.032853052	No	
row_178	ZBTB4	NA	13780	-0.044259022921323776	0.033042252	No	
row_179	BMI1	NA	13882	-0.04734978452324867	0.028935613	No	
row_180	ADD3	NA	14026	-0.052471425384283066	0.022884136	No	
row_181	JPT2	NA	14225	-0.06000601127743721	0.01429932	No	
row_182	AFP	NA	14291	-0.06227750703692436	0.012174115	No	
row_183	SERPINA7	NA	14425	-0.06732704490423203	0.006847344	No	
row_184	PTBP1	NA	14441	-0.06814470142126083	0.0072321636	No	
row_185	KCP	NA	14557	-0.07251620292663574	0.0028590856	No	
row_186	HESX1	NA	14610	-0.07460087537765503	0.0015622417	No	
row_187	PPP2R5C	NA	14632	-0.07614453881978989	0.0017875298	No	
row_188	NFIX	NA	14674	-0.07781212776899338	0.0010741507	No	
row_189	ZNF827	NA	14941	-0.08807656913995743	-0.010337522	No	
row_190	WBP4	NA	15002	-0.09069907665252686	-0.011758664	No	
row_191	CDK2	NA	15255	-0.10061656683683395	-0.022290159	No	
row_192	CS	NA	15266	-0.10099108517169952	-0.021129252	No	
row_193	CUEDC1	NA	15344	-0.10399201512336731	-0.023154965	No	
row_194	PABPC1	NA	15514	-0.11153926700353622	-0.02950056	No	
row_195	ATL2	NA	15519	-0.1116921603679657	-0.027875733	No	
row_196	SATB2	NA	15729	-0.12185077369213104	-0.035985112	No	
row_197	HOXC4	NA	16074	-0.13678865134716034	-0.050370567	No	
row_198	SLC3A1	NA	16148	-0.13966239988803864	-0.051622517	No	
row_199	RAB3IP	NA	16387	-0.15191969275474548	-0.060642898	No	
row_200	NECAP1	NA	16452	-0.1548174023628235	-0.061213557	No	
row_201	CDKL5	NA	16462	-0.15542063117027283	-0.059118424	No	
row_202	ZNF148	NA	16508	-0.15769077837467194	-0.058724795	No	
row_203	BCL9	NA	16636	-0.16374851763248444	-0.06219239	No	
row_204	TMED6	NA	16903	-0.17861655354499817	-0.07213037	No	
row_205	PBX2	NA	16986	-0.18317782878875732	-0.073108636	No	
row_206	E2F3	NA	17158	-0.19275860488414764	-0.078228824	No	
row_207	SLC39A14	NA	17294	-0.20235788822174072	-0.08145431	No	
row_208	LUC7L3	NA	17296	-0.20245681703090668	-0.07820725	No	
row_209	ZBTB20	NA	17564	-0.21619652211666107	-0.08758183	No	
row_210	STAT5B	NA	17723	-0.22707776725292206	-0.09151563	No	
row_211	POLR2A	NA	17933	-0.24269995093345642	-0.09765798	No	
row_212	CTTNBP2NL	NA	17988	-0.24642889201641083	-0.09625459	No	
row_213	GEN1	NA	18163	-0.25765690207481384	-0.10046331	No	
row_214	RNASE4	NA	18281	-0.26549771428108215	-0.10179185	No	
row_215	LIPC	NA	18362	-0.2722075283527374	-0.10122443	No	
row_216	CDAN1	NA	18428	-0.27747973799705505	-0.09984683	No	
row_217	RREB1	NA	18486	-0.28216657042503357	-0.09800662	No	
row_218	PCF11	NA	18509	-0.28426966071128845	-0.09444202	No	
row_219	USP3	NA	18648	-0.297288715839386	-0.0962672	No	
row_220	JADE1	NA	18674	-0.299844890832901	-0.092593946	No	
row_221	MSH5	NA	18769	-0.3094584345817566	-0.09209626	No	
row_222	APOM	NA	19010	-0.3370829224586487	-0.09819936	No	
row_223	ERG	NA	19230	-0.362386554479599	-0.10287649	No	
row_224	MOSMO	NA	19237	-0.3633212447166443	-0.09725253	No	
row_225	RALGPS2	NA	19395	-0.3828161358833313	-0.09860312	No	
row_226	ZIC2	NA	19708	-0.438492089509964	-0.106532514	No	
row_227	CYP2E1	NA	19722	-0.44215622544288635	-0.099963404	No	
row_228	TIAF1	NA	19753	-0.44773659110069275	-0.09412441	No	
row_229	CLOCK	NA	19897	-0.4782309830188751	-0.093245886	No	
row_230	GAN	NA	20030	-0.5120986700057983	-0.09128491	No	
row_231	CKM	NA	20042	-0.515641450881958	-0.083423115	No	
row_232	RORB	NA	20300	-0.6007601022720337	-0.08605533	No	
row_233	HRK	NA	20503	-0.7185348868370056	-0.08411457	No	
row_234	COL4A5	NA	20523	-0.7282772660255432	-0.07317807	No	
row_235	EFEMP1	NA	20755	-1.0215286016464233	-0.06770597	No	
row_236	ZFPM2	NA	20775	-1.058014988899231	-0.051402394	No	
row_237	GAS2	NA	20796	-1.102513074874878	-0.034422826	No	
row_238	TLE4	NA	20800	-1.1083799600601196	-0.016526824	No	
row_239	EPHA3	NA	20883	-1.4485011100769043	0.0030903078	No	
