NAME	SYMBOL	TITLE	RANK IN GENE LIST	RANK METRIC SCORE	RUNNING ES	CORE ENRICHMENT	
row_0	TFEC	NA	4	2.2256219387054443	0.03303264	Yes	
row_1	LY75	NA	15	1.900814175605774	0.060926374	Yes	
row_2	TCIRG1	NA	69	1.3712990283966064	0.07883737	Yes	
row_3	CTSS	NA	79	1.2838138341903687	0.09756833	Yes	
row_4	SOCS1	NA	88	1.241926670074463	0.11572229	Yes	
row_5	SP140	NA	109	1.1346023082733154	0.1316942	Yes	
row_6	SCML1	NA	125	1.082421064376831	0.14712869	Yes	
row_7	BST2	NA	142	1.0146173238754272	0.16150263	Yes	
row_8	IL22RA1	NA	310	0.720112681388855	0.16418388	Yes	
row_9	NFKB1	NA	341	0.7006773948669434	0.17319462	Yes	
row_10	ATP10A	NA	400	0.6558916568756104	0.18018383	Yes	
row_11	ISG15	NA	429	0.6420359015464783	0.18841575	Yes	
row_12	ELAVL2	NA	459	0.6289363503456116	0.19640379	Yes	
row_13	TLR7	NA	523	0.5966179966926575	0.20226653	Yes	
row_14	SLITRK6	NA	692	0.5389606356620789	0.20219506	Yes	
row_15	BANK1	NA	753	0.5245927572250366	0.20712751	Yes	
row_16	CHST1	NA	792	0.518048882484436	0.21302526	Yes	
row_17	GPR22	NA	795	0.517776370048523	0.22065842	Yes	
row_18	IL21	NA	809	0.5154419541358948	0.22772522	Yes	
row_19	DAPP1	NA	816	0.5145407915115356	0.2351168	Yes	
row_20	IFNB1	NA	820	0.513934314250946	0.24264428	Yes	
row_21	UBA7	NA	863	0.5041183829307556	0.2481408	Yes	
row_22	PYM1	NA	875	0.5020898580551147	0.2551049	Yes	
row_23	LY86	NA	961	0.48867812752723694	0.2582932	Yes	
row_24	EREG	NA	1041	0.47497689723968506	0.2615669	Yes	
row_25	LRRN3	NA	1061	0.47169095277786255	0.26769063	Yes	
row_26	LAMA3	NA	1137	0.46042612195014954	0.27094036	Yes	
row_27	LURAP1L	NA	1222	0.45042750239372253	0.27360597	Yes	
row_28	TNFSF15	NA	1289	0.4420259892940521	0.27701586	Yes	
row_29	CCDC148	NA	1380	0.4320097863674164	0.2791166	Yes	
row_30	PPARGC1A	NA	1749	0.3979847729206085	0.26727682	No	
row_31	LYSMD2	NA	1801	0.39383986592292786	0.27069214	No	
row_32	TSKU	NA	1856	0.38849812746047974	0.27388278	No	
row_33	DNAH6	NA	2072	0.37230566143989563	0.2690524	No	
row_34	FGF9	NA	2183	0.3647824227809906	0.2691831	No	
row_35	IL18BP	NA	2199	0.3638807237148285	0.27389064	No	
row_36	IFIT3	NA	2662	0.33452656865119934	0.25656158	No	
row_37	SEMA6D	NA	2919	0.3200438618659973	0.24896991	No	
row_38	GZMK	NA	2929	0.3192925751209259	0.2533017	No	
row_39	DGKA	NA	3123	0.30947577953338623	0.24859636	No	
row_40	OTX1	NA	3190	0.30578041076660156	0.24997227	No	
row_41	MPDZ	NA	3205	0.3050808310508728	0.2538503	No	
row_42	PAX3	NA	3271	0.30220967531204224	0.25522125	No	
row_43	HAPLN1	NA	3370	0.29751476645469666	0.25492758	No	
row_44	IKZF2	NA	3576	0.2880305051803589	0.24932224	No	
row_45	PRDX5	NA	3686	0.283930242061615	0.24829425	No	
row_46	THBS1	NA	3718	0.2827296853065491	0.2510172	No	
row_47	MOV10	NA	3836	0.2773679792881012	0.24950472	No	
row_48	PLD5	NA	3888	0.2750038504600525	0.25114596	No	
row_49	TAPBPL	NA	3908	0.2741650938987732	0.25432086	No	
row_50	HOXA13	NA	3999	0.270455926656723	0.25400978	No	
row_51	IDO1	NA	4039	0.268839031457901	0.2561388	No	
row_52	PIGR	NA	4106	0.2662595808506012	0.25692475	No	
row_53	ECM2	NA	4206	0.2627761662006378	0.25606415	No	
row_54	EMP1	NA	4378	0.2564527988433838	0.25163022	No	
row_55	NPR3	NA	4415	0.2545895278453827	0.25369146	No	
row_56	TEK	NA	4473	0.25214046239852905	0.25470147	No	
row_57	PSMB9	NA	4598	0.24781209230422974	0.25240952	No	
row_58	P2RY13	NA	4641	0.2462281882762909	0.25405604	No	
row_59	DIO2	NA	4670	0.24522346258163452	0.25636402	No	
row_60	LRP2	NA	4703	0.2443392425775528	0.25846553	No	
row_61	COL4A1	NA	4856	0.23809081315994263	0.25467554	No	
row_62	KYNU	NA	5126	0.22860531508922577	0.24509065	No	
row_63	ASPA	NA	5222	0.22533713281154633	0.24386442	No	
row_64	DDB2	NA	5314	0.22194774448871613	0.24278085	No	
row_65	ENTPD1	NA	5436	0.2172786444425583	0.24017802	No	
row_66	NPAS3	NA	5442	0.21713168919086456	0.24317795	No	
row_67	H1-2	NA	5519	0.21418306231498718	0.24270324	No	
row_68	SORBS1	NA	5531	0.21386942267417908	0.24536456	No	
row_69	CITED4	NA	5564	0.21306438744068146	0.24699916	No	
row_70	ENPP2	NA	5571	0.21284011006355286	0.2498867	No	
row_71	ALDH1A1	NA	5705	0.20876041054725647	0.24657689	No	
row_72	IFNL2	NA	5873	0.20172367990016937	0.2415192	No	
row_73	EIF5A	NA	5908	0.20065471529960632	0.24287191	No	
row_74	ESR1	NA	5937	0.19989646971225739	0.2445032	No	
row_75	OSR2	NA	5986	0.19823287427425385	0.2451433	No	
row_76	ZEB2	NA	6007	0.197709321975708	0.2471285	No	
row_77	CACNA1C	NA	6058	0.19616523385047913	0.24764109	No	
row_78	IFIH1	NA	6116	0.1943964809179306	0.24778904	No	
row_79	ST3GAL4	NA	6272	0.18973588943481445	0.2431322	No	
row_80	IL27	NA	6455	0.18505382537841797	0.23710087	No	
row_81	PSMB8	NA	6459	0.18497073650360107	0.2397173	No	
row_82	NKX2-2	NA	6655	0.1786050647497177	0.23296157	No	
row_83	CABLES1	NA	6695	0.1772051453590393	0.23372261	No	
row_84	ZNF366	NA	6824	0.17285488545894623	0.23011835	No	
row_85	TRPM3	NA	7118	0.16424012184143066	0.21841295	No	
row_86	PLP1	NA	7192	0.16194607317447662	0.21730335	No	
row_87	TAP1	NA	7370	0.15694735944271088	0.21109402	No	
row_88	SLC15A3	NA	7593	0.15015847980976105	0.202609	No	
row_89	CNTFR	NA	7784	0.14430248737335205	0.19558275	No	
row_90	ITPR3	NA	7820	0.14325828850269318	0.19603027	No	
row_91	GATA6	NA	7858	0.1420873999595642	0.19636369	No	
row_92	CRACR2B	NA	7880	0.14159999787807465	0.19746292	No	
row_93	ZBP1	NA	8195	0.13187386095523834	0.18425962	No	
row_94	ZPBP2	NA	8247	0.1305343359708786	0.1837441	No	
row_95	CELF3	NA	8340	0.1277420073747635	0.18120584	No	
row_96	SP110	NA	8359	0.12699030339717865	0.18223192	No	
row_97	LINC01565	NA	8463	0.1239391341805458	0.17910539	No	
row_98	HAS3	NA	8507	0.12216935306787491	0.17885153	No	
row_99	SIX1	NA	8692	0.11652852594852448	0.17170055	No	
row_100	STAT6	NA	8733	0.11548542231321335	0.17149188	No	
row_101	SP8	NA	8913	0.11020193248987198	0.16448805	No	
row_102	PIGV	NA	8915	0.11016041785478592	0.1660843	No	
row_103	TUBB6	NA	8940	0.10947670787572861	0.16655901	No	
row_104	WDPCP	NA	8990	0.108049176633358	0.16580445	No	
row_105	CXCL16	NA	9000	0.10783001780509949	0.16697936	No	
row_106	PARP9	NA	9044	0.10644263029098511	0.16649073	No	
row_107	ZMYND15	NA	9236	0.10069821774959564	0.1587652	No	
row_108	DAGLA	NA	9338	0.09757614135742188	0.15534173	No	
row_109	NDRG3	NA	9351	0.0971970185637474	0.15621294	No	
row_110	PRKD2	NA	9719	0.08489298820495605	0.1397474	No	
row_111	TNFRSF19	NA	9772	0.0829656794667244	0.1384734	No	
row_112	TNFRSF17	NA	9805	0.08186657726764679	0.1381494	No	
row_113	FGF6	NA	9824	0.08116413652896881	0.13849135	No	
row_114	IL1RAPL1	NA	9827	0.08112888038158417	0.13960586	No	
row_115	BATF2	NA	9838	0.08084353804588318	0.14032958	No	
row_116	PRDM16	NA	9903	0.07872795313596725	0.1384125	No	
row_117	CYB561D1	NA	9959	0.07725062221288681	0.13690825	No	
row_118	ARMCX6	NA	10126	0.07149988412857056	0.12995479	No	
row_119	HOXA3	NA	10153	0.0704905241727829	0.12975085	No	
row_120	B2M	NA	10157	0.07034633308649063	0.13065608	No	
row_121	IFI44	NA	10174	0.06990594416856766	0.1309266	No	
row_122	MCUB	NA	10378	0.06359193474054337	0.12206729	No	
row_123	CCDC140	NA	10431	0.061887871474027634	0.120478645	No	
row_124	FAM53B	NA	10447	0.061386335641145706	0.12067029	No	
row_125	ADAM8	NA	10502	0.05972905457019806	0.11895277	No	
row_126	ZNF296	NA	10516	0.05939082056283951	0.11921127	No	
row_127	WDR82	NA	10533	0.058912407606840134	0.119317666	No	
row_128	ANGPTL4	NA	10655	0.054842062294483185	0.11428985	No	
row_129	CYB5B	NA	10727	0.052421245723962784	0.111641824	No	
row_130	HPCAL1	NA	10802	0.050067804753780365	0.10881371	No	
row_131	TBX1	NA	10835	0.04913650453090668	0.10800107	No	
row_132	KRT12	NA	10856	0.04828367754817009	0.10775551	No	
row_133	ERBB2	NA	10921	0.045921873301267624	0.10534869	No	
row_134	RBCK1	NA	10947	0.04520527273416519	0.10481559	No	
row_135	ZIC5	NA	11011	0.043075937777757645	0.10241459	No	
row_136	IFNL3	NA	11038	0.04205968976020813	0.10178621	No	
row_137	ASCL2	NA	11272	0.035615935921669006	0.09105971	No	
row_138	FRY	NA	11322	0.03420855104923248	0.08920279	No	
row_139	NRG4	NA	11406	0.03187698870897293	0.08566824	No	
row_140	TGIF1	NA	11502	0.028959741815924644	0.08151031	No	
row_141	PKP4	NA	11551	0.026849575340747833	0.07959186	No	
row_142	KCNJ1	NA	11616	0.025232290849089622	0.07687616	No	
row_143	DLG2	NA	11691	0.022480549290776253	0.073636204	No	
row_144	LGI1	NA	11818	0.018149062991142273	0.067819014	No	
row_145	TWIST1	NA	11828	0.017760952934622765	0.0676493	No	
row_146	BCL11A	NA	11890	0.01616976037621498	0.06494326	No	
row_147	MGAT4A	NA	11912	0.015720641240477562	0.06416327	No	
row_148	EPN1	NA	12024	0.01191030815243721	0.058977716	No	
row_149	USPL1	NA	12191	0.007475505582988262	0.051068444	No	
row_150	AIF1	NA	12225	0.006716001313179731	0.049574196	No	
row_151	CXCR4	NA	12264	0.0054515041410923	0.047819477	No	
row_152	ARHGEF6	NA	12277	0.004823106806725264	0.047311656	No	
row_153	CBX4	NA	12299	0.003926124889403582	0.04635558	No	
row_154	NOL4L	NA	12327	0.003328082850202918	0.045100667	No	
row_155	JADE2	NA	12398	9.389303158968687E-4	0.041732386	No	
row_156	ATP5PD	NA	12518	-0.003073969157412648	0.036028374	No	
row_157	HMCN1	NA	12563	-0.004280354827642441	0.03396626	No	
row_158	PARP12	NA	12711	-0.00848883856087923	0.026990166	No	
row_159	GSDMD	NA	12811	-0.01125589944422245	0.022374671	No	
row_160	COL4A2	NA	12973	-0.016315830871462822	0.014838967	No	
row_161	TCF15	NA	13168	-0.022722752764821053	0.0058043986	No	
row_162	CASK	NA	13229	-0.02470395714044571	0.0032740885	No	
row_163	IFI35	NA	13379	-0.030010078102350235	-0.003477355	No	
row_164	CDKN2C	NA	13380	-0.03015923872590065	-0.0030271132	No	
row_165	SYNCRIP	NA	13472	-0.03348240628838539	-0.006924245	No	
row_166	MAML3	NA	13574	-0.03690081834793091	-0.011253529	No	
row_167	ZBTB33	NA	13585	-0.03725132346153259	-0.0111805955	No	
row_168	TOR1AIP1	NA	13665	-0.0402684360742569	-0.014396599	No	
row_169	USP28	NA	13689	-0.04100866988301277	-0.014895713	No	
row_170	CYP7A1	NA	13885	-0.04740874096751213	-0.023610067	No	
row_171	LINC02363	NA	13982	-0.0506250262260437	-0.027492872	No	
row_172	SOS1	NA	14090	-0.05494116246700287	-0.031842746	No	
row_173	DTX3L	NA	14138	-0.056877508759498596	-0.033264603	No	
row_174	TRMT112	NA	14146	-0.0570262111723423	-0.032751497	No	
row_175	PSMA3	NA	14147	-0.057149797677993774	-0.03189832	No	
row_176	RAPGEF6	NA	14228	-0.06004420667886734	-0.03486741	No	
row_177	FMR1	NA	14340	-0.06431013345718384	-0.03927069	No	
row_178	RAD51AP1	NA	14423	-0.0673082172870636	-0.042227976	No	
row_179	IRAK1	NA	14516	-0.07067292183637619	-0.045618217	No	
row_180	PHF6	NA	14569	-0.07288037240505219	-0.04704276	No	
row_181	PPP2R5C	NA	14632	-0.07614453881978989	-0.04890176	No	
row_182	MAP3K11	NA	14729	-0.07915245741605759	-0.052358683	No	
row_183	CASP7	NA	14760	-0.08083932846784592	-0.052601404	No	
row_184	NT5C3A	NA	15260	-0.10077270865440369	-0.07520793	No	
row_185	ARL5B	NA	15262	-0.10082957148551941	-0.07375097	No	
row_186	ZER1	NA	15325	-0.10328321158885956	-0.07520483	No	
row_187	BBX	NA	15472	-0.10923308879137039	-0.08062861	No	
row_188	ZNF407	NA	15597	-0.11493988335132599	-0.08490419	No	
row_189	SATB2	NA	15729	-0.12185077369213104	-0.08941483	No	
row_190	RBM39	NA	15754	-0.12319079041481018	-0.08873537	No	
row_191	CMTR1	NA	15761	-0.12344516813755035	-0.087182395	No	
row_192	TFDP2	NA	15861	-0.1271430104970932	-0.09006783	No	
row_193	HDAC4	NA	15990	-0.13337953388690948	-0.0942614	No	
row_194	VGLL4	NA	16130	-0.1389666497707367	-0.09890307	No	
row_195	MED13	NA	16156	-0.14023731648921967	-0.098017454	No	
row_196	USP18	NA	16174	-0.1411854326725006	-0.096731134	No	
row_197	ELK4	NA	16216	-0.14360205829143524	-0.09656838	No	
row_198	TOP1	NA	16220	-0.14370198547840118	-0.09456804	No	
row_199	FUT8	NA	16303	-0.1479201465845108	-0.09632188	No	
row_200	HNRNPD	NA	16445	-0.15437890589237213	-0.1008301	No	
row_201	PURA	NA	16457	-0.1552034169435501	-0.0990446	No	
row_202	FNBP1L	NA	16527	-0.15828397870063782	-0.10001558	No	
row_203	GRIPAP1	NA	16547	-0.15893855690956116	-0.09856087	No	
row_204	R3HDM2	NA	16739	-0.1699424833059311	-0.10525266	No	
row_205	ZBTB18	NA	16805	-0.17352816462516785	-0.1058028	No	
row_206	SYNE2	NA	16823	-0.1743365377187729	-0.10402157	No	
row_207	ADAR	NA	16856	-0.17588938772678375	-0.102941945	No	
row_208	SLC11A2	NA	16876	-0.17694319784641266	-0.10121844	No	
row_209	TAPBP	NA	17037	-0.18585075438022614	-0.10617487	No	
row_210	CDK6	NA	17178	-0.19437336921691895	-0.1100377	No	
row_211	XRN1	NA	17316	-0.20348337292671204	-0.113619566	No	
row_212	KDM2A	NA	17439	-0.20933276414871216	-0.116389334	No	
row_213	LGALS8	NA	17585	-0.21715696156024933	-0.12015362	No	
row_214	RIPK2	NA	17627	-0.21966002881526947	-0.11885542	No	
row_215	CHD6	NA	17691	-0.22477208077907562	-0.1185439	No	
row_216	TNFSF13B	NA	17985	-0.2463190257549286	-0.12902397	No	
row_217	CSAD	NA	18385	-0.27372652292251587	-0.14421664	No	
row_218	CREBZF	NA	18482	-0.2817589342594147	-0.1446489	No	
row_219	CPEB4	NA	18498	-0.2832646071910858	-0.14114486	No	
row_220	MAP2K6	NA	18567	-0.2894345223903656	-0.1401096	No	
row_221	KCNMB3	NA	18724	-0.3050377666950226	-0.14309344	No	
row_222	SREK1	NA	18872	-0.32119375467300415	-0.14540121	No	
row_223	BTAF1	NA	19032	-0.33963310718536377	-0.14801353	No	
row_224	NIPBL	NA	19265	-0.36647385358810425	-0.1537524	No	
row_225	SIK3	NA	19330	-0.37403348088264465	-0.15126091	No	
row_226	TSPAN2	NA	19626	-0.42053380608558655	-0.1592368	No	
row_227	PCDHGC3	NA	19650	-0.42342472076416016	-0.1540269	No	
row_228	NABP2	NA	19701	-0.4368000030517578	-0.14992191	No	
row_229	UBR3	NA	19806	-0.4590974450111389	-0.14809325	No	
row_230	RCOR1	NA	19834	-0.4637913405895233	-0.142474	No	
row_231	PIK3R3	NA	19840	-0.46491968631744385	-0.13577488	No	
row_232	SLC12A7	NA	19853	-0.46757781505584717	-0.12937431	No	
row_233	SKIDA1	NA	19864	-0.4704771935939789	-0.12283383	No	
row_234	ITPR1	NA	19865	-0.4706101715564728	-0.115808174	No	
row_235	HOXB7	NA	19904	-0.47994309663772583	-0.110479295	No	
row_236	IRAG2	NA	19939	-0.4889684021472931	-0.104822405	No	
row_237	ZFPM1	NA	19969	-0.49595582485198975	-0.0988196	No	
row_238	CCDC6	NA	19987	-0.5000623464584351	-0.09217568	No	
row_239	ATP11C	NA	20002	-0.5042440891265869	-0.08532436	No	
row_240	DUSP10	NA	20209	-0.566322386264801	-0.08682345	No	
row_241	USF1	NA	20230	-0.5735101103782654	-0.07922799	No	
row_242	C12orf4	NA	20235	-0.5742387771606445	-0.070848554	No	
row_243	RRBP1	NA	20257	-0.5810984969139099	-0.06318813	No	
row_244	POU4F1	NA	20373	-0.6392314434051514	-0.059201784	No	
row_245	KLHL13	NA	20418	-0.6632553935050964	-0.051426176	No	
row_246	MSX1	NA	20506	-0.7219244241714478	-0.044852406	No	
row_247	HIVEP1	NA	20597	-0.7933006286621094	-0.037358027	No	
row_248	MXI1	NA	20621	-0.8172047734260559	-0.026269449	No	
row_249	FES	NA	20633	-0.8330219984054565	-0.014364915	No	
row_250	PTK2	NA	20661	-0.8557766675949097	-0.0028937766	No	
row_251	MEIS2	NA	20808	-1.1162457466125488	0.006715955	No	
