producer_class	xtools.gsea.Gsea
producer_timestamp	1616959902930
param	zip_report	false
param	num	100
param	scoring_scheme	weighted
param	norm	meandiv
param	out	/home/vant/gsea_home/output/mar28
param	mode	Max_probe
param	include_only_symbols	true
param	set_max	500
param	gmx	ftp.broadinstitute.org://pub/gsea/gene_sets/c3.tft.v7.3.symbols.gmt
param	plot_top_x	30
param	nperm	1000
param	order	descending
param	rpt_label	my_analysisSA
param	rnd_seed	timestamp
param	set_min	15
param	res	/home/vant/notch/rcel/GSEA/esetSA.gct
param	chip	/home/vant/notch/rcel/GSEA/GSE18198.chip
param	create_svgs	false
param	cls	/home/vant/notch/rcel/GSEA/phenotypeSA.cls#KOP_versus_HPB
param	sort	real
param	create_gcts	false
param	help	false
param	save_rnd_lists	false
param	median	false
param	metric	Signal2Noise
param	make_sets	true
param	rnd_type	no_balance
param	gui	false
param	permute	gene_set
param	collapse	Collapse

file	/home/vant/gsea_home/output/mar28/my_analysisSA.Gsea.1616959902930/index.html
