NAME	SYMBOL	TITLE	RANK IN GENE LIST	RANK METRIC SCORE	RUNNING ES	CORE ENRICHMENT	
row_0	EGR1	NA	264	0.7692363262176514	0.03198922	Yes	
row_1	HOXC6	NA	314	0.7174773216247559	0.07127491	Yes	
row_2	LINC00671	NA	811	0.5150152444839478	0.077398114	Yes	
row_3	ARHGAP24	NA	1132	0.460868775844574	0.088810906	Yes	
row_4	HABP2	NA	1462	0.42485201358795166	0.09770259	Yes	
row_5	UGT1A6	NA	1520	0.41969388723373413	0.119325526	Yes	
row_6	TINAG	NA	1535	0.4175908863544464	0.14288642	Yes	
row_7	SGK2	NA	1804	0.393577516078949	0.15288563	Yes	
row_8	SLC17A4	NA	1830	0.3912694454193115	0.17439218	Yes	
row_9	GRB7	NA	1919	0.38395893573760986	0.19245642	Yes	
row_10	LCT	NA	2232	0.36153164505958557	0.19848822	Yes	
row_11	HOXA10	NA	2353	0.3528067171573639	0.21321179	Yes	
row_12	GLRA2	NA	2721	0.33044689893722534	0.21480498	Yes	
row_13	COL9A1	NA	3021	0.31451404094696045	0.21873127	Yes	
row_14	EEPD1	NA	3341	0.2988886535167694	0.22079273	Yes	
row_15	NRP2	NA	3412	0.29561570286750793	0.23459299	Yes	
row_16	AGT	NA	3446	0.29422900080680847	0.25008532	Yes	
row_17	CFI	NA	3569	0.2882923483848572	0.2609695	Yes	
row_18	PLG	NA	4337	0.2575548589229584	0.23917037	Yes	
row_19	MITF	NA	4382	0.25603967905044556	0.25191972	Yes	
row_20	DZIP1L	NA	4429	0.2539178729057312	0.26445013	Yes	
row_21	CDH16	NA	4455	0.2528226971626282	0.27792302	Yes	
row_22	RBMS1	NA	4570	0.24850353598594666	0.28688163	Yes	
row_23	HNF1B	NA	4644	0.24613970518112183	0.2976672	Yes	
row_24	CNTD1	NA	4757	0.24246953427791595	0.30637148	Yes	
row_25	PLA1A	NA	5003	0.23249152302742004	0.3081252	Yes	
row_26	GC	NA	5029	0.2315516322851181	0.3203638	Yes	
row_27	NPAS2	NA	5050	0.23098108172416687	0.33280882	Yes	
row_28	CLDN19	NA	5224	0.22526726126670837	0.3375926	Yes	
row_29	HCFC1R1	NA	5241	0.22468236088752747	0.34986377	Yes	
row_30	THAP11	NA	5404	0.21821941435337067	0.35476553	Yes	
row_31	COA3	NA	5414	0.21794967353343964	0.36698136	Yes	
row_32	HNF1A	NA	5661	0.20995409786701202	0.3673794	Yes	
row_33	LPAL2	NA	5757	0.20666413009166718	0.37482038	Yes	
row_34	DLX1	NA	6271	0.18977504968643188	0.36125645	No	
row_35	HOXD4	NA	7221	0.16128045320510864	0.32515183	No	
row_36	IGFBP1	NA	7445	0.15441633760929108	0.32342902	No	
row_37	FGFR4	NA	7591	0.1502036601305008	0.32519844	No	
row_38	ANXA13	NA	8032	0.13702508807182312	0.31207076	No	
row_39	NFE2L2	NA	8198	0.13175639510154724	0.31181163	No	
row_40	DMD	NA	8330	0.12819811701774597	0.31297484	No	
row_41	KRT25	NA	8331	0.12816347181797028	0.32041177	No	
row_42	RNF186	NA	8417	0.1254076510667801	0.32361677	No	
row_43	NCKAP5	NA	8988	0.10807695984840393	0.30258146	No	
row_44	GOLT1A	NA	9125	0.10426318645477295	0.30211627	No	
row_45	F13B	NA	9423	0.09486564993858337	0.2933928	No	
row_46	NR5A2	NA	9451	0.09410786628723145	0.29756016	No	
row_47	CYP26A1	NA	9865	0.07977033406496048	0.28240362	No	
row_48	SERPING1	NA	9899	0.0789458155632019	0.2854037	No	
row_49	TTR	NA	9986	0.07630371302366257	0.2857114	No	
row_50	MYRF	NA	10084	0.07295837253332138	0.28529805	No	
row_51	G6PC	NA	10107	0.07209667563438416	0.28842765	No	
row_52	SLC5A12	NA	10165	0.07020831853151321	0.28977096	No	
row_53	SLC17A2	NA	10380	0.06354791671037674	0.2832065	No	
row_54	HGFAC	NA	10386	0.06343100965023041	0.28664768	No	
row_55	CARMIL3	NA	10683	0.05411276966333389	0.27560735	No	
row_56	SLC25A45	NA	11905	0.015906840562820435	0.21803655	No	
row_57	COL16A1	NA	12509	-0.0028798235580325127	0.18931605	No	
row_58	ZBTB4	NA	13780	-0.044259022921323776	0.13104303	No	
row_59	BMI1	NA	13882	-0.04734978452324867	0.12895204	No	
row_60	THOC6	NA	14218	-0.059764131903648376	0.11637131	No	
row_61	KCP	NA	14557	-0.07251620292663574	0.10438682	No	
row_62	RTN4	NA	14980	-0.08946053683757782	0.089361414	No	
row_63	HOXC4	NA	16074	-0.13678865134716034	0.04493707	No	
row_64	BCL9	NA	16636	-0.16374851763248444	0.02756338	No	
row_65	POLR2A	NA	17933	-0.24269995093345642	-0.02044026	No	
row_66	LIPC	NA	18362	-0.2722075283527374	-0.025148831	No	
row_67	PDLIM5	NA	18446	-0.2788923382759094	-0.012941765	No	
row_68	USP3	NA	18648	-0.297288715839386	-0.0053201756	No	
row_69	KMT2A	NA	18732	-0.30580008029937744	0.008448269	No	
row_70	SLC23A1	NA	18778	-0.3102172613143921	0.024293477	No	
row_71	APOM	NA	19010	-0.3370829224586487	0.032787014	No	
row_72	ACSL4	NA	19610	-0.4168497323989868	0.028279595	No	
row_73	SLC12A2	NA	20329	-0.6156319379806519	0.029606055	No	
