NAME	SYMBOL	TITLE	RANK IN GENE LIST	RANK METRIC SCORE	RUNNING ES	CORE ENRICHMENT	
row_0	FBLN1	NA	257	0.7743443250656128	8.745368E-4	No	
row_1	MAD1L1	NA	302	0.729219913482666	0.011289484	No	
row_2	XIST	NA	798	0.5173140168190002	-0.0037858004	No	
row_3	LFNG	NA	921	0.49575191736221313	-0.0011656039	No	
row_4	STYXL1	NA	1124	0.4620148241519928	-0.0030006913	No	
row_5	NHS	NA	2163	0.3659120500087738	-0.046981316	No	
row_6	HHLA3	NA	2283	0.357023686170578	-0.04660261	No	
row_7	COL6A3	NA	2358	0.3522648513317108	-0.04412618	No	
row_8	GTF3C2-AS1	NA	2838	0.3246115446090698	-0.06174191	No	
row_9	BAZ2B	NA	2891	0.32175832986831665	-0.05872476	No	
row_10	BLVRB	NA	2977	0.3165529668331146	-0.057395536	No	
row_11	PLOD2	NA	3089	0.31086841225624084	-0.05742344	No	
row_12	LRRC28	NA	3531	0.29022255539894104	-0.073790275	No	
row_13	CDK13	NA	3581	0.2878629267215729	-0.07121098	No	
row_14	TMEM18	NA	3725	0.2825830578804016	-0.07327547	No	
row_15	PGA3	NA	3971	0.27179697155952454	-0.08046595	No	
row_16	RNF167	NA	4020	0.2697222828865051	-0.07815033	No	
row_17	C21orf62-AS1	NA	4077	0.26738378405570984	-0.07626242	No	
row_18	SCAMP5	NA	4328	0.2578764259815216	-0.08393458	No	
row_19	SMC5-AS1	NA	4366	0.25687459111213684	-0.08130722	No	
row_20	GAS8	NA	4888	0.2369266152381897	-0.102465846	No	
row_21	ERICH6	NA	5014	0.2321096956729889	-0.10452688	No	
row_22	MDH1B	NA	5034	0.2313634753227234	-0.10146658	No	
row_23	PTPN4	NA	5113	0.22909222543239594	-0.101303056	No	
row_24	SFTA1P	NA	5919	0.20025484263896942	-0.1368483	No	
row_25	SIL1	NA	6110	0.19463829696178436	-0.14270234	No	
row_26	PXMP2	NA	6197	0.1919838935136795	-0.14356475	No	
row_27	KDF1	NA	6738	0.17592912912368774	-0.16669309	No	
row_28	MTMR11	NA	6759	0.1750226765871048	-0.16465057	No	
row_29	PRH1	NA	7030	0.1666605919599533	-0.17486079	No	
row_30	ITM2B	NA	7098	0.1648877114057541	-0.17526911	No	
row_31	SPTBN4	NA	7364	0.15704600512981415	-0.18540257	No	
row_32	MAP2K2	NA	7610	0.14982709288597107	-0.19469152	No	
row_33	TAS2R14	NA	7683	0.14742733538150787	-0.19564243	No	
row_34	DNAJC27-AS1	NA	7787	0.1441527009010315	-0.19815116	No	
row_35	ATF2	NA	7964	0.13894547522068024	-0.20428528	No	
row_36	SLU7	NA	7968	0.13869708776474	-0.20204432	No	
row_37	PIPOX	NA	8317	0.12880578637123108	-0.2166838	No	
row_38	BANF1	NA	8413	0.12551116943359375	-0.21912579	No	
row_39	RAB33B	NA	8464	0.12385322153568268	-0.2194167	No	
row_40	SAXO1	NA	8490	0.12278211116790771	-0.21851513	No	
row_41	EHD1	NA	8656	0.11744536459445953	-0.22448637	No	
row_42	ALKAL2	NA	8955	0.10899455845355988	-0.23704492	No	
row_43	ATF4	NA	9211	0.10128974169492722	-0.2476533	No	
row_44	GMPPA	NA	9274	0.09937082231044769	-0.24894665	No	
row_45	PTRH2	NA	9297	0.09848610311746597	-0.2483178	No	
row_46	NMRAL1	NA	9324	0.09783405810594559	-0.2478939	No	
row_47	ETFA	NA	9507	0.09258611500263214	-0.25511622	No	
row_48	SPAG16	NA	9669	0.08673544973134995	-0.2614221	No	
row_49	TMCO1	NA	9689	0.08598951995372772	-0.26086292	No	
row_50	FAM200B	NA	9730	0.0843954011797905	-0.26134834	No	
row_51	VMP1	NA	9815	0.08149690181016922	-0.26401478	No	
row_52	SPC25	NA	9845	0.0805494636297226	-0.2640336	No	
row_53	EMD	NA	10145	0.07072393596172333	-0.27729902	No	
row_54	EIF4A2	NA	10219	0.06854196637868881	-0.27965555	No	
row_55	MRPL57	NA	10225	0.06830082088708878	-0.2787226	No	
row_56	GORASP2	NA	10264	0.06727573275566101	-0.2794057	No	
row_57	SNORA78	NA	10268	0.06710918247699738	-0.2783964	No	
row_58	PPCDC	NA	10578	0.057074181735515594	-0.29238102	No	
row_59	HUWE1	NA	10621	0.05583306401968002	-0.29345474	No	
row_60	CLP1	NA	10638	0.05528220906853676	-0.29327857	No	
row_61	NSDHL	NA	10654	0.05486711114645004	-0.29306114	No	
row_62	FSIP1	NA	10661	0.05460885912179947	-0.2924122	No	
row_63	BZW1	NA	10749	0.051762357354164124	-0.29573554	No	
row_64	TM2D3	NA	10804	0.04991772398352623	-0.29749224	No	
row_65	DARS1	NA	10808	0.04981935769319534	-0.2967804	No	
row_66	KIAA1191	NA	10845	0.04870934411883354	-0.29768604	No	
row_67	HIGD2A	NA	11254	0.035991717129945755	-0.3168285	No	
row_68	RPS19	NA	11281	0.0353701077401638	-0.31747928	No	
row_69	ARPC4	NA	11288	0.035275742411613464	-0.317163	No	
row_70	CCNC	NA	11299	0.03492485731840134	-0.31704646	No	
row_71	CTC-338M12.4	NA	11307	0.0346502810716629	-0.31678936	No	
row_72	CDIN1	NA	11415	0.03154991567134857	-0.32142916	No	
row_73	ZNF219	NA	11434	0.031038444489240646	-0.32176697	No	
row_74	RBM15	NA	11458	0.030247628688812256	-0.3223606	No	
row_75	IMP3	NA	11482	0.029718216508626938	-0.32296333	No	
row_76	EIF4A3	NA	11501	0.02900756150484085	-0.3233361	No	
row_77	BANP	NA	11714	0.021708881482481956	-0.3332309	No	
row_78	RBM26-AS1	NA	11742	0.02064739353954792	-0.33418345	No	
row_79	RAB4A	NA	11933	0.014816961251199245	-0.34313127	No	
row_80	HSPH1	NA	11934	0.014789467677474022	-0.34287682	No	
row_81	POLDIP3	NA	11935	0.014739531092345715	-0.34262323	No	
row_82	COPB1	NA	12077	0.010664275847375393	-0.34926915	No	
row_83	LAMP1	NA	12094	0.010023893788456917	-0.34987167	No	
row_84	ANKFY1	NA	12095	0.00996366422623396	-0.34970024	No	
row_85	MARCHF7	NA	12118	0.009417389519512653	-0.35060382	No	
row_86	RALBP1	NA	12195	0.007405457552522421	-0.3541575	No	
row_87	ARF3	NA	12216	0.0068946401588618755	-0.3550076	No	
row_88	PPP4R3B	NA	12272	0.005275731440633535	-0.35758078	No	
row_89	ANKRD49	NA	12294	0.004059844650328159	-0.35852808	No	
row_90	RPL27A	NA	12357	0.002294926904141903	-0.3614916	No	
row_91	SSR1	NA	12469	-0.0015803599962964654	-0.36684075	No	
row_92	KIN	NA	12477	-0.001802329090423882	-0.3671488	No	
row_93	NCOA4	NA	12485	-0.0021411217749118805	-0.36745098	No	
row_94	LYRM7	NA	12547	-0.0038662548176944256	-0.37033904	No	
row_95	PUF60	NA	12573	-0.004615192301571369	-0.37147054	No	
row_96	RPS11	NA	12592	-0.00511143309995532	-0.37225443	No	
row_97	SLC15A4	NA	12595	-0.005216317716985941	-0.37226155	No	
row_98	SMG7-AS1	NA	12643	-0.00669783866032958	-0.3744228	No	
row_99	CDC20	NA	12660	-0.0072368779219686985	-0.37507325	No	
row_100	SAP18	NA	12723	-0.00876996573060751	-0.37792537	No	
row_101	AURKAIP1	NA	12773	-0.010230080224573612	-0.3801227	No	
row_102	KSR2	NA	12775	-0.010273790918290615	-0.37999436	No	
row_103	ATP5F1C	NA	12798	-0.011017612181603909	-0.3808704	No	
row_104	SKA3	NA	12846	-0.012285108678042889	-0.3829355	No	
row_105	GPBP1	NA	12902	-0.013812941499054432	-0.38536182	No	
row_106	SEC63	NA	12916	-0.014205689541995525	-0.38574708	No	
row_107	SEC22C	NA	12964	-0.016049545258283615	-0.3877474	No	
row_108	SRCAP	NA	13024	-0.01780826784670353	-0.39029872	No	
row_109	CDC25B	NA	13097	-0.020530929788947105	-0.39343286	No	
row_110	YOD1	NA	13120	-0.021343644708395004	-0.3941312	No	
row_111	RPS28	NA	13141	-0.02180272527039051	-0.39472482	No	
row_112	CCNT1	NA	13151	-0.022115735337138176	-0.39478022	No	
row_113	SAR1A	NA	13157	-0.022329537197947502	-0.39463824	No	
row_114	ERGIC2	NA	13175	-0.022866304963827133	-0.39506823	No	
row_115	PTPN1	NA	13209	-0.024090401828289032	-0.39625213	No	
row_116	FKBPL	NA	13271	-0.026718109846115112	-0.39874703	No	
row_117	RPL17	NA	13385	-0.03036595694720745	-0.4036978	No	
row_118	RPL10A	NA	13463	-0.03318736329674721	-0.40685633	No	
row_119	GDI2	NA	13584	-0.037231460213661194	-0.41202804	No	
row_120	RPS6	NA	13600	-0.03765903785824776	-0.41210666	No	
row_121	MRPS7	NA	13617	-0.03857512027025223	-0.41221794	No	
row_122	EEF1E1	NA	13623	-0.038729824125766754	-0.4117938	No	
row_123	RPS2	NA	13649	-0.039605867117643356	-0.41232327	No	
row_124	SETDB2	NA	13703	-0.04159983620047569	-0.41417462	No	
row_125	EXOC8	NA	13746	-0.042950693517923355	-0.41546994	No	
row_126	DENR	NA	13752	-0.04319891706109047	-0.4149689	No	
row_127	MAPK14	NA	13762	-0.043452631682157516	-0.41465724	No	
row_128	TSPYL1	NA	13785	-0.0445278137922287	-0.41495672	No	
row_129	C6orf120	NA	13851	-0.04642246663570404	-0.41730633	No	
row_130	HMOX2	NA	13863	-0.0468967966735363	-0.41703227	No	
row_131	MDH2	NA	13876	-0.04721987247467041	-0.4168011	No	
row_132	HSBP1	NA	13994	-0.05113999545574188	-0.42158818	No	
row_133	CUL3	NA	14004	-0.051519379019737244	-0.42113772	No	
row_134	RRAGA	NA	14101	-0.05542460083961487	-0.42483398	No	
row_135	SRSF10	NA	14116	-0.05602980777621269	-0.4245481	No	
row_136	ACTRT3	NA	14122	-0.05623859912157059	-0.4238227	No	
row_137	EIF1AD	NA	14129	-0.056530747562646866	-0.4231407	No	
row_138	CAB39L	NA	14136	-0.05677979812026024	-0.42245442	No	
row_139	SLC25A11	NA	14170	-0.05792044475674629	-0.42305627	No	
row_140	IKZF5	NA	14186	-0.058550793677568436	-0.42277545	No	
row_141	EIF5	NA	14213	-0.05956630781292915	-0.42300996	No	
row_142	UBE2D3	NA	14222	-0.05992569774389267	-0.42236644	No	
row_143	MAU2	NA	14290	-0.06214641407132149	-0.4245424	No	
row_144	NOL11	NA	14309	-0.0632103681564331	-0.42432672	No	
row_145	GGA3	NA	14324	-0.06360667198896408	-0.42391047	No	
row_146	UHRF2	NA	14354	-0.06463459879159927	-0.42420307	No	
row_147	RPL24	NA	14399	-0.06610512733459473	-0.4251969	No	
row_148	TADA3	NA	14407	-0.06635166704654694	-0.42439437	No	
row_149	POP7	NA	14581	-0.07327987253665924	-0.43151295	No	
row_150	SNX5	NA	14635	-0.07634767889976501	-0.4327665	No	
row_151	MATR3	NA	14693	-0.07832218706607819	-0.43417978	No	
row_152	HERPUD2	NA	14721	-0.07893669605255127	-0.43412945	No	
row_153	PDRG1	NA	14728	-0.07912396639585495	-0.43305877	No	
row_154	HDAC6	NA	14898	-0.08629773557186127	-0.4397596	No	
row_155	GRK4	NA	14915	-0.08690515160560608	-0.4390394	No	
row_156	THAP1	NA	14917	-0.08694153279066086	-0.43759203	No	
row_157	FBXL5	NA	14972	-0.08923853188753128	-0.4386722	No	
row_158	NOP16	NA	15066	-0.09283267706632614	-0.44157955	No	
row_159	SMARCA5	NA	15211	-0.09856384992599487	-0.4468585	No	
row_160	CIAPIN1	NA	15228	-0.09952214360237122	-0.44592118	No	
row_161	ZNF286A	NA	15384	-0.10583608597517014	-0.4516078	No	
row_162	ABHD13	NA	15473	-0.10923819988965988	-0.4539907	Yes	
row_163	SPDL1	NA	15506	-0.11084871739149094	-0.45363352	Yes	
row_164	PRR4	NA	15508	-0.11104090511798859	-0.4517715	Yes	
row_165	NCAPG	NA	15517	-0.11160378903150558	-0.45023885	Yes	
row_166	COX7B	NA	15549	-0.11284530162811279	-0.44979888	Yes	
row_167	FAM135A	NA	15632	-0.11696697771549225	-0.4517582	Yes	
row_168	MICOS10	NA	15644	-0.11785243451595306	-0.45026335	Yes	
row_169	ATAD3A	NA	15645	-0.1178683266043663	-0.44823545	Yes	
row_170	RPL12	NA	15647	-0.11806483566761017	-0.44625258	Yes	
row_171	CSDE1	NA	15659	-0.11856605857610703	-0.44474548	Yes	
row_172	NPTN	NA	15702	-0.12023637443780899	-0.44471112	Yes	
row_173	NFATC3	NA	15708	-0.12068072706460953	-0.442877	Yes	
row_174	SUGP1	NA	15711	-0.12088528275489807	-0.44089407	Yes	
row_175	RBM26	NA	15740	-0.12252641469240189	-0.4401422	Yes	
row_176	COPB2	NA	15743	-0.12265336513519287	-0.43812886	Yes	
row_177	RBM39	NA	15754	-0.12319079041481018	-0.43649372	Yes	
row_178	CAND1	NA	15766	-0.12355276942253113	-0.43490082	Yes	
row_179	LINC00476	NA	15812	-0.12531329691410065	-0.43492442	Yes	
row_180	MGME1	NA	15864	-0.12723828852176666	-0.43520552	Yes	
row_181	GOLM2	NA	15872	-0.127626433968544	-0.43334877	Yes	
row_182	PFKFB2	NA	15876	-0.12783271074295044	-0.43129474	Yes	
row_183	TMCO1-AS1	NA	15927	-0.1301649510860443	-0.43147704	Yes	
row_184	WDR27	NA	15936	-0.13059839606285095	-0.4296176	Yes	
row_185	FZD6	NA	15985	-0.13294768333435059	-0.42965516	Yes	
row_186	HIBCH	NA	15994	-0.13350731134414673	-0.4277457	Yes	
row_187	MRE11	NA	16043	-0.13567626476287842	-0.4277363	Yes	
row_188	TRIM37	NA	16054	-0.1362278163433075	-0.4258769	Yes	
row_189	C5orf24	NA	16078	-0.13693322241306305	-0.424635	Yes	
row_190	EIF2AK2	NA	16097	-0.13777334988117218	-0.42313644	Yes	
row_191	TARDBP	NA	16124	-0.13862985372543335	-0.4220107	Yes	
row_192	COX11	NA	16127	-0.13877393305301666	-0.41971996	Yes	
row_193	WDR6	NA	16173	-0.1410696804523468	-0.4194725	Yes	
row_194	SLC25A26	NA	16237	-0.14431634545326233	-0.420041	Yes	
row_195	ANAPC4	NA	16337	-0.14950411021709442	-0.4222639	Yes	
row_196	CHAF1A	NA	16360	-0.1505756974220276	-0.42073885	Yes	
row_197	RELCH	NA	16372	-0.15136344730854034	-0.41866747	Yes	
row_198	CDC5L	NA	16394	-0.15232518315315247	-0.4170639	Yes	
row_199	RAF1	NA	16407	-0.15270215272903442	-0.4150179	Yes	
row_200	OFD1	NA	16414	-0.15295766294002533	-0.4126769	Yes	
row_201	CETN2	NA	16442	-0.1541980803012848	-0.41133168	Yes	
row_202	PURA	NA	16457	-0.1552034169435501	-0.40933955	Yes	
row_203	NDUFA7	NA	16468	-0.155607670545578	-0.4071467	Yes	
row_204	CD2AP	NA	16487	-0.156513050198555	-0.40532574	Yes	
row_205	H6PD	NA	16576	-0.16045977175235748	-0.4068274	Yes	
row_206	PPP1R12A	NA	16665	-0.16535969078540802	-0.40824473	Yes	
row_207	XPC	NA	16683	-0.1666182279586792	-0.4062015	Yes	
row_208	RFC3	NA	16710	-0.16819900274276733	-0.40456697	Yes	
row_209	LRSAM1	NA	16754	-0.1707954853773117	-0.4037112	Yes	
row_210	ASXL1	NA	16782	-0.17210790514945984	-0.4020579	Yes	
row_211	ZFC3H1	NA	16804	-0.17349299788475037	-0.4000901	Yes	
row_212	NCAPG2	NA	16811	-0.17389564216136932	-0.39738888	Yes	
row_213	PDS5A	NA	16835	-0.1748923808336258	-0.3954939	Yes	
row_214	UPF3A	NA	16937	-0.1805935502052307	-0.3972788	Yes	
row_215	HSPA4	NA	16974	-0.18246020376682281	-0.3958833	Yes	
row_216	DNTTIP2	NA	17007	-0.18403485417366028	-0.39426693	Yes	
row_217	BTBD10	NA	17047	-0.18653519451618195	-0.3929466	Yes	
row_218	COASY	NA	17075	-0.1884899139404297	-0.39101142	Yes	
row_219	NRBF2	NA	17079	-0.1886442005634308	-0.38791114	Yes	
row_220	HNRNPH3	NA	17082	-0.1887851506471634	-0.38476	Yes	
row_221	FASTKD2	NA	17113	-0.19039557874202728	-0.38293734	Yes	
row_222	AHCTF1	NA	17126	-0.1908566653728485	-0.3802349	Yes	
row_223	QRICH1	NA	17191	-0.19536252319812775	-0.3799736	Yes	
row_224	PRDX1	NA	17198	-0.19568921625614166	-0.3768974	Yes	
row_225	FTO	NA	17222	-0.1973654329776764	-0.3746158	Yes	
row_226	CEP97	NA	17246	-0.19904784858226776	-0.3723052	Yes	
row_227	GRWD1	NA	17266	-0.20067647099494934	-0.36977288	Yes	
row_228	RAPGEF2	NA	17302	-0.2028197944164276	-0.36797863	Yes	
row_229	SUPT5H	NA	17349	-0.20519794523715973	-0.36667627	Yes	
row_230	DBR1	NA	17378	-0.20695677399635315	-0.36447182	Yes	
row_231	TMEM209	NA	17402	-0.20781488716602325	-0.36201042	Yes	
row_232	ZZZ3	NA	17427	-0.20883499085903168	-0.3595799	Yes	
row_233	GTF2A1	NA	17716	-0.22678202390670776	-0.3696276	Yes	
row_234	ZNF136	NA	17791	-0.23208537697792053	-0.36921883	Yes	
row_235	NSUN3	NA	17840	-0.23645557463169098	-0.36747554	Yes	
row_236	RBPJ	NA	17848	-0.23712745308876038	-0.36373484	Yes	
row_237	TAOK1	NA	17913	-0.24121849238872528	-0.3626846	Yes	
row_238	DCAF16	NA	17918	-0.24146635830402374	-0.35872397	Yes	
row_239	METTL16	NA	18046	-0.25035613775253296	-0.36056793	Yes	
row_240	IREB2	NA	18074	-0.2528407871723175	-0.35752562	Yes	
row_241	TIPIN	NA	18147	-0.25713232159614563	-0.35658905	Yes	
row_242	POLE	NA	18185	-0.2590710520744324	-0.3539239	Yes	
row_243	LTV1	NA	18194	-0.25952214002609253	-0.34984633	Yes	
row_244	CNP	NA	18237	-0.26188212633132935	-0.34737498	Yes	
row_245	WWOX	NA	18243	-0.26255685091018677	-0.34309992	Yes	
row_246	PAXBP1	NA	18351	-0.2708144783973694	-0.3436232	Yes	
row_247	NFYC	NA	18457	-0.2795337736606598	-0.3438996	Yes	
row_248	PIGN	NA	18513	-0.28455162048339844	-0.3416679	Yes	
row_249	SNHG16	NA	18554	-0.2884151339530945	-0.33864316	Yes	
row_250	LUC7L2	NA	18593	-0.29214662313461304	-0.33545738	Yes	
row_251	TMEM79	NA	18606	-0.2934077978134155	-0.33099058	Yes	
row_252	NKTR	NA	18617	-0.29462915658950806	-0.32640588	Yes	
row_253	MYEF2	NA	18630	-0.2957574427127838	-0.32189864	Yes	
row_254	SF1	NA	18655	-0.297724187374115	-0.3179388	Yes	
row_255	SHPRH	NA	18690	-0.3017452657222748	-0.31439415	Yes	
row_256	ZNF614	NA	18711	-0.3033604323863983	-0.3101436	Yes	
row_257	SIPA1L1	NA	18745	-0.3071748614311218	-0.30645707	Yes	
row_258	WDR73	NA	18845	-0.31813082098960876	-0.3057788	Yes	
row_259	ERCC6L2	NA	18852	-0.31875982880592346	-0.30058518	Yes	
row_260	CENPB	NA	18925	-0.327314555644989	-0.29844114	Yes	
row_261	EDRF1	NA	18964	-0.3320350646972656	-0.2945691	Yes	
row_262	DHFR2	NA	19000	-0.3358393907546997	-0.29048628	Yes	
row_263	GGNBP2	NA	19004	-0.33626917004585266	-0.28484613	Yes	
row_264	TRAPPC2	NA	19054	-0.34089910984039307	-0.28135434	Yes	
row_265	SMG5	NA	19147	-0.35220128297805786	-0.27975085	Yes	
row_266	EDRF1-DT	NA	19220	-0.3610105514526367	-0.27702707	Yes	
row_267	ZMYM3	NA	19243	-0.36385756731033325	-0.27183256	Yes	
row_268	RICTOR	NA	19260	-0.36533209681510925	-0.26632205	Yes	
row_269	ANKRD13C	NA	19264	-0.3663675785064697	-0.26016405	Yes	
row_270	COQ9	NA	19291	-0.3695027232170105	-0.25506616	Yes	
row_271	SMC5	NA	19399	-0.3834255039691925	-0.25365198	Yes	
row_272	NAA35	NA	19482	-0.3937295377254486	-0.25084963	Yes	
row_273	CDK12	NA	19570	-0.4090387225151062	-0.24802609	Yes	
row_274	PSMD5	NA	19635	-0.42180365324020386	-0.24386889	Yes	
row_275	NOP14	NA	19676	-0.42933234572410583	-0.23841971	Yes	
row_276	MAK16	NA	19677	-0.4293422996997833	-0.23103295	Yes	
row_277	NANP	NA	19710	-0.43922334909439087	-0.22502613	Yes	
row_278	USP54	NA	19786	-0.4552439749240875	-0.22082639	Yes	
row_279	UBR3	NA	19806	-0.4590974450111389	-0.21384797	Yes	
row_280	NOL9	NA	19818	-0.46005237102508545	-0.20646563	Yes	
row_281	SLC25A4	NA	19852	-0.46757227182388306	-0.2000195	Yes	
row_282	SLC35B4	NA	19866	-0.47085040807724	-0.19254826	Yes	
row_283	ACADSB	NA	19931	-0.4873405396938324	-0.18726352	Yes	
row_284	AGBL3	NA	20066	-0.5224477052688599	-0.18476525	Yes	
row_285	DNAJC27	NA	20084	-0.5251874923706055	-0.17655289	Yes	
row_286	HERC1	NA	20106	-0.532220721244812	-0.16841327	Yes	
row_287	CCDC77	NA	20117	-0.533805251121521	-0.15971358	Yes	
row_288	ADAT1	NA	20127	-0.5369859337806702	-0.15091075	Yes	
row_289	SMG7	NA	20231	-0.573563277721405	-0.14603154	Yes	
row_290	AKAP11	NA	20345	-0.6230999231338501	-0.14078443	Yes	
row_291	ZKSCAN2	NA	20482	-0.7066044211387634	-0.13521464	Yes	
row_292	SPRTN	NA	20534	-0.7362937927246094	-0.12501703	Yes	
row_293	MOK	NA	20549	-0.7481473088264465	-0.11282338	Yes	
row_294	TUBGCP5	NA	20586	-0.7764435410499573	-0.10120847	Yes	
row_295	STXBP4	NA	20676	-0.8758441209793091	-0.09045048	Yes	
row_296	ASPH	NA	20690	-0.8945460319519043	-0.07568962	Yes	
row_297	DSE	NA	20692	-0.8954251408576965	-0.060332414	Yes	
row_298	TTC23	NA	20700	-0.9122014045715332	-0.044977184	Yes	
row_299	TMEM44-AS1	NA	20750	-1.0124951601028442	-0.02993071	Yes	
row_300	SNHG9	NA	20805	-1.1156432628631592	-0.013351767	Yes	
row_301	RPGRIP1L	NA	20828	-1.1729769706726074	0.00576353	Yes	
