NAME	SYMBOL	TITLE	RANK IN GENE LIST	RANK METRIC SCORE	RUNNING ES	CORE ENRICHMENT	
row_0	AK8	NA	813	0.43668514490127563	-0.0010749581	No	
row_1	RANBP2	NA	1971	0.30673906207084656	-0.029880954	No	
row_2	SPACA9	NA	2464	0.27778810262680054	-0.02935963	No	
row_3	ATG5	NA	5741	0.16909091174602509	-0.17154121	No	
row_4	TRAK2	NA	6589	0.14771650731563568	-0.19928841	No	
row_5	PHF7	NA	7033	0.13726918399333954	-0.20859984	No	
row_6	ORMDL3	NA	8115	0.11025116592645645	-0.2507967	No	
row_7	RCE1	NA	8205	0.10825563967227936	-0.24567516	No	
row_8	UXT	NA	8493	0.10138671100139618	-0.25062805	No	
row_9	PHF5A	NA	10230	0.05941537395119667	-0.32858855	No	
row_10	RNF7	NA	10438	0.05487929284572601	-0.33374223	No	
row_11	PWP1	NA	10449	0.05461796373128891	-0.3294873	No	
row_12	MRPL49	NA	10987	0.04125490412116051	-0.35162035	No	
row_13	MUL1	NA	11462	0.029099026694893837	-0.37179083	No	
row_14	BRMS1	NA	11491	0.028635021299123764	-0.37064955	No	
row_15	STRADB	NA	11513	0.02819160372018814	-0.36921158	No	
row_16	ZNF367	NA	11577	0.026771191507577896	-0.36990744	No	
row_17	BCL2L2	NA	11677	0.024161992594599724	-0.3725529	No	
row_18	VPS37A	NA	12460	0.0036739015486091375	-0.40967226	No	
row_19	LDAH	NA	12483	0.0032340246252715588	-0.4104452	No	
row_20	LCMT1	NA	12541	0.001742146210744977	-0.41302305	No	
row_21	RNPS1	NA	12625	-3.8638885598629713E-4	-0.41696316	No	
row_22	FAU	NA	12939	-0.009002444334328175	-0.4311676	No	
row_23	NEK1	NA	14504	-0.05791470780968666	-0.5010237	No	
row_24	ANAPC10	NA	14727	-0.06535306572914124	-0.50598776	No	
row_25	NUP42	NA	15043	-0.07687821984291077	-0.5144053	No	
row_26	CNOT7	NA	15686	-0.10023561865091324	-0.53645337	No	
row_27	PSMB2	NA	16047	-0.11397372931241989	-0.5438102	Yes	
row_28	NFX1	NA	16140	-0.11809340864419937	-0.5379796	Yes	
row_29	GTF3C2	NA	16360	-0.12829269468784332	-0.5373452	Yes	
row_30	NUP153	NA	16395	-0.12959598004817963	-0.52774096	Yes	
row_31	BAP1	NA	16481	-0.1329311728477478	-0.52028936	Yes	
row_32	ACO2	NA	16677	-0.142522394657135	-0.5172726	Yes	
row_33	DHRS1	NA	17092	-0.16154608130455017	-0.5230916	Yes	
row_34	PINX1	NA	17211	-0.1673794537782669	-0.51423424	Yes	
row_35	SNF8	NA	17451	-0.18147864937782288	-0.5099477	Yes	
row_36	DNAJB11	NA	17487	-0.1835324764251709	-0.4957168	Yes	
row_37	RFC1	NA	17606	-0.19010241329669952	-0.48489007	Yes	
row_38	CCDC86	NA	17623	-0.1911332607269287	-0.4690908	Yes	
row_39	ZNF644	NA	17834	-0.2010328471660614	-0.46172118	Yes	
row_40	SENP2	NA	17883	-0.20444518327713013	-0.44630015	Yes	
row_41	PHF20L1	NA	17956	-0.20946083962917328	-0.43159342	Yes	
row_42	NUP133	NA	18197	-0.22588248550891876	-0.42350635	Yes	
row_43	ABCE1	NA	18282	-0.2322431206703186	-0.4073996	Yes	
row_44	MFN2	NA	18365	-0.23736700415611267	-0.390753	Yes	
row_45	ADPGK	NA	18565	-0.25327974557876587	-0.3783286	Yes	
row_46	PSME3	NA	18803	-0.27301034331321716	-0.36601338	Yes	
row_47	CCDC191	NA	18879	-0.2798248529434204	-0.34535193	Yes	
row_48	NUP155	NA	18947	-0.28707796335220337	-0.32367885	Yes	
row_49	GPAM	NA	19069	-0.30176234245300293	-0.30331832	Yes	
row_50	MECR	NA	19165	-0.3124822974205017	-0.28078395	Yes	
row_51	AOPEP	NA	19518	-0.35710492730140686	-0.26668593	Yes	
row_52	TRMT61B	NA	19846	-0.41397953033447266	-0.24646182	Yes	
row_53	UBE4A	NA	19882	-0.42185109853744507	-0.21157615	Yes	
row_54	QTRT2	NA	19886	-0.4227738380432129	-0.17507854	Yes	
row_55	NOP9	NA	19947	-0.4370889365673065	-0.1400691	Yes	
row_56	COQ7	NA	19987	-0.4494609534740448	-0.10298202	Yes	
row_57	RNF141	NA	20138	-0.4881935119628906	-0.06785211	Yes	
row_58	ZC3H18	NA	20288	-0.5383263230323792	-0.028329376	Yes	
row_59	NUBPL	NA	20547	-0.6903402209281921	0.01914989	Yes	
