NAME	SYMBOL	TITLE	RANK IN GENE LIST	RANK METRIC SCORE	RUNNING ES	CORE ENRICHMENT	
row_0	HOXC6	NA	426	0.5942714810371399	-0.00877927	No	
row_1	GABRB1	NA	780	0.445015013217926	-0.016996864	No	
row_2	NEK8	NA	1454	0.3466625213623047	-0.042639147	No	
row_3	MAP4K1	NA	1787	0.31894126534461975	-0.05234796	No	
row_4	PRKN	NA	1792	0.3187659978866577	-0.046204127	No	
row_5	SAMD10	NA	2026	0.3025209903717041	-0.05145354	No	
row_6	GRIN2B	NA	2404	0.2810879647731781	-0.064090274	No	
row_7	FGF12	NA	2495	0.276435911655426	-0.06294538	No	
row_8	TRAPPC1	NA	3411	0.23817987740039825	-0.10244308	No	
row_9	MCRS1	NA	3547	0.23363277316093445	-0.10432451	No	
row_10	EIF5A	NA	3624	0.23059596121311188	-0.10341415	No	
row_11	HTN1	NA	3703	0.2280268520116806	-0.102651544	No	
row_12	POU4F2	NA	3849	0.2227589190006256	-0.105232574	No	
row_13	ARRB2	NA	3886	0.2216246873140335	-0.10256689	No	
row_14	KRCC1	NA	3929	0.22047598659992218	-0.100214094	No	
row_15	SPRY4	NA	4368	0.2071206271648407	-0.11727019	No	
row_16	ARFGAP3	NA	4814	0.1943238526582718	-0.13491908	No	
row_17	MAP7D2	NA	4978	0.19003212451934814	-0.13902089	No	
row_18	DNAAF1	NA	5178	0.18402241170406342	-0.14498247	No	
row_19	TTLL4	NA	5348	0.17948561906814575	-0.14958401	No	
row_20	LRP1	NA	5542	0.1743641495704651	-0.15544756	No	
row_21	ARHGEF15	NA	5735	0.16920383274555206	-0.16136535	No	
row_22	KCNK5	NA	6041	0.16124975681304932	-0.17290391	No	
row_23	GABRB2	NA	6049	0.16107527911663055	-0.17004006	No	
row_24	VAV3	NA	6083	0.16043880581855774	-0.16844575	No	
row_25	TMEM143	NA	6474	0.1504395455121994	-0.18430828	No	
row_26	PHF1	NA	6718	0.1445898562669754	-0.19318084	No	
row_27	UXS1	NA	7018	0.13778112828731537	-0.20489591	No	
row_28	PAQR4	NA	7075	0.13634651899337769	-0.20489243	No	
row_29	TCTA	NA	7165	0.13395956158638	-0.20653169	No	
row_30	HNRNPH1	NA	7350	0.12955069541931152	-0.21285106	No	
row_31	RILPL1	NA	7522	0.12511278688907623	-0.21863024	No	
row_32	DOK6	NA	7577	0.12381952255964279	-0.21877912	No	
row_33	E2F6	NA	7608	0.12304095923900604	-0.21778326	No	
row_34	TECR	NA	7716	0.12049957364797592	-0.22056025	No	
row_35	UBAC2	NA	7833	0.11766408383846283	-0.2238287	No	
row_36	CCNJL	NA	7836	0.11759719997644424	-0.22158751	No	
row_37	SHMT2	NA	7853	0.11728287488222122	-0.22002934	No	
row_38	CD320	NA	7873	0.11673823744058609	-0.21862704	No	
row_39	CDK2AP2	NA	7971	0.11398794502019882	-0.22105007	No	
row_40	NARF	NA	8032	0.11212293058633804	-0.22172153	No	
row_41	MAGI1	NA	8039	0.11207369714975357	-0.2197835	No	
row_42	CNTNAP1	NA	8170	0.10922399908304214	-0.22389653	No	
row_43	HMMR	NA	8174	0.1091378852725029	-0.22187185	No	
row_44	COX7A2L	NA	8325	0.10575961321592331	-0.22702058	No	
row_45	DAW1	NA	8406	0.10361773520708084	-0.22882797	No	
row_46	FUS	NA	8518	0.10073696076869965	-0.23219122	No	
row_47	TMEM50A	NA	8550	0.10010926425457001	-0.2316996	No	
row_48	RAB18	NA	8896	0.091718889772892	-0.24655414	No	
row_49	PACRG	NA	9026	0.08932821452617645	-0.25101435	No	
row_50	AIP	NA	9048	0.08890940994024277	-0.250262	No	
row_51	PDE7A	NA	9384	0.08058752119541168	-0.2648544	No	
row_52	MRPS18B	NA	9424	0.07959851622581482	-0.26515728	No	
row_53	ABI2	NA	9560	0.07606247812509537	-0.27017128	No	
row_54	ACOT13	NA	9796	0.06985288113355637	-0.2801429	No	
row_55	ZCWPW1	NA	9839	0.06900034844875336	-0.2808015	No	
row_56	CCDC12	NA	9903	0.0673464685678482	-0.28250816	No	
row_57	WNT5A	NA	9918	0.06690125912427902	-0.28185493	No	
row_58	TMEM179	NA	10010	0.06490260362625122	-0.28496376	No	
row_59	ASIC1	NA	10084	0.06306258589029312	-0.28723902	No	
row_60	EIF1	NA	10198	0.05998974293470383	-0.291509	No	
row_61	RHOA	NA	10210	0.05983537435531616	-0.2908512	No	
row_62	SYNGR4	NA	10351	0.05689040571451187	-0.29648808	No	
row_63	DDIT3	NA	10792	0.04621183127164841	-0.31683978	No	
row_64	CBFB	NA	10810	0.0457962304353714	-0.31675115	No	
row_65	ATP6V1D	NA	10813	0.04571066051721573	-0.3159391	No	
row_66	JAG1	NA	10926	0.04276607185602188	-0.32050318	No	
row_67	ACTR1A	NA	11130	0.03770541399717331	-0.329567	No	
row_68	SGF29	NA	11140	0.03728976845741272	-0.3292607	No	
row_69	FAM122B	NA	11233	0.03518318012356758	-0.3330087	No	
row_70	NDUFB8	NA	11302	0.03306371346116066	-0.33563864	No	
row_71	RNF123	NA	11413	0.030334437265992165	-0.3403532	No	
row_72	MPDU1	NA	11498	0.028501098975539207	-0.34384727	No	
row_73	CKS2	NA	11612	0.025662388652563095	-0.34879974	No	
row_74	CENPO	NA	11756	0.022093407809734344	-0.3552734	No	
row_75	SEC14L1	NA	11758	0.0220626313239336	-0.35488313	No	
row_76	CFL1	NA	11840	0.020007299259305	-0.35840106	No	
row_77	EID2	NA	11910	0.018361767753958702	-0.3613716	No	
row_78	ZNF800	NA	11957	0.017237624153494835	-0.36325264	No	
row_79	TDP2	NA	12192	0.010836105793714523	-0.3743492	No	
row_80	FXR2	NA	12247	0.00942982453852892	-0.37677222	No	
row_81	PTPN2	NA	12294	0.00829681009054184	-0.378831	No	
row_82	PHC3	NA	12601	2.5003121118061244E-4	-0.39361864	No	
row_83	SNRNP70	NA	12663	-0.0014914608327671885	-0.39653784	No	
row_84	DCTN5	NA	12906	-0.008155914954841137	-0.40807444	No	
row_85	SRSF7	NA	12947	-0.009249337017536163	-0.40982422	No	
row_86	CCR10	NA	13065	-0.012868805788457394	-0.41522437	No	
row_87	NUDCD2	NA	13083	-0.013454954139888287	-0.4157787	No	
row_88	SSBP4	NA	13118	-0.014471344649791718	-0.41713464	No	
row_89	IRF2BPL	NA	13187	-0.016780678182840347	-0.42008826	No	
row_90	EIF3K	NA	13200	-0.017327934503555298	-0.42032388	No	
row_91	SENP7	NA	13401	-0.02285037934780121	-0.42953798	No	
row_92	PDXDC1	NA	13443	-0.024119624868035316	-0.4310405	No	
row_93	PTGES3	NA	13475	-0.024852169677615166	-0.432045	No	
row_94	CNTROB	NA	13485	-0.025199072435498238	-0.43197915	No	
row_95	CBX6	NA	13498	-0.025682583451271057	-0.43204865	No	
row_96	NFYA	NA	13502	-0.02573050931096077	-0.43168214	No	
row_97	TRIM39	NA	13559	-0.0274062380194664	-0.43384445	No	
row_98	PSD	NA	13673	-0.03065445087850094	-0.43869767	No	
row_99	GTF2F1	NA	13813	-0.03485647588968277	-0.4447242	No	
row_100	HSDL1	NA	13832	-0.035430263727903366	-0.44489	No	
row_101	FMR1	NA	13885	-0.03704743832349777	-0.44666725	No	
row_102	ESCO1	NA	13901	-0.03762727975845337	-0.44664434	No	
row_103	COG6	NA	13929	-0.03848031908273697	-0.44718456	No	
row_104	TSACC	NA	13950	-0.03925217315554619	-0.44737107	No	
row_105	SRSF1	NA	13995	-0.04107344150543213	-0.44868153	No	
row_106	PPP1R15B	NA	14173	-0.046574611216783524	-0.45631212	No	
row_107	RAB10	NA	14440	-0.055383529514074326	-0.46807003	No	
row_108	PPP4R4	NA	14455	-0.05591588094830513	-0.46763518	No	
row_109	ZNF428	NA	14456	-0.05596769601106644	-0.4665225	No	
row_110	SRR	NA	14476	-0.05680951476097107	-0.4663116	No	
row_111	SRSF9	NA	14499	-0.05763388052582741	-0.46622935	No	
row_112	POLH	NA	14534	-0.05881770700216293	-0.46670365	No	
row_113	OARD1	NA	14644	-0.06240566074848175	-0.47073227	No	
row_114	XRCC1	NA	14646	-0.06251008808612823	-0.46953788	No	
row_115	FAM13B	NA	14689	-0.06384629011154175	-0.47029895	No	
row_116	USF2	NA	14707	-0.0645836591720581	-0.4698368	No	
row_117	HOXC4	NA	14731	-0.06549283117055893	-0.46964663	No	
row_118	TRIM28	NA	14841	-0.06948821246623993	-0.47353444	No	
row_119	CDK16	NA	15015	-0.07602541893720627	-0.48038617	No	
row_120	MRPL22	NA	15132	-0.08003803342580795	-0.48440266	Yes	
row_121	CCDC97	NA	15154	-0.08091085404157639	-0.4838093	Yes	
row_122	CNOT9	NA	15156	-0.08104685693979263	-0.48224637	Yes	
row_123	C16orf87	NA	15215	-0.08293377608060837	-0.48340145	Yes	
row_124	PGRMC2	NA	15229	-0.0835193395614624	-0.48236948	Yes	
row_125	HILPDA	NA	15265	-0.0849074050784111	-0.48237348	Yes	
row_126	NRGN	NA	15332	-0.08712022006511688	-0.48383203	Yes	
row_127	BAG6	NA	15334	-0.08722487837076187	-0.48214632	Yes	
row_128	U2AF2	NA	15377	-0.08905629813671112	-0.4824062	Yes	
row_129	MAGED2	NA	15380	-0.08912625908851624	-0.480731	Yes	
row_130	RXRB	NA	15386	-0.08937890827655792	-0.47919583	Yes	
row_131	THAP12	NA	15492	-0.09313123673200607	-0.48242024	Yes	
row_132	PDRG1	NA	15548	-0.0953432098031044	-0.48318356	Yes	
row_133	USP37	NA	15584	-0.09657729417085648	-0.48295555	Yes	
row_134	SMC4	NA	15585	-0.09660570323467255	-0.481035	Yes	
row_135	SND1	NA	15623	-0.09784828126430511	-0.48087835	Yes	
row_136	ARMC8	NA	15642	-0.09831731766462326	-0.47979394	Yes	
row_137	INTS3	NA	15687	-0.10028088092803955	-0.47992736	Yes	
row_138	UBE2K	NA	15692	-0.10045693814754486	-0.47812358	Yes	
row_139	ZNF286A	NA	15733	-0.10176599770784378	-0.4780341	Yes	
row_140	MAPT	NA	15737	-0.1019967719912529	-0.4761514	Yes	
row_141	POLA2	NA	15782	-0.1035686582326889	-0.47621945	Yes	
row_142	MEPCE	NA	15800	-0.10406377911567688	-0.47497243	Yes	
row_143	PPP1R12A	NA	15813	-0.10466426610946655	-0.47347176	Yes	
row_144	POP7	NA	15814	-0.10466702282428741	-0.47139093	Yes	
row_145	NAT8L	NA	15826	-0.10499648749828339	-0.4698353	Yes	
row_146	CCNI	NA	15858	-0.10619591921567917	-0.4692227	Yes	
row_147	FUT8	NA	15868	-0.10648874193429947	-0.46754074	Yes	
row_148	PLOD3	NA	15954	-0.11019391566514969	-0.4694591	Yes	
row_149	UQCC2	NA	15959	-0.11045341938734055	-0.4674566	Yes	
row_150	EIF2S1	NA	15969	-0.11102338880300522	-0.4656845	Yes	
row_151	DNAJA1	NA	15991	-0.11192309856414795	-0.4644746	Yes	
row_152	DISP2	NA	16060	-0.1145617663860321	-0.4654843	Yes	
row_153	GOLGA1	NA	16071	-0.11527103930711746	-0.4636761	Yes	
row_154	POU2F1	NA	16298	-0.12534990906715393	-0.47210935	Yes	
row_155	INTS13	NA	16399	-0.12964417040348053	-0.47436613	Yes	
row_156	ADO	NA	16414	-0.13032254576683044	-0.47245207	Yes	
row_157	MRPL45	NA	16521	-0.1352272927761078	-0.47488794	Yes	
row_158	KDM4C	NA	16523	-0.1353299617767334	-0.47224584	Yes	
row_159	TMEM255A	NA	16576	-0.13783538341522217	-0.4720194	Yes	
row_160	KDM2A	NA	16672	-0.1424364298582077	-0.47378018	Yes	
row_161	PPME1	NA	16673	-0.14243698120117188	-0.4709485	Yes	
row_162	C12orf65	NA	16706	-0.14363273978233337	-0.46963993	Yes	
row_163	EDEM3	NA	16717	-0.14387907087802887	-0.46726298	Yes	
row_164	ZNHIT1	NA	16721	-0.14403820037841797	-0.46454448	Yes	
row_165	PCIF1	NA	16787	-0.14689092338085175	-0.46476644	Yes	
row_166	CLGN	NA	16791	-0.1469787061214447	-0.46198946	Yes	
row_167	SMG6	NA	16792	-0.14701510965824127	-0.45906675	Yes	
row_168	FGFR1OP2	NA	16860	-0.15014460682868958	-0.4593207	Yes	
row_169	DNMT1	NA	16911	-0.15283143520355225	-0.45869943	Yes	
row_170	CRK	NA	16971	-0.15575723350048065	-0.4584551	Yes	
row_171	MAGED1	NA	16988	-0.1564844697713852	-0.45611757	Yes	
row_172	MAZ	NA	17085	-0.1613406091928482	-0.45755088	Yes	
row_173	CCT3	NA	17180	-0.16591361165046692	-0.4587966	Yes	
row_174	PDCD2L	NA	17221	-0.16788581013679504	-0.45739263	Yes	
row_175	ZNF653	NA	17227	-0.16822677850723267	-0.4542899	Yes	
row_176	PSMA4	NA	17303	-0.1729496568441391	-0.45447725	Yes	
row_177	ADAM10	NA	17409	-0.17965537309646606	-0.45598152	Yes	
row_178	INTS2	NA	17442	-0.18081706762313843	-0.45393375	Yes	
row_179	RBBP8	NA	17492	-0.18379931151866913	-0.4526485	Yes	
row_180	MRI1	NA	17527	-0.185613751411438	-0.45060202	Yes	
row_181	YWHAE	NA	17659	-0.19240081310272217	-0.4531098	Yes	
row_182	SLC39A7	NA	17660	-0.19241920113563538	-0.44928443	Yes	
row_183	IFT80	NA	17756	-0.19714006781578064	-0.44995767	Yes	
row_184	GPATCH11	NA	17759	-0.19733354449272156	-0.4461313	Yes	
row_185	HNRNPL	NA	17769	-0.1977660059928894	-0.44263467	Yes	
row_186	C16orf70	NA	17795	-0.19914881885051727	-0.43988407	Yes	
row_187	INO80C	NA	17853	-0.20239518582820892	-0.43861586	Yes	
row_188	ZNF638	NA	17900	-0.20520086586475372	-0.4367601	Yes	
row_189	BCKDHA	NA	18015	-0.2136639803647995	-0.43802333	Yes	
row_190	USO1	NA	18036	-0.2152966409921646	-0.43471	Yes	
row_191	EXOSC5	NA	18082	-0.21810545027256012	-0.43254936	Yes	
row_192	SPOP	NA	18093	-0.21865320205688477	-0.42868584	Yes	
row_193	SUFU	NA	18143	-0.22198213636875153	-0.4266415	Yes	
row_194	MST1	NA	18159	-0.22331400215625763	-0.42292705	Yes	
row_195	TUBGCP4	NA	18226	-0.22744569182395935	-0.4215959	Yes	
row_196	EEF1AKMT1	NA	18243	-0.2284761369228363	-0.41782716	Yes	
row_197	PREB	NA	18304	-0.23316438496112823	-0.41609228	Yes	
row_198	SEC24C	NA	18325	-0.23495662212371826	-0.4123881	Yes	
row_199	TNKS2	NA	18351	-0.236894428730011	-0.40888706	Yes	
row_200	PAXBP1	NA	18367	-0.23747558891773224	-0.40489107	Yes	
row_201	PRPF6	NA	18415	-0.24170580506324768	-0.40235794	Yes	
row_202	STX12	NA	18541	-0.25200992822647095	-0.4033906	Yes	
row_203	FOXO4	NA	18586	-0.25528743863105774	-0.40044242	Yes	
row_204	MTFR1	NA	18668	-0.2617308497428894	-0.39915478	Yes	
row_205	NNAT	NA	18713	-0.2649356424808502	-0.3960148	Yes	
row_206	PPP1R10	NA	18743	-0.26801255345344543	-0.3920885	Yes	
row_207	RNF111	NA	18760	-0.2696532607078552	-0.38750115	Yes	
row_208	XPO5	NA	18827	-0.2751047611236572	-0.38522252	Yes	
row_209	PALB2	NA	18834	-0.27591007947921753	-0.38002735	Yes	
row_210	TUBG1	NA	18860	-0.2783704400062561	-0.37570179	Yes	
row_211	CBY1	NA	18875	-0.2793428897857666	-0.3708251	Yes	
row_212	SPATA5L1	NA	18882	-0.2800109386444092	-0.36554843	Yes	
row_213	CCDC106	NA	18939	-0.2863936722278595	-0.36256194	Yes	
row_214	SF1	NA	18949	-0.28713878989219666	-0.3572886	Yes	
row_215	ALG8	NA	18962	-0.28868454694747925	-0.35212952	Yes	
row_216	RPRD2	NA	18987	-0.2911635637283325	-0.34750128	Yes	
row_217	MRTFB	NA	19016	-0.2951589524745941	-0.34298694	Yes	
row_218	DNAJC3	NA	19057	-0.29972463846206665	-0.338962	Yes	
row_219	RETREG3	NA	19099	-0.3050767183303833	-0.33487895	Yes	
row_220	CACUL1	NA	19110	-0.3059491217136383	-0.32927996	Yes	
row_221	SMAP2	NA	19261	-0.32175910472869873	-0.33013454	Yes	
row_222	SRRM1	NA	19280	-0.3247845470905304	-0.32454783	Yes	
row_223	SELENOI	NA	19302	-0.32723936438560486	-0.31905735	Yes	
row_224	VAT1	NA	19320	-0.3298152685165405	-0.3133223	Yes	
row_225	MAP2K7	NA	19321	-0.33045271039009094	-0.30675277	Yes	
row_226	RAVER1	NA	19337	-0.332444429397583	-0.30086875	Yes	
row_227	SNX12	NA	19365	-0.3365865647792816	-0.2954825	Yes	
row_228	C21orf58	NA	19571	-0.3658461570739746	-0.2981194	Yes	
row_229	ZSCAN29	NA	19577	-0.36684107780456543	-0.29106817	Yes	
row_230	KDM5C	NA	19589	-0.36827847361564636	-0.2842784	Yes	
row_231	NF1	NA	19622	-0.37283167243003845	-0.27841327	Yes	
row_232	BCL7A	NA	19670	-0.38201236724853516	-0.27309078	Yes	
row_233	ZNF248	NA	19719	-0.390445351600647	-0.26764897	Yes	
row_234	CLOCK	NA	19773	-0.40050914883613586	-0.26224878	Yes	
row_235	ATXN7L2	NA	19776	-0.40125349164009094	-0.2543684	Yes	
row_236	TMF1	NA	19815	-0.4091680943965912	-0.24807096	Yes	
row_237	ZGRF1	NA	19854	-0.4157892167568207	-0.24164188	Yes	
row_238	HIBADH	NA	19859	-0.4179880619049072	-0.23352547	Yes	
row_239	MIB1	NA	19878	-0.421553373336792	-0.22601496	Yes	
row_240	RTF1	NA	19890	-0.4240703582763672	-0.21811602	Yes	
row_241	MECP2	NA	19903	-0.42622533440589905	-0.21022259	Yes	
row_242	BTBD3	NA	19931	-0.4338717758655548	-0.20290226	Yes	
row_243	CHMP2A	NA	19939	-0.4354442059993744	-0.19458383	Yes	
row_244	ZNF287	NA	20094	-0.4777393639087677	-0.19253083	Yes	
row_245	FNBP4	NA	20100	-0.4788699746131897	-0.1832524	Yes	
row_246	NAA25	NA	20113	-0.48206740617752075	-0.1742488	Yes	
row_247	EXOG	NA	20140	-0.4883425533771515	-0.16579722	Yes	
row_248	AFG3L1P	NA	20150	-0.4916737973690033	-0.15645762	Yes	
row_249	CIPC	NA	20151	-0.49186334013938904	-0.14667916	Yes	
row_250	FAM120C	NA	20177	-0.4987730085849762	-0.1379719	Yes	
row_251	LSM12	NA	20181	-0.4991537630558014	-0.12819353	Yes	
row_252	PCNT	NA	20201	-0.5054292678833008	-0.119063884	Yes	
row_253	MOK	NA	20228	-0.5138145685195923	-0.11010592	Yes	
row_254	CENPBD1	NA	20298	-0.5417636632919312	-0.10267102	Yes	
row_255	MPP5	NA	20356	-0.5612497329711914	-0.09426862	Yes	
row_256	EID2B	NA	20435	-0.6060184836387634	-0.08599138	Yes	
row_257	SMAD5	NA	20549	-0.6913961172103882	-0.077708766	Yes	
row_258	KANSL1L	NA	20610	-0.7528097629547119	-0.0656431	Yes	
row_259	BMERB1	NA	20694	-0.851952075958252	-0.052718308	Yes	
row_260	PLEKHA1	NA	20883	-1.445579171180725	-0.033067856	Yes	
row_261	SPINT2	NA	20923	-1.8165429830551147	0.0011604532	Yes	
