NAME	SYMBOL	TITLE	RANK IN GENE LIST	RANK METRIC SCORE	RUNNING ES	CORE ENRICHMENT	
row_0	H3C7	NA	686	0.46907180547714233	-0.021235421	No	
row_1	NLN	NA	1201	0.37120601534843445	-0.036646094	No	
row_2	FAM228B	NA	1580	0.33413389325141907	-0.04642949	No	
row_3	H2BC9	NA	1690	0.32584449648857117	-0.043434087	No	
row_4	CASC2	NA	1936	0.30862724781036377	-0.047441933	No	
row_5	ENPP3	NA	2149	0.2954935133457184	-0.05018922	No	
row_6	C12orf76	NA	3273	0.2431955337524414	-0.09825042	No	
row_7	ZNF581	NA	3695	0.2283235490322113	-0.11279187	No	
row_8	CENPP	NA	3775	0.22541365027427673	-0.110893324	No	
row_9	TMEM30A	NA	3985	0.2187550961971283	-0.1154407	No	
row_10	NR1H2	NA	4328	0.20839455723762512	-0.12667269	No	
row_11	PIWIL2	NA	4585	0.20099849998950958	-0.13393953	No	
row_12	C12orf73	NA	4971	0.19012151658535004	-0.14771093	No	
row_13	NUDCD3	NA	5338	0.17980855703353882	-0.1608263	No	
row_14	HEMK1	NA	5343	0.17967090010643005	-0.15646566	No	
row_15	ATF7IP	NA	5466	0.17611968517303467	-0.15789276	No	
row_16	SLC1A3	NA	5744	0.1690020114183426	-0.16698457	No	
row_17	RNF145	NA	6080	0.1605600267648697	-0.17909092	No	
row_18	ADPRHL1	NA	6442	0.1512100249528885	-0.19268967	No	
row_19	ANKS4B	NA	6784	0.14291439950466156	-0.20553297	No	
row_20	LINC-PINT	NA	7414	0.12789508700370789	-0.23266326	No	
row_21	VTI1A	NA	7452	0.12695541977882385	-0.23123214	No	
row_22	ITSN2	NA	7454	0.12693016231060028	-0.22806336	No	
row_23	WDR83	NA	7463	0.1266460120677948	-0.2252398	No	
row_24	SSPN	NA	7532	0.12493356317281723	-0.22535679	No	
row_25	AHR	NA	7754	0.11940011382102966	-0.23300175	No	
row_26	BANF1	NA	7788	0.11859089136123657	-0.23158948	No	
row_27	PRRG2	NA	8055	0.11181236058473587	-0.24159962	No	
row_28	NGRN	NA	8248	0.10726712644100189	-0.24815181	No	
row_29	IQCH	NA	8581	0.09935519844293594	-0.26166454	No	
row_30	RAB18	NA	8896	0.091718889772892	-0.27450168	No	
row_31	SLC39A3	NA	9003	0.08976732194423676	-0.27734482	No	
row_32	MITD1	NA	9045	0.08900343626737595	-0.27706873	No	
row_33	NSL1	NA	9143	0.0861390009522438	-0.27956927	No	
row_34	HSD17B2	NA	9310	0.08212163299322128	-0.28550333	No	
row_35	ZMYND12	NA	9335	0.08165861666202545	-0.28459254	No	
row_36	TXN2	NA	9406	0.08007068186998367	-0.28594315	No	
row_37	ECE2	NA	9460	0.07862797379493713	-0.28650948	No	
row_38	NFKBIL1	NA	9465	0.07829614728689194	-0.2847182	No	
row_39	TIMM9	NA	9508	0.07741273939609528	-0.28478417	No	
row_40	PCID2	NA	9692	0.07221969217061996	-0.29179007	No	
row_41	PNISR	NA	9732	0.07145756483078003	-0.2918621	No	
row_42	GTPBP3	NA	9896	0.06763166934251785	-0.29801857	No	
row_43	H2BC13	NA	10311	0.057545509189367294	-0.31655043	No	
row_44	EPS8	NA	10386	0.056154750287532806	-0.3187003	No	
row_45	ZNF408	NA	10480	0.053780898451805115	-0.32182783	No	
row_46	SUGCT	NA	10488	0.05361425131559372	-0.32080698	No	
row_47	TXNDC9	NA	10671	0.04927302151918411	-0.32834616	No	
row_48	LSM5	NA	10749	0.047421324998140335	-0.33086228	No	
row_49	SMIM20	NA	10758	0.04714767634868622	-0.3300536	No	
row_50	MPLKIP	NA	10928	0.042741283774375916	-0.33713064	No	
row_51	C11orf49	NA	10983	0.04130006954073906	-0.3386913	No	
row_52	PTPRO	NA	11021	0.04060237854719162	-0.3394488	No	
row_53	DPAGT1	NA	11114	0.038058802485466	-0.3429265	No	
row_54	AHSA1	NA	11153	0.036958687007427216	-0.34382465	No	
row_55	KIF22	NA	11162	0.03682014346122742	-0.34327772	No	
row_56	HIGD2A	NA	11256	0.03468438610434532	-0.34688923	No	
row_57	SNRNP27	NA	11422	0.030154606327414513	-0.35409212	No	
row_58	ZDHHC6	NA	11437	0.029689110815525055	-0.35401565	No	
row_59	ERCC1	NA	11445	0.029455265030264854	-0.35360712	No	
row_60	MLLT3	NA	11618	0.025541245937347412	-0.3612649	No	
row_61	POMP	NA	11669	0.024244870990514755	-0.36306474	No	
row_62	MRPL48	NA	11819	0.020646434277296066	-0.36973605	No	
row_63	METTL15	NA	11972	0.01692190393805504	-0.3766466	No	
row_64	NDUFC2	NA	12044	0.014934591948986053	-0.37969637	No	
row_65	RPS18	NA	12056	0.014434187673032284	-0.37986168	No	
row_66	TMEM69	NA	12064	0.014303583651781082	-0.37983716	No	
row_67	TMEM222	NA	12072	0.01415537390857935	-0.37981638	No	
row_68	PEMT	NA	12196	0.010679764673113823	-0.38548487	No	
row_69	ARHGAP1	NA	12244	0.009509138762950897	-0.3875133	No	
row_70	AAR2	NA	12256	0.009260967373847961	-0.38780972	No	
row_71	WDR83OS	NA	12343	0.006838224362581968	-0.391789	No	
row_72	SMG7-AS1	NA	12376	0.005965147167444229	-0.39318296	No	
row_73	EIF3F	NA	12524	0.0021932432428002357	-0.40022537	No	
row_74	NUDT5	NA	12535	0.0018359870882704854	-0.4006617	No	
row_75	VPS52	NA	12568	0.0010590528836473823	-0.40218002	No	
row_76	RBM27	NA	12578	8.258160669356585E-4	-0.40259364	No	
row_77	C2CD2L	NA	12677	-0.0019026632653549314	-0.40727744	No	
row_78	PHF14	NA	12729	-0.003025913378223777	-0.40966332	No	
row_79	VPS51	NA	12735	-0.003132047364488244	-0.40982538	No	
row_80	KCTD10	NA	12826	-0.005176100879907608	-0.4140399	No	
row_81	SRSF7	NA	12947	-0.009249337017536163	-0.4195998	No	
row_82	ZNF561-AS1	NA	13068	-0.012957684695720673	-0.4250657	No	
row_83	NDUFB3	NA	13156	-0.015721648931503296	-0.4288681	No	
row_84	MAT2B	NA	13193	-0.017001111060380936	-0.43017548	No	
row_85	RPS7	NA	13202	-0.01742006093263626	-0.43012026	No	
row_86	RPL27	NA	13237	-0.018572639673948288	-0.43129125	No	
row_87	NSA2	NA	13276	-0.019464921206235886	-0.43263277	No	
row_88	TOR1AIP1	NA	13325	-0.02062922716140747	-0.43442765	No	
row_89	UTP3	NA	13328	-0.0206874068826437	-0.4339999	No	
row_90	CALM2	NA	13336	-0.02092491090297699	-0.43380755	No	
row_91	EPM2AIP1	NA	13358	-0.021528221666812897	-0.43427593	No	
row_92	PCLAF	NA	13425	-0.023599136620759964	-0.43686464	No	
row_93	MCAT	NA	13668	-0.03051413968205452	-0.44777644	No	
row_94	YJU2	NA	13802	-0.03456901013851166	-0.45332232	No	
row_95	HMGN2	NA	13844	-0.03575960919260979	-0.4543957	No	
row_96	CHASERR	NA	14049	-0.04272004961967468	-0.46316326	No	
row_97	TACO1	NA	14178	-0.046793848276138306	-0.46815786	No	
row_98	ZNF490	NA	14195	-0.047113820910453796	-0.46773633	No	
row_99	TBC1D19	NA	14264	-0.04920652136206627	-0.46977264	No	
row_100	NXT2	NA	14315	-0.05111350491642952	-0.47089145	No	
row_101	NOSIP	NA	14340	-0.052310213446617126	-0.4707245	No	
row_102	ZNF205	NA	14360	-0.05280788615345955	-0.4703035	No	
row_103	TMEM230	NA	14490	-0.05736666917800903	-0.4750784	No	
row_104	MRPL30	NA	14555	-0.05923030525445938	-0.47666752	No	
row_105	NUF2	NA	14591	-0.060430217534303665	-0.47682592	No	
row_106	BRF2	NA	14595	-0.06056806445121765	-0.47543567	No	
row_107	CLRN3	NA	14599	-0.06068967655301094	-0.47404233	No	
row_108	DCP1A	NA	14642	-0.0623452253639698	-0.4744902	No	
row_109	SMG8	NA	14703	-0.06444978713989258	-0.47575384	No	
row_110	TRIP4	NA	14761	-0.06659514456987381	-0.4768183	No	
row_111	EIF1AD	NA	14767	-0.06680092960596085	-0.47536665	No	
row_112	MLH1	NA	14777	-0.0671808272600174	-0.4740985	No	
row_113	ATP5PF	NA	14831	-0.06906978785991669	-0.47490707	No	
row_114	ZFAND6	NA	14879	-0.0712573304772377	-0.4753705	No	
row_115	NUP107	NA	15005	-0.0756915807723999	-0.4794878	No	
row_116	COX16	NA	15006	-0.07574856281280518	-0.47756797	No	
row_117	GPBP1L1	NA	15102	-0.07922597974538803	-0.48014712	No	
row_118	CCDC97	NA	15154	-0.08091085404157639	-0.48055902	Yes	
row_119	TMEM87A	NA	15179	-0.08190007507801056	-0.4796421	Yes	
row_120	SUPT7L	NA	15188	-0.08222299814224243	-0.47794443	Yes	
row_121	GAS5	NA	15196	-0.08249964565038681	-0.4761915	Yes	
row_122	ADAP2	NA	15217	-0.08297164738178253	-0.47505426	Yes	
row_123	ATP6V1G2	NA	15274	-0.08529705554246902	-0.47559643	Yes	
row_124	RRM1	NA	15290	-0.08585947006940842	-0.47414458	Yes	
row_125	PPIP5K2	NA	15310	-0.0862896591424942	-0.472875	Yes	
row_126	FAM126B	NA	15434	-0.09118784964084625	-0.47650298	Yes	
row_127	STX18-AS1	NA	15439	-0.09131292998790741	-0.4743818	Yes	
row_128	BIRC2	NA	15462	-0.09210186451673508	-0.47310975	Yes	
row_129	EIF5B	NA	15569	-0.09602750092744827	-0.47579423	Yes	
row_130	ELP3	NA	15586	-0.0966523289680481	-0.47411713	Yes	
row_131	TIMM29	NA	15627	-0.09795590490102768	-0.47356588	Yes	
row_132	SLC27A5	NA	15654	-0.09895288199186325	-0.47231334	Yes	
row_133	SF3B6	NA	15661	-0.09913002699613571	-0.4700906	Yes	
row_134	INO80B	NA	15805	-0.10418888181447983	-0.4743548	Yes	
row_135	UQCC1	NA	15806	-0.10422638058662415	-0.47171316	Yes	
row_136	FKBP3	NA	15807	-0.10422973334789276	-0.46907145	Yes	
row_137	THADA	NA	15852	-0.10590065270662308	-0.46851197	Yes	
row_138	USP30	NA	15904	-0.10773764550685883	-0.46824393	Yes	
row_139	CSDE1	NA	15948	-0.10978356003761292	-0.46753773	Yes	
row_140	MNAT1	NA	15973	-0.1112261489033699	-0.46587756	Yes	
row_141	UFC1	NA	16033	-0.11346911638975143	-0.46585053	Yes	
row_142	RGS5	NA	16061	-0.11458445340394974	-0.4642501	Yes	
row_143	VIPAS39	NA	16122	-0.11744973063468933	-0.4641705	Yes	
row_144	CDC123	NA	16139	-0.11803014576435089	-0.46195155	Yes	
row_145	TAF1D	NA	16153	-0.11869969218969345	-0.45957083	Yes	
row_146	MRPL13	NA	16154	-0.11870283633470535	-0.45656228	Yes	
row_147	SENP1	NA	16208	-0.12078478932380676	-0.45606014	Yes	
row_148	AHCYL1	NA	16247	-0.1231931746006012	-0.45477265	Yes	
row_149	TNPO3	NA	16265	-0.12427688390016556	-0.45244372	Yes	
row_150	GTF3C3	NA	16279	-0.12478067725896835	-0.44990885	Yes	
row_151	NUP153	NA	16395	-0.12959598004817963	-0.45217708	Yes	
row_152	INTS5	NA	16444	-0.13126762211322784	-0.45116782	Yes	
row_153	CSTF2T	NA	16520	-0.13517805933952332	-0.45136315	Yes	
row_154	CUL4A	NA	16645	-0.14124998450279236	-0.4537706	Yes	
row_155	TATDN3	NA	16693	-0.1431165486574173	-0.45241275	Yes	
row_156	MED23	NA	16748	-0.14525330066680908	-0.4513387	Yes	
row_157	ATF7	NA	16750	-0.1452803909778595	-0.44770485	Yes	
row_158	NOP16	NA	16816	-0.1483737975358963	-0.44708288	Yes	
row_159	COPS4	NA	16830	-0.14887112379074097	-0.44393745	Yes	
row_160	TMEM128	NA	16862	-0.15058429539203644	-0.44161773	Yes	
row_161	ALDH18A1	NA	16890	-0.15190747380256653	-0.43907136	Yes	
row_162	STX18	NA	16917	-0.15337017178535461	-0.4364396	Yes	
row_163	GOLGA3	NA	16939	-0.15430553257465363	-0.4335427	Yes	
row_164	ALG3	NA	17068	-0.16035102307796478	-0.4356592	Yes	
row_165	SBDSP1	NA	17115	-0.16285118460655212	-0.43375286	Yes	
row_166	ISY1	NA	17133	-0.16365058720111847	-0.43042597	Yes	
row_167	VPS25	NA	17139	-0.16397269070148468	-0.4265115	Yes	
row_168	CCNA2	NA	17168	-0.16521085798740387	-0.42367622	Yes	
row_169	HDAC8	NA	17338	-0.17498229444026947	-0.42740157	Yes	
row_170	PSMC2	NA	17465	-0.18237334489822388	-0.42886332	Yes	
row_171	ATXN2	NA	17471	-0.18245874345302582	-0.42448032	Yes	
row_172	METTL16	NA	17536	-0.18605618178844452	-0.422855	Yes	
row_173	RTTN	NA	17584	-0.18891142308712006	-0.42033646	Yes	
row_174	GABPA	NA	17733	-0.1958414912223816	-0.42251915	Yes	
row_175	UBE3B	NA	17755	-0.19709227979183197	-0.41853783	Yes	
row_176	HSPA9	NA	17758	-0.19730718433856964	-0.4136336	Yes	
row_177	ZNF791	NA	17901	-0.20521339774131775	-0.41528907	Yes	
row_178	INTS12	NA	17928	-0.20737972855567932	-0.41128844	Yes	
row_179	GFM2	NA	17960	-0.20962044596672058	-0.40747243	Yes	
row_180	KIAA0586	NA	17985	-0.21147365868091583	-0.4032715	Yes	
row_181	NKAPD1	NA	18071	-0.21735775470733643	-0.40186682	Yes	
row_182	TUT1	NA	18099	-0.2190203219652176	-0.39761946	Yes	
row_183	DHRS7B	NA	18133	-0.22125162184238434	-0.39360523	Yes	
row_184	MTMR4	NA	18166	-0.2238355129957199	-0.38947725	Yes	
row_185	SEC31A	NA	18186	-0.22500966489315033	-0.3846918	Yes	
row_186	ZSCAN26	NA	18216	-0.22688321769237518	-0.3803417	Yes	
row_187	TARS2	NA	18273	-0.2312372773885727	-0.377185	Yes	
row_188	SLC4A1AP	NA	18284	-0.2322726994752884	-0.37178087	Yes	
row_189	UMPS	NA	18309	-0.23331616818904877	-0.3670263	Yes	
row_190	PCM1	NA	18383	-0.2385651171207428	-0.36450472	Yes	
row_191	MRPL1	NA	18421	-0.24237798154354095	-0.3601482	Yes	
row_192	PIH1D2	NA	18515	-0.2502366304397583	-0.3582965	Yes	
row_193	PDCD4-AS1	NA	18604	-0.2564205825328827	-0.35604665	Yes	
row_194	ZNF580	NA	18643	-0.25923752784729004	-0.35131112	Yes	
row_195	GIN1	NA	18752	-0.2689476013183594	-0.34970948	Yes	
row_196	NKAP	NA	18933	-0.2860020399093628	-0.35115218	Yes	
row_197	ZC3HC1	NA	18950	-0.28717339038848877	-0.34464633	Yes	
row_198	ZNF213-AS1	NA	18979	-0.2902667224407196	-0.3386415	Yes	
row_199	MPHOSPH10	NA	19045	-0.29836127161979675	-0.33421806	Yes	
row_200	TEFM	NA	19046	-0.2984932065010071	-0.32665274	Yes	
row_201	PLEKHM3	NA	19049	-0.2988528609275818	-0.31917486	Yes	
row_202	RUVBL1	NA	19066	-0.30132392048835754	-0.31231034	Yes	
row_203	YIPF2	NA	19080	-0.3025829792022705	-0.30526906	Yes	
row_204	GEMIN2	NA	19109	-0.30588498711586	-0.29886836	Yes	
row_205	GANC	NA	19116	-0.3069123923778534	-0.29137936	Yes	
row_206	GNPDA2	NA	19166	-0.31249284744262695	-0.2858252	Yes	
row_207	NME1	NA	19213	-0.3171650767326355	-0.28000778	Yes	
row_208	ALG10	NA	19237	-0.32024967670440674	-0.27300158	Yes	
row_209	MAN2C1	NA	19288	-0.32555678486824036	-0.26716462	Yes	
row_210	GSTCD	NA	19333	-0.33204227685928345	-0.26087356	Yes	
row_211	SNX13	NA	19350	-0.3342042863368988	-0.25317568	Yes	
row_212	FANCM	NA	19362	-0.336022287607193	-0.24519031	Yes	
row_213	WDR24	NA	19379	-0.3387719988822937	-0.23737666	Yes	
row_214	DNAJC2	NA	19466	-0.35059288144111633	-0.23264344	Yes	
row_215	ZNF561	NA	19512	-0.35635095834732056	-0.22578456	Yes	
row_216	PFKM	NA	19516	-0.35679391026496887	-0.21688643	Yes	
row_217	DMAP1	NA	19529	-0.3596879243850708	-0.20834953	Yes	
row_218	CDK12	NA	19574	-0.36615344882011414	-0.20119391	Yes	
row_219	BMS1	NA	19627	-0.374017596244812	-0.19422527	Yes	
row_220	MCEE	NA	19722	-0.3914160132408142	-0.18884365	Yes	
row_221	NDUFAF1	NA	19825	-0.41015443205833435	-0.1833734	Yes	
row_222	RBM28	NA	19891	-0.42443013191223145	-0.17575476	Yes	
row_223	FEM1B	NA	19898	-0.4257107675075531	-0.1652548	Yes	
row_224	ZNF165	NA	19902	-0.4261786639690399	-0.15459812	Yes	
row_225	USP54	NA	19915	-0.4284977316856384	-0.14431722	Yes	
row_226	SMG7	NA	20185	-0.5004644393920898	-0.14462179	Yes	
row_227	TTC26	NA	20188	-0.5007398128509521	-0.13202706	Yes	
row_228	NOL8	NA	20198	-0.5035398006439209	-0.119699374	Yes	
row_229	IPO4	NA	20294	-0.5404906272888184	-0.11058774	Yes	
row_230	MTBP	NA	20324	-0.5499213933944702	-0.098050214	Yes	
row_231	TMEM101	NA	20329	-0.5513728857040405	-0.084268756	Yes	
row_232	MTOR	NA	20461	-0.6226022243499756	-0.07481429	Yes	
row_233	MIR17HG	NA	20488	-0.6365867257118225	-0.059935365	Yes	
row_234	NUBPL	NA	20547	-0.6903402209281921	-0.0452392	Yes	
row_235	TTC23	NA	20645	-0.7928508520126343	-0.029828044	Yes	
row_236	LIMA1	NA	20699	-0.8652412295341492	-0.010457567	Yes	
row_237	IFTAP	NA	20717	-0.8831878900527954	0.011106061	Yes	
