NAME	SYMBOL	TITLE	RANK IN GENE LIST	RANK METRIC SCORE	RUNNING ES	CORE ENRICHMENT	
row_0	LRRC28	NA	1825	0.31641143560409546	-0.07718162	No	
row_1	TMEM18	NA	2351	0.2836749851703644	-0.09288882	No	
row_2	MACC1	NA	3049	0.2524237334728241	-0.117929295	No	
row_3	HSPB6	NA	3112	0.24993489682674408	-0.11248664	No	
row_4	GPR108	NA	3901	0.22117705643177032	-0.14296116	No	
row_5	ZSWIM3	NA	3999	0.21838122606277466	-0.14026721	No	
row_6	UBE2C	NA	4556	0.20175442099571228	-0.16022879	No	
row_7	KPTN	NA	4625	0.19966016709804535	-0.1567701	No	
row_8	H4C4	NA	4934	0.190939798951149	-0.16515832	No	
row_9	P4HB	NA	5913	0.16470572352409363	-0.20668295	No	
row_10	SMIM31	NA	5949	0.16371391713619232	-0.20284773	No	
row_11	EIF2AK3	NA	6092	0.16012892127037048	-0.20428407	No	
row_12	RAB11B	NA	7052	0.13679245114326477	-0.24583526	No	
row_13	TTC32	NA	7339	0.12988397479057312	-0.25522313	No	
row_14	WDR83	NA	7463	0.1266460120677948	-0.25687382	No	
row_15	NAPA-AS1	NA	7736	0.11987645924091339	-0.26592517	No	
row_16	ZMAT2	NA	8101	0.11053478717803955	-0.27972013	No	
row_17	HOXA9	NA	8117	0.11022139340639114	-0.2767258	No	
row_18	GCNT3	NA	8295	0.10645956546068192	-0.28165653	No	
row_19	FSTL4	NA	8393	0.10403116047382355	-0.28281817	No	
row_20	FAM47E	NA	8531	0.10049045830965042	-0.28602466	No	
row_21	DRC3	NA	8599	0.09907888621091843	-0.28590918	No	
row_22	NDUFAF8	NA	8796	0.09423759579658508	-0.2921666	No	
row_23	ACOT8	NA	9151	0.0860103964805603	-0.30630708	No	
row_24	TOM1L2	NA	9294	0.08258385211229324	-0.31035805	No	
row_25	H3-3B	NA	9647	0.07370127737522125	-0.32481727	No	
row_26	ARNTL	NA	9939	0.06631288677453995	-0.33658928	No	
row_27	CKS1B	NA	10122	0.061718955636024475	-0.34326923	No	
row_28	H4C5	NA	10297	0.057858292013406754	-0.34969425	No	
row_29	CREBRF	NA	10378	0.05633237957954407	-0.35164583	No	
row_30	NUCKS1	NA	10401	0.05571002885699272	-0.35082644	No	
row_31	MED7	NA	10433	0.054942257702350616	-0.3504662	No	
row_32	RHCE	NA	10504	0.053214576095342636	-0.3520415	No	
row_33	IMMP1L	NA	10530	0.0525658018887043	-0.3514726	No	
row_34	ZNF143	NA	10542	0.052381593734025955	-0.3502359	No	
row_35	ALG5	NA	10581	0.05133141204714775	-0.35033435	No	
row_36	SNHG29	NA	10663	0.049380846321582794	-0.35256848	No	
row_37	TEPSIN	NA	10789	0.04636412858963013	-0.35702232	No	
row_38	SNHG1	NA	11147	0.03712444007396698	-0.37295553	No	
row_39	H2AZ2	NA	11234	0.03517668694257736	-0.37590924	No	
row_40	MTIF3	NA	11262	0.03452643007040024	-0.3760448	No	
row_41	SNRNP27	NA	11422	0.030154606327414513	-0.38268188	No	
row_42	AGR2	NA	11471	0.02892277203500271	-0.38401726	No	
row_43	H2BC12	NA	11507	0.028339292854070663	-0.38474652	No	
row_44	TRIP10	NA	11578	0.026719119399785995	-0.38721523	No	
row_45	MLLT3	NA	11618	0.025541245937347412	-0.3882314	No	
row_46	HAVCR2	NA	11722	0.022920982912182808	-0.39241666	No	
row_47	RPS9	NA	11905	0.018510473892092705	-0.4005535	No	
row_48	C6orf89	NA	12006	0.01599959097802639	-0.40482774	No	
row_49	CIAO2A	NA	12024	0.015515469945967197	-0.40512294	No	
row_50	RAB11A	NA	12104	0.013174721971154213	-0.40848154	No	
row_51	FBXO8	NA	12324	0.007336628157645464	-0.41877618	No	
row_52	WDR83OS	NA	12343	0.006838224362581968	-0.4194121	No	
row_53	SMG7-AS1	NA	12376	0.005965147167444229	-0.42075136	No	
row_54	TMEM160	NA	12382	0.005867412313818932	-0.42079422	No	
row_55	ATP5PB	NA	12466	0.003536839969456196	-0.42467034	No	
row_56	PHF23	NA	12529	0.0020669675432145596	-0.42758512	No	
row_57	RBM27	NA	12578	8.258160669356585E-4	-0.42986786	No	
row_58	DCLRE1A	NA	12588	5.909806932322681E-4	-0.4302812	No	
row_59	DNM2	NA	12772	-0.003907333593815565	-0.43895853	No	
row_60	NGDN	NA	12953	-0.009402381256222725	-0.4473062	No	
row_61	UBB	NA	12970	-0.009942129254341125	-0.44774115	No	
row_62	PSMC3	NA	13014	-0.01134770642966032	-0.44942844	No	
row_63	ARMH4	NA	13027	-0.011649065650999546	-0.4496133	No	
row_64	RAD51AP1	NA	13220	-0.018043585121631622	-0.45824724	No	
row_65	MAPK14	NA	13251	-0.01889199949800968	-0.45905435	No	
row_66	SLC3A2	NA	13297	-0.019990546628832817	-0.4605465	No	
row_67	CEP44	NA	13513	-0.02603163756430149	-0.47001827	No	
row_68	ARL1	NA	13534	-0.026592006906867027	-0.47008437	No	
row_69	RACK1	NA	13699	-0.03130296617746353	-0.4769234	No	
row_70	KNTC1	NA	13707	-0.031527433544397354	-0.47619736	No	
row_71	CFDP1	NA	13858	-0.036174267530441284	-0.4821982	No	
row_72	MFSD11	NA	13904	-0.037705592811107635	-0.48309305	No	
row_73	HNRNPUL1	NA	13961	-0.03984474018216133	-0.48444527	No	
row_74	ZNF689	NA	14010	-0.04161361977458	-0.48535272	No	
row_75	ANKRD54	NA	14176	-0.0467069149017334	-0.49172053	No	
row_76	SLC25A42	NA	14188	-0.046986598521471024	-0.49066576	No	
row_77	MPND	NA	14223	-0.04791463166475296	-0.49068686	No	
row_78	SRI	NA	14304	-0.05067361146211624	-0.49282926	No	
row_79	HNRNPC	NA	14343	-0.052386388182640076	-0.49289212	No	
row_80	PDE12	NA	14493	-0.05742146447300911	-0.49812844	No	
row_81	ENSA	NA	14500	-0.05766865983605385	-0.49647284	No	
row_82	BCAS3	NA	14627	-0.0617867037653923	-0.50045484	No	
row_83	INPPL1	NA	14660	-0.06310474872589111	-0.49986747	No	
row_84	PSMC5	NA	14819	-0.06867443770170212	-0.50515765	No	
row_85	TOP2A	NA	14962	-0.0739339292049408	-0.5095002	No	
row_86	KATNB1	NA	14986	-0.07477134466171265	-0.50808626	No	
row_87	EVI5L	NA	15057	-0.07730568200349808	-0.5088493	No	
row_88	GLRX	NA	15077	-0.07812246680259705	-0.50712985	No	
row_89	ZNF655	NA	15130	-0.07998458296060562	-0.50693613	No	
row_90	GOT1	NA	15232	-0.08358699083328247	-0.5089796	No	
row_91	STRIP1	NA	15325	-0.08688941597938538	-0.51047856	No	
row_92	ANP32E	NA	15335	-0.08723703026771545	-0.5079704	No	
row_93	RFX1	NA	15521	-0.09418605268001556	-0.5137	Yes	
row_94	ERAP1	NA	15547	-0.09528961032629013	-0.51169056	Yes	
row_95	ARMC8	NA	15642	-0.09831731766462326	-0.5129004	Yes	
row_96	ZNF77	NA	15676	-0.09974741190671921	-0.51112574	Yes	
row_97	TMEM79	NA	15729	-0.10171427577733994	-0.5101993	Yes	
row_98	RNF10	NA	15730	-0.10174229741096497	-0.5067688	Yes	
row_99	CAND1	NA	15845	-0.10562127828598022	-0.5086952	Yes	
row_100	CAPZA2	NA	15870	-0.1065797433257103	-0.5062569	Yes	
row_101	TDRKH	NA	15889	-0.10738658159971237	-0.50350255	Yes	
row_102	OGDH	NA	15901	-0.10765598714351654	-0.50040215	Yes	
row_103	TMEM94	NA	15996	-0.11216339468955994	-0.5011452	Yes	
row_104	WDR77	NA	16043	-0.11388372629880905	-0.49951965	Yes	
row_105	RAB11B-AS1	NA	16091	-0.11614610999822617	-0.49786595	Yes	
row_106	DCAF7	NA	16120	-0.11737815290689468	-0.4952561	Yes	
row_107	FIGNL1	NA	16249	-0.12327498197555542	-0.4972611	Yes	
row_108	DHFR	NA	16273	-0.12456526607275009	-0.49416825	Yes	
row_109	ZZZ3	NA	16386	-0.12929613888263702	-0.49520007	Yes	
row_110	SFSWAP	NA	16584	-0.13834528625011444	-0.5000184	Yes	
row_111	RAB5B	NA	16589	-0.13866601884365082	-0.49553552	Yes	
row_112	ARID4A	NA	16666	-0.1420544683933258	-0.49440423	Yes	
row_113	FTSJ3	NA	16688	-0.14284074306488037	-0.4905989	Yes	
row_114	PPP1R37	NA	16710	-0.1437392234802246	-0.48676327	Yes	
row_115	BRPF1	NA	16790	-0.1469690203666687	-0.4856107	Yes	
row_116	HEXIM1	NA	16810	-0.14782564342021942	-0.48154098	Yes	
row_117	MTMR12	NA	16940	-0.15433219075202942	-0.482547	Yes	
row_118	OSBP	NA	16942	-0.15443944931030273	-0.47738785	Yes	
row_119	CNOT1	NA	16991	-0.15678465366363525	-0.47441205	Yes	
row_120	FAM200A	NA	17041	-0.1592288762331009	-0.47140196	Yes	
row_121	DMXL1	NA	17064	-0.1602039784193039	-0.4670593	Yes	
row_122	EXOSC8	NA	17076	-0.1607997864484787	-0.46216708	Yes	
row_123	NLK	NA	17082	-0.16117210686206818	-0.45697346	Yes	
row_124	INO80	NA	17098	-0.16175954043865204	-0.4522414	Yes	
row_125	ANKHD1	NA	17149	-0.16440226137638092	-0.44910505	Yes	
row_126	ABCC10	NA	17184	-0.1661449670791626	-0.44513974	Yes	
row_127	ELP4	NA	17185	-0.16624611616134644	-0.43953434	Yes	
row_128	FMC1	NA	17257	-0.17059136927127838	-0.43720016	Yes	
row_129	HBP1	NA	17302	-0.17294324934482574	-0.433487	Yes	
row_130	SNX1	NA	17439	-0.18068401515483856	-0.43394145	Yes	
row_131	SP1	NA	17483	-0.183423712849617	-0.42982677	Yes	
row_132	HNRNPL	NA	17769	-0.1977660059928894	-0.4368777	Yes	
row_133	PRMT9	NA	17778	-0.19822290539741516	-0.43057922	Yes	
row_134	G3BP1	NA	17845	-0.20196862518787384	-0.4269464	Yes	
row_135	TIPIN	NA	18087	-0.21838468313217163	-0.43118408	Yes	
row_136	SETD1A	NA	18088	-0.2184164971113205	-0.42381966	Yes	
row_137	NHLRC2	NA	18155	-0.22295796871185303	-0.41947913	Yes	
row_138	PKN2	NA	18278	-0.231951043009758	-0.41753107	Yes	
row_139	HROB	NA	18345	-0.2365768849849701	-0.41273135	Yes	
row_140	SP2	NA	18411	-0.2414475530385971	-0.40771928	Yes	
row_141	EXOC4	NA	18481	-0.24745307862758636	-0.40269727	Yes	
row_142	GATAD2B	NA	18509	-0.24981774389743805	-0.39557377	Yes	
row_143	FAM53C	NA	18671	-0.2617723047733307	-0.39449754	Yes	
row_144	EIF2AK3-DT	NA	18707	-0.2642180323600769	-0.3872736	Yes	
row_145	FRYL	NA	18732	-0.26683539152145386	-0.3794319	Yes	
row_146	PSMA3-AS1	NA	18742	-0.2679999768733978	-0.37082887	Yes	
row_147	STAP2	NA	19228	-0.31900888681411743	-0.38341922	Yes	
row_148	HMG20A	NA	19249	-0.32109957933425903	-0.3735553	Yes	
row_149	TICRR	NA	19257	-0.32149532437324524	-0.36305228	Yes	
row_150	TIMM22	NA	19283	-0.3250342905521393	-0.35329637	Yes	
row_151	PROSER3	NA	19319	-0.3297838568687439	-0.34386173	Yes	
row_152	FRMD5	NA	19390	-0.3395625352859497	-0.33578214	Yes	
row_153	SMG5	NA	19490	-0.3539344370365143	-0.32861397	Yes	
row_154	ZNF785	NA	19532	-0.3605031371116638	-0.31843236	Yes	
row_155	CDK12	NA	19574	-0.36615344882011414	-0.30806023	Yes	
row_156	CHD2	NA	19585	-0.36780571937561035	-0.29614016	Yes	
row_157	MACO1	NA	19662	-0.3810229003429413	-0.28695145	Yes	
row_158	CMSS1	NA	19683	-0.383688360452652	-0.27497724	Yes	
row_159	ABHD2	NA	19740	-0.3943697214126587	-0.26437578	Yes	
row_160	C11orf71	NA	19864	-0.41901788115501404	-0.25616845	Yes	
row_161	C12orf4	NA	19971	-0.4423324465751648	-0.24635668	Yes	
row_162	CASD1	NA	20028	-0.458499938249588	-0.23359293	Yes	
row_163	GUF1	NA	20176	-0.49867504835128784	-0.22385505	Yes	
row_164	SMG7	NA	20185	-0.5004644393920898	-0.20736578	Yes	
row_165	SETX	NA	20205	-0.5064800977706909	-0.19120319	Yes	
row_166	FAM174B	NA	20256	-0.5254209041595459	-0.17589422	Yes	
row_167	CCDC61	NA	20286	-0.5369745492935181	-0.1591848	Yes	
row_168	GBF1	NA	20393	-0.5800061225891113	-0.14473103	Yes	
row_169	CNOT3	NA	20438	-0.6068865656852722	-0.12638642	Yes	
row_170	ENC1	NA	20607	-0.7514826655387878	-0.109135404	Yes	
row_171	FBXO16	NA	20661	-0.8076815009117126	-0.08445375	Yes	
row_172	H2AW	NA	20828	-1.1519584655761719	-0.053603448	Yes	
row_173	IGF2BP3	NA	20920	-1.7582424879074097	0.0012994552	Yes	
