NAME	SYMBOL	TITLE	RANK IN GENE LIST	RANK METRIC SCORE	RUNNING ES	CORE ENRICHMENT	
row_0	DUSP1	NA	322	0.6842452883720398	0.009543825	No	
row_1	PRKCD	NA	452	0.5678367018699646	0.024114892	No	
row_2	ADAP1	NA	1342	0.3558976650238037	-0.0056394525	No	
row_3	GNPTG	NA	1463	0.3452453315258026	0.0012195869	No	
row_4	CLDN4	NA	2139	0.29635822772979736	-0.02041606	No	
row_5	AAAS	NA	2616	0.271853506565094	-0.033372793	No	
row_6	ELFN1-AS1	NA	4472	0.20405913889408112	-0.11516577	No	
row_7	C12orf73	NA	4971	0.19012151658535004	-0.13217185	No	
row_8	NUTM1	NA	4979	0.19002945721149445	-0.1255551	No	
row_9	WDR11-AS1	NA	5108	0.18657349050045013	-0.12488715	No	
row_10	LINC00536	NA	5634	0.1718715876340866	-0.14386025	No	
row_11	TFPT	NA	5807	0.1671157032251358	-0.14602152	No	
row_12	P4HB	NA	5913	0.16470572352409363	-0.14504704	No	
row_13	TMC1	NA	5941	0.16392607986927032	-0.14034782	No	
row_14	GRHL2	NA	6225	0.15672622621059418	-0.14823043	No	
row_15	TEX38	NA	6370	0.15321792662143707	-0.14955293	No	
row_16	ADPRHL1	NA	6442	0.1512100249528885	-0.14743625	No	
row_17	GTF2H4	NA	6794	0.14252719283103943	-0.15911049	No	
row_18	HIRA	NA	6947	0.13927356898784637	-0.1613282	No	
row_19	PHF7	NA	7033	0.13726918399333954	-0.1603953	No	
row_20	NOXA1	NA	7405	0.12818127870559692	-0.17355686	No	
row_21	VTI1A	NA	7452	0.12695541977882385	-0.17112474	No	
row_22	LMAN2	NA	7812	0.11810652166604996	-0.18407753	No	
row_23	EIF2D	NA	8092	0.11078634858131409	-0.19344871	No	
row_24	CDH26	NA	8230	0.10771480202674866	-0.19609943	No	
row_25	MCF2L2	NA	8440	0.10276030004024506	-0.20239599	No	
row_26	SLC39A3	NA	9003	0.08976732194423676	-0.22615385	No	
row_27	NSL1	NA	9143	0.0861390009522438	-0.22969031	No	
row_28	CYP3A43	NA	9230	0.08424434810876846	-0.23074584	No	
row_29	GLMP	NA	9278	0.08297636359930038	-0.22997113	No	
row_30	SYT7	NA	9352	0.08115697652101517	-0.23051406	No	
row_31	TIMM9	NA	9508	0.07741273939609528	-0.23513974	No	
row_32	ZNF554	NA	9754	0.070863738656044	-0.24433574	No	
row_33	LRRC37A3	NA	9771	0.07036139816045761	-0.24253096	No	
row_34	SLC33A1	NA	9807	0.069598488509655	-0.24166836	No	
row_35	WDR31	NA	9808	0.0695473849773407	-0.23912346	No	
row_36	TVP23B	NA	10003	0.06498195230960846	-0.24608064	No	
row_37	ESRP2	NA	10142	0.06129714101552963	-0.250478	No	
row_38	RHPN2	NA	10144	0.06121379882097244	-0.24828617	No	
row_39	SUGCT	NA	10488	0.05361425131559372	-0.26282898	No	
row_40	ALG5	NA	10581	0.05133141204714775	-0.26537758	No	
row_41	GBA	NA	10782	0.046515319496393204	-0.2732992	No	
row_42	SMARCD2	NA	10861	0.0444856658577919	-0.2754246	No	
row_43	MPLKIP	NA	10928	0.042741283774375916	-0.27703643	No	
row_44	NCBP3	NA	11044	0.04004920646548271	-0.2811046	No	
row_45	TMEM242	NA	11250	0.03474323824048042	-0.28969756	No	
row_46	ZDHHC6	NA	11437	0.029689110815525055	-0.29756123	No	
row_47	SLC45A4	NA	11603	0.025923117995262146	-0.3045522	No	
row_48	CSNK1G2	NA	12022	0.01559591107070446	-0.32409507	No	
row_49	TSR3	NA	12062	0.014322811737656593	-0.3254476	No	
row_50	B4GALT7	NA	12101	0.01327564287930727	-0.32679033	No	
row_51	CRACDL	NA	12103	0.013185914605855942	-0.32635593	No	
row_52	C19orf48	NA	12109	0.01302372757345438	-0.32611996	No	
row_53	USPL1	NA	12334	0.007068289443850517	-0.33663988	No	
row_54	NCBP2AS2	NA	12391	0.005544302519410849	-0.33913165	No	
row_55	ATG13	NA	12396	0.005356963258236647	-0.3391281	No	
row_56	NUDT5	NA	12535	0.0018359870882704854	-0.34570128	No	
row_57	HSPB9	NA	12552	0.0014747994719073176	-0.3464172	No	
row_58	NOP10	NA	12582	7.309920038096607E-4	-0.3477859	No	
row_59	VPS51	NA	12735	-0.003132047364488244	-0.3549853	No	
row_60	RPL37	NA	12753	-0.00338454800657928	-0.35567948	No	
row_61	KCTD10	NA	12826	-0.005176100879907608	-0.3589546	No	
row_62	TOR1AIP1	NA	13325	-0.02062922716140747	-0.38216278	No	
row_63	UTP3	NA	13328	-0.0206874068826437	-0.38150203	No	
row_64	BRWD1-AS2	NA	13371	-0.021954452618956566	-0.38271964	No	
row_65	ATPAF1	NA	13387	-0.022319365292787552	-0.38262472	No	
row_66	MKRN2	NA	13616	-0.02916323021054268	-0.3925286	No	
row_67	RBBP8NL	NA	13740	-0.0325552374124527	-0.3972559	No	
row_68	SNRPD1	NA	13785	-0.034008610993623734	-0.3981287	No	
row_69	LMNB1	NA	13930	-0.03850536048412323	-0.40364876	No	
row_70	VARS2	NA	14298	-0.050363294780254364	-0.41946536	No	
row_71	HMGB1	NA	14397	-0.053918175399303436	-0.422208	No	
row_72	EXD3	NA	14439	-0.055351622402668	-0.42215544	No	
row_73	BRWD1	NA	14467	-0.05656542629003525	-0.42138478	No	
row_74	RPL23	NA	14544	-0.05904621258378029	-0.42288116	No	
row_75	NUF2	NA	14591	-0.060430217534303665	-0.42288336	No	
row_76	DCP1A	NA	14642	-0.0623452253639698	-0.42300794	No	
row_77	TUBGCP3	NA	14649	-0.06265494227409363	-0.42100397	No	
row_78	SMG8	NA	14703	-0.06444978713989258	-0.4211959	No	
row_79	NT5C2	NA	14708	-0.06459503620862961	-0.4190247	No	
row_80	MICAL3	NA	14822	-0.06873272359371185	-0.42194703	No	
row_81	COX16	NA	15006	-0.07574856281280518	-0.4279809	No	
row_82	RPL26L1	NA	15253	-0.0844583809375763	-0.43672755	No	
row_83	STX16	NA	15254	-0.08452876657247543	-0.4336345	No	
row_84	DDX11-AS1	NA	15314	-0.08650680631399155	-0.433308	No	
row_85	GARS1	NA	15340	-0.08739711344242096	-0.43131292	No	
row_86	SNRNP35	NA	15392	-0.08956518769264221	-0.43048957	No	
row_87	MRPS31	NA	15412	-0.09029912203550339	-0.4280996	No	
row_88	HARBI1	NA	15426	-0.09102543443441391	-0.42539433	No	
row_89	STX18-AS1	NA	15439	-0.09131292998790741	-0.4226304	No	
row_90	TMEM79	NA	15729	-0.10171427577733994	-0.43281475	No	
row_91	GARS1-DT	NA	15777	-0.10339321941137314	-0.43129292	No	
row_92	DDX11	NA	15989	-0.11169952899217606	-0.43735862	Yes	
row_93	RGS5	NA	16061	-0.11458445340394974	-0.43658215	Yes	
row_94	CDC123	NA	16139	-0.11803014576435089	-0.4359683	Yes	
row_95	CAMTA2	NA	16191	-0.12021481990814209	-0.43402344	Yes	
row_96	CENPU	NA	16310	-0.12583911418914795	-0.43509668	Yes	
row_97	INTS5	NA	16444	-0.13126762211322784	-0.4366931	Yes	
row_98	BAP1	NA	16481	-0.1329311728477478	-0.43356112	Yes	
row_99	SFSWAP	NA	16584	-0.13834528625011444	-0.43340686	Yes	
row_100	MRPL40	NA	16595	-0.13887172937393188	-0.42880645	Yes	
row_101	NEK9	NA	16631	-0.140453040599823	-0.4253511	Yes	
row_102	TATDN3	NA	16693	-0.1431165486574173	-0.42304942	Yes	
row_103	KDM5A	NA	16705	-0.14359153807163239	-0.41832438	Yes	
row_104	KCTD5	NA	16780	-0.14673970639705658	-0.41651565	Yes	
row_105	NDUFS3	NA	16781	-0.14676053822040558	-0.41114536	Yes	
row_106	NOP16	NA	16816	-0.1483737975358963	-0.40735206	Yes	
row_107	MTF2	NA	16847	-0.14967183768749237	-0.40331882	Yes	
row_108	WDR11	NA	16867	-0.15094290673732758	-0.39870974	Yes	
row_109	FUT10	NA	16874	-0.15131749212741852	-0.39346144	Yes	
row_110	NDUFS7	NA	16916	-0.15335078537464142	-0.38982284	Yes	
row_111	STX18	NA	16917	-0.15337017178535461	-0.3842107	Yes	
row_112	KANSL1	NA	16941	-0.15435829758644104	-0.37966913	Yes	
row_113	RBBP5	NA	16982	-0.1561814695596695	-0.37587887	Yes	
row_114	NCBP2	NA	17048	-0.15952950716018677	-0.37316903	Yes	
row_115	CDR2L	NA	17072	-0.16047914326190948	-0.3684035	Yes	
row_116	EXOSC8	NA	17076	-0.1607997864484787	-0.36266384	Yes	
row_117	KBTBD4	NA	17122	-0.16320611536502838	-0.35885713	Yes	
row_118	ISY1	NA	17133	-0.16365058720111847	-0.35334998	Yes	
row_119	ADNP	NA	17208	-0.16735556721687317	-0.35078683	Yes	
row_120	ZMPSTE24	NA	17316	-0.17343661189079285	-0.3495891	Yes	
row_121	DPY19L4	NA	17317	-0.17358048260211945	-0.34323743	Yes	
row_122	FYCO1	NA	17431	-0.1803974211215973	-0.3420737	Yes	
row_123	RBBP8	NA	17492	-0.18379931151866913	-0.3382352	Yes	
row_124	NSFL1C	NA	17653	-0.1922018826007843	-0.3389011	Yes	
row_125	CDK11A	NA	17690	-0.19410879909992218	-0.33353052	Yes	
row_126	PRPF31	NA	17721	-0.195423886179924	-0.32782307	Yes	
row_127	KAT6A	NA	17736	-0.19602476060390472	-0.32132378	Yes	
row_128	UBE3B	NA	17755	-0.19709227979183197	-0.31497788	Yes	
row_129	SSBP1	NA	17867	-0.20325978100299835	-0.31288132	Yes	
row_130	KIAA0586	NA	17985	-0.21147365868091583	-0.31077293	Yes	
row_131	TBL3	NA	18046	-0.2159559279680252	-0.30575776	Yes	
row_132	TNRC18	NA	18200	-0.2259553223848343	-0.3048517	Yes	
row_133	PCYT1A	NA	18254	-0.22924861311912537	-0.2990133	Yes	
row_134	SLC35B1	NA	18263	-0.2302301675081253	-0.29097363	Yes	
row_135	ZER1	NA	18264	-0.23037120699882507	-0.28254384	Yes	
row_136	TARS2	NA	18273	-0.2312372773885727	-0.27446732	Yes	
row_137	KAT2A	NA	18390	-0.23946624994277954	-0.2712865	Yes	
row_138	POLR2J3	NA	18449	-0.24482634663581848	-0.26511866	Yes	
row_139	SSBP2	NA	18546	-0.2522769272327423	-0.2605067	Yes	
row_140	ADAL	NA	18638	-0.2587983012199402	-0.2554155	Yes	
row_141	SNORA21	NA	18781	-0.2711535394191742	-0.25232622	Yes	
row_142	ATP2B4	NA	18791	-0.27183446288108826	-0.24281229	Yes	
row_143	WEE2-AS1	NA	18829	-0.27530738711357117	-0.2345186	Yes	
row_144	CLASP1	NA	18890	-0.2814585864543915	-0.22710654	Yes	
row_145	RTKN2	NA	18911	-0.28395912051200867	-0.21767823	Yes	
row_146	NKAP	NA	18933	-0.2860020399093628	-0.2082233	Yes	
row_147	KMT2A	NA	18956	-0.2877216041088104	-0.19875355	Yes	
row_148	ALG10B	NA	19010	-0.29373160004615784	-0.19055557	Yes	
row_149	PKM	NA	19043	-0.29814478754997253	-0.1811856	Yes	
row_150	DHX8	NA	19129	-0.30835628509521484	-0.17399226	Yes	
row_151	MAN2C1	NA	19288	-0.32555678486824036	-0.16968217	Yes	
row_152	TDRD7	NA	19371	-0.337528258562088	-0.16127701	Yes	
row_153	SMG5	NA	19490	-0.3539344370365143	-0.15400378	Yes	
row_154	LSG1	NA	19497	-0.3548148274421692	-0.14130907	Yes	
row_155	KBTBD6	NA	19548	-0.36248084902763367	-0.13045104	Yes	
row_156	LRP6	NA	19774	-0.4005783200263977	-0.1266197	Yes	
row_157	RBM28	NA	19891	-0.42443013191223145	-0.11667064	Yes	
row_158	ALDH3B2	NA	20126	-0.4853876233100891	-0.11016901	Yes	
row_159	CIPC	NA	20151	-0.49186334013938904	-0.09332552	Yes	
row_160	IPO4	NA	20294	-0.5404906272888184	-0.08038065	Yes	
row_161	ARHGEF12	NA	20299	-0.5425499081611633	-0.060720056	Yes	
row_162	SIRT4	NA	20421	-0.5967223644256592	-0.04470705	Yes	
row_163	SLC44A1	NA	20445	-0.6123887300491333	-0.023405159	Yes	
row_164	MTOR	NA	20461	-0.6226022243499756	-0.0013445882	Yes	
row_165	PLCB1	NA	20536	-0.6745195388793945	0.019776754	Yes	
