NAME	SYMBOL	TITLE	RANK IN GENE LIST	RANK METRIC SCORE	RUNNING ES	CORE ENRICHMENT	
row_0	DNASE1L1	NA	766	0.4485359489917755	-0.019136745	No	
row_1	THAP10	NA	955	0.4079972505569458	-0.012099146	No	
row_2	ENPP3	NA	2149	0.2954935133457184	-0.057780035	No	
row_3	EWSAT1	NA	2231	0.29039379954338074	-0.050233644	No	
row_4	MYH14	NA	2511	0.2756691575050354	-0.05278052	No	
row_5	SNORA71B	NA	2900	0.2583421468734741	-0.061246995	No	
row_6	STUM	NA	3444	0.2372657060623169	-0.07799091	No	
row_7	AP3B2	NA	3993	0.21857604384422302	-0.09571122	No	
row_8	DRG2	NA	4559	0.20168714225292206	-0.11491355	No	
row_9	C11orf52	NA	4817	0.19425177574157715	-0.11961031	No	
row_10	CNBD2	NA	5092	0.18705110251903534	-0.12540749	No	
row_11	WDR11-AS1	NA	5108	0.18657349050045013	-0.11877933	No	
row_12	PSTK	NA	6498	0.14988966286182404	-0.17961253	No	
row_13	LRRC49	NA	6736	0.14400812983512878	-0.18532738	No	
row_14	GTF2H4	NA	6794	0.14252719283103943	-0.18245211	No	
row_15	VTI1A	NA	7452	0.12695541977882385	-0.20901833	No	
row_16	GPHA2	NA	7466	0.12652558088302612	-0.20465928	No	
row_17	NUDT19	NA	7576	0.12384349852800369	-0.20501839	No	
row_18	CDC42SE1	NA	7600	0.12320026010274887	-0.20127079	No	
row_19	TAZ	NA	7894	0.11632762104272842	-0.21076655	No	
row_20	SERP1	NA	7933	0.11506503820419312	-0.20806009	No	
row_21	DMKN	NA	8716	0.09642962366342545	-0.24183454	No	
row_22	PPM1K	NA	8922	0.0910564735531807	-0.24809757	No	
row_23	IBTK	NA	9184	0.08549556136131287	-0.25727028	No	
row_24	MAP2K1	NA	9566	0.07587195187807083	-0.27258766	No	
row_25	CCDC24	NA	9892	0.06767673790454865	-0.28553718	No	
row_26	MRPS34	NA	10018	0.06476034969091415	-0.28899226	No	
row_27	TMEM130	NA	10747	0.04748428612947464	-0.32210004	No	
row_28	SMARCD2	NA	10861	0.0444856658577919	-0.3257771	No	
row_29	ZNF302	NA	11223	0.03541504591703415	-0.3417271	No	
row_30	TMEM242	NA	11250	0.03474323824048042	-0.34160784	No	
row_31	ZDHHC6	NA	11437	0.029689110815525055	-0.34937516	No	
row_32	CCNC	NA	11757	0.022081319242715836	-0.36383235	No	
row_33	SCAND1	NA	11909	0.018364636227488518	-0.37036407	No	
row_34	METTL15	NA	11972	0.01692190393805504	-0.37267646	No	
row_35	TMEM69	NA	12064	0.014303583651781082	-0.37648532	No	
row_36	C19orf12	NA	12181	0.011228561401367188	-0.3816165	No	
row_37	SMG7-AS1	NA	12376	0.005965147167444229	-0.39070264	No	
row_38	DRAIC	NA	12655	-0.0012281201779842377	-0.4040113	No	
row_39	PHIP	NA	12747	-0.003325551049783826	-0.40825257	No	
row_40	RPL37	NA	12753	-0.00338454800657928	-0.4083595	No	
row_41	KCTD10	NA	12826	-0.005176100879907608	-0.41161498	No	
row_42	NSA2	NA	13276	-0.019464921206235886	-0.43242136	No	
row_43	UTP3	NA	13328	-0.0206874068826437	-0.4340569	No	
row_44	EME2	NA	13508	-0.025933777913451195	-0.4416358	No	
row_45	ZNF131	NA	13856	-0.03612830862402916	-0.45688504	No	
row_46	ZNF579	NA	13965	-0.0400676466524601	-0.4604959	No	
row_47	TBC1D19	NA	14264	-0.04920652136206627	-0.47287568	No	
row_48	VARS2	NA	14298	-0.050363294780254364	-0.4724775	No	
row_49	ZNF205	NA	14360	-0.05280788615345955	-0.47332832	No	
row_50	CACYBP	NA	14514	-0.05807358771562576	-0.47839206	No	
row_51	SLC24A1	NA	14560	-0.05930887535214424	-0.4782181	No	
row_52	NUF2	NA	14591	-0.060430217534303665	-0.47727925	No	
row_53	BRF2	NA	14595	-0.06056806445121765	-0.4750377	No	
row_54	SMG8	NA	14703	-0.06444978713989258	-0.47764012	No	
row_55	RPL4	NA	14965	-0.07399087399244308	-0.48726597	No	
row_56	COX16	NA	15006	-0.07574856281280518	-0.48620424	No	
row_57	PHYH	NA	15017	-0.07607201486825943	-0.48368832	No	
row_58	GPBP1L1	NA	15102	-0.07922597974538803	-0.48460367	No	
row_59	ADAP2	NA	15217	-0.08297164738178253	-0.4868129	No	
row_60	PPIP5K2	NA	15310	-0.0862896591424942	-0.4878344	No	
row_61	AURKAIP1	NA	15449	-0.09156399965286255	-0.4908583	No	
row_62	MRPL44	NA	15490	-0.09310731291770935	-0.4891128	No	
row_63	ZNF461	NA	15724	-0.10160687565803528	-0.49630558	No	
row_64	TMEM79	NA	15729	-0.10171427577733994	-0.4924914	No	
row_65	ZNF227	NA	15916	-0.10839185118675232	-0.4971587	No	
row_66	RGS5	NA	16061	-0.11458445340394974	-0.49956414	Yes	
row_67	FRA10AC1	NA	16100	-0.11646886169910431	-0.4968024	Yes	
row_68	NBPF1	NA	16252	-0.12343364208936691	-0.4991956	Yes	
row_69	ITGB3BP	NA	16326	-0.12679287791252136	-0.49770883	Yes	
row_70	MKS1	NA	16434	-0.13095946609973907	-0.49769154	Yes	
row_71	INTS5	NA	16444	-0.13126762211322784	-0.49295354	Yes	
row_72	RAD1	NA	16447	-0.13140533864498138	-0.48787376	Yes	
row_73	PSMB6	NA	16459	-0.13192729651927948	-0.48320585	Yes	
row_74	PSMD3	NA	16535	-0.13591504096984863	-0.4814559	Yes	
row_75	BRIX1	NA	16740	-0.1450255811214447	-0.4855451	Yes	
row_76	MED23	NA	16748	-0.14525330066680908	-0.48016012	Yes	
row_77	NOP16	NA	16816	-0.1483737975358963	-0.47753504	Yes	
row_78	WDR11	NA	16867	-0.15094290673732758	-0.47399196	Yes	
row_79	NDUFS7	NA	16916	-0.15335078537464142	-0.47025794	Yes	
row_80	GOLGA3	NA	16939	-0.15430553257465363	-0.4652371	Yes	
row_81	RBBP5	NA	16982	-0.1561814695596695	-0.46110332	Yes	
row_82	LIN37	NA	17001	-0.15707901120185852	-0.45578104	Yes	
row_83	TP53BP2	NA	17305	-0.1729615032672882	-0.46352655	Yes	
row_84	C17orf75	NA	17429	-0.18027912080287933	-0.46233538	Yes	
row_85	SYNRG	NA	17432	-0.18044734001159668	-0.45532393	Yes	
row_86	EYA3	NA	17520	-0.18503011763095856	-0.45221594	Yes	
row_87	ZNF609	NA	17548	-0.1871030032634735	-0.44614348	Yes	
row_88	ZWILCH	NA	17701	-0.1946093738079071	-0.44578123	Yes	
row_89	UBE3B	NA	17755	-0.19709227979183197	-0.44056454	Yes	
row_90	TAOK1	NA	17777	-0.19814452528953552	-0.4337689	Yes	
row_91	GFM2	NA	17960	-0.20962044596672058	-0.4342568	Yes	
row_92	EFCAB7	NA	18068	-0.21714438498020172	-0.4308448	Yes	
row_93	TIPIN	NA	18087	-0.21838468313217163	-0.4231078	Yes	
row_94	TUT1	NA	18099	-0.2190203219652176	-0.41500944	Yes	
row_95	PRC1	NA	18103	-0.21909591555595398	-0.4065237	Yes	
row_96	WARS1	NA	18168	-0.22396016120910645	-0.40077722	Yes	
row_97	CDK5RAP1	NA	18187	-0.22504696249961853	-0.3927778	Yes	
row_98	PCYT1A	NA	18254	-0.22924861311912537	-0.38691914	Yes	
row_99	TARS2	NA	18273	-0.2312372773885727	-0.37867588	Yes	
row_100	MTR	NA	18354	-0.23701639473438263	-0.3731839	Yes	
row_101	C10orf88	NA	18360	-0.23721624910831451	-0.36408052	Yes	
row_102	GABPB2	NA	18479	-0.24734528362751007	-0.3600075	Yes	
row_103	CCAR2	NA	18502	-0.2494240254163742	-0.35124007	Yes	
row_104	GIN1	NA	18752	-0.2689476013183594	-0.3526103	Yes	
row_105	MBTPS2	NA	18779	-0.2709847390651703	-0.34318584	Yes	
row_106	DHX33	NA	18873	-0.279281884431839	-0.33665368	Yes	
row_107	UBR5-AS1	NA	18883	-0.28006094694137573	-0.3260549	Yes	
row_108	AP3S2	NA	18892	-0.2820655107498169	-0.31532913	Yes	
row_109	ZNF213-AS1	NA	18979	-0.2902667224407196	-0.30802798	Yes	
row_110	DSCC1	NA	19019	-0.295440137386322	-0.29826486	Yes	
row_111	TEFM	NA	19046	-0.2984932065010071	-0.28775686	Yes	
row_112	NME1	NA	19213	-0.3171650767326355	-0.28324	Yes	
row_113	SF3A3	NA	19285	-0.3252108097076416	-0.27384174	Yes	
row_114	MAN2C1	NA	19288	-0.32555678486824036	-0.26111463	Yes	
row_115	WDR24	NA	19379	-0.3387719988822937	-0.2520951	Yes	
row_116	FAM98B	NA	19435	-0.3460942506790161	-0.24110554	Yes	
row_117	SMG5	NA	19490	-0.3539344370365143	-0.22975911	Yes	
row_118	LSG1	NA	19497	-0.3548148274421692	-0.21607175	Yes	
row_119	POLR3B	NA	19502	-0.35514211654663086	-0.20227541	Yes	
row_120	DMAP1	NA	19529	-0.3596879243850708	-0.18935704	Yes	
row_121	BMS1	NA	19627	-0.374017596244812	-0.17928559	Yes	
row_122	INTS14	NA	19734	-0.39300668239593506	-0.1688986	Yes	
row_123	RRM2B	NA	19736	-0.3935486674308777	-0.15344533	Yes	
row_124	NDUFAF1	NA	19825	-0.41015443205833435	-0.14151807	Yes	
row_125	JPX	NA	19892	-0.42462223768234253	-0.12796392	Yes	
row_126	DSTYK	NA	19918	-0.4291902780532837	-0.11225992	Yes	
row_127	BPGM	NA	19996	-0.4505540728569031	-0.09821286	Yes	
row_128	ENDOG	NA	20102	-0.4794948101043701	-0.08437118	Yes	
row_129	TMA16	NA	20134	-0.48751387000083923	-0.06665818	Yes	
row_130	SMG7	NA	20185	-0.5004644393920898	-0.049347956	Yes	
row_131	TTC26	NA	20188	-0.5007398128509521	-0.029720638	Yes	
row_132	WDR36	NA	20226	-0.5136459469795227	-0.011266608	Yes	
row_133	IPO4	NA	20294	-0.5404906272888184	0.0068033882	Yes	
row_134	MTOR	NA	20461	-0.6226022243499756	0.023350999	Yes	
