NAME	SYMBOL	TITLE	RANK IN GENE LIST	RANK METRIC SCORE	RUNNING ES	CORE ENRICHMENT	
row_0	HLA-DMA	NA	202	0.8639821410179138	0.0044316472	No	
row_1	FAAH	NA	484	0.5453729629516602	-2.3067609E-4	No	
row_2	GADD45B	NA	515	0.5315977931022644	0.0070784967	No	
row_3	TP53	NA	608	0.4908331334590912	0.010702155	No	
row_4	SPOCD1	NA	884	0.4201035499572754	0.0042654728	No	
row_5	THAP10	NA	955	0.4079972505569458	0.0075921966	No	
row_6	PML	NA	968	0.4058791697025299	0.013702807	No	
row_7	UBE2F	NA	995	0.40049371123313904	0.019044194	No	
row_8	DNAJC9-AS1	NA	1416	0.3491021990776062	0.004389504	No	
row_9	GPC6	NA	1674	0.3269403576850891	-0.0027088316	No	
row_10	RNF207	NA	2102	0.29777565598487854	-0.018550208	No	
row_11	METTL25	NA	2256	0.28952568769454956	-0.021211158	No	
row_12	DCXR	NA	2286	0.2881036400794983	-0.017869124	No	
row_13	WRAP53	NA	2873	0.25948023796081543	-0.042069525	No	
row_14	PIGL	NA	2939	0.25713324546813965	-0.040987868	No	
row_15	ZNF582	NA	2976	0.2552129030227661	-0.038528472	No	
row_16	LINC01547	NA	3114	0.24980390071868896	-0.04106692	No	
row_17	C12orf76	NA	3273	0.2431955337524414	-0.044734955	No	
row_18	WNT2B	NA	3283	0.2428349107503891	-0.04116749	No	
row_19	STAT1	NA	3523	0.23432879149913788	-0.04891838	No	
row_20	LINC00652	NA	3659	0.22966310381889343	-0.05169179	No	
row_21	ZNF581	NA	3695	0.2283235490322113	-0.04962726	No	
row_22	ADRA1A	NA	4036	0.2171456515789032	-0.06257017	No	
row_23	NR1H2	NA	4328	0.20839455723762512	-0.07327599	No	
row_24	MLEC	NA	4440	0.20492510497570038	-0.07529097	No	
row_25	FAM207A	NA	4545	0.20198103785514832	-0.077014305	No	
row_26	DRG2	NA	4559	0.20168714225292206	-0.074319854	No	
row_27	KPTN	NA	4625	0.19966016709804535	-0.07418606	No	
row_28	B3GAT3	NA	4737	0.19647450745105743	-0.07634041	No	
row_29	WDR11-AS1	NA	5108	0.18657349050045013	-0.091245525	No	
row_30	ATF7IP	NA	5466	0.17611968517303467	-0.10569125	No	
row_31	PLK1	NA	5515	0.17511440813541412	-0.10513605	No	
row_32	TSPAN10	NA	5528	0.1746799647808075	-0.10283841	No	
row_33	ZNF582-AS1	NA	5691	0.17054355144500732	-0.10789903	No	
row_34	SCARNA2	NA	5968	0.16307857632637024	-0.118623205	No	
row_35	ZNF221	NA	6327	0.1540355533361435	-0.13348174	No	
row_36	ADPRHL1	NA	6442	0.1512100249528885	-0.1365284	No	
row_37	PSTK	NA	6498	0.14988966286182404	-0.13672942	No	
row_38	KRTDAP	NA	6499	0.1498822271823883	-0.13425754	No	
row_39	SIL1	NA	6719	0.1445828378200531	-0.14251652	No	
row_40	LRRC49	NA	6736	0.14400812983512878	-0.14091913	No	
row_41	NKAPP1	NA	6765	0.1433812826871872	-0.13991527	No	
row_42	ANKRD13A	NA	6854	0.14124053716659546	-0.14186275	No	
row_43	ZNF276	NA	6879	0.14078938961029053	-0.14070724	No	
row_44	HIRA	NA	6947	0.13927356898784637	-0.14166655	No	
row_45	THEM4	NA	7146	0.13468419015407562	-0.14906818	No	
row_46	THUMPD3-AS1	NA	7284	0.13119111955165863	-0.1535628	No	
row_47	WDR83	NA	7463	0.1266460120677948	-0.16012499	No	
row_48	POU2F2	NA	7491	0.1259695440530777	-0.1593597	No	
row_49	ADPRM	NA	7582	0.12368776649236679	-0.16169384	No	
row_50	BANF1	NA	7788	0.11859089136123657	-0.16970108	No	
row_51	PRRG2	NA	8055	0.11181236058473587	-0.18078475	No	
row_52	MARK4	NA	8134	0.10997791588306427	-0.1827618	No	
row_53	MINPP1	NA	8236	0.10760797560214996	-0.18589574	No	
row_54	SREK1IP1	NA	8262	0.10705513507127762	-0.18534519	No	
row_55	WDPCP	NA	8405	0.10367242246866226	-0.19053665	No	
row_56	NOC4L	NA	8820	0.09353853762149811	-0.20911452	No	
row_57	PPIL3	NA	8985	0.0900438204407692	-0.21559997	No	
row_58	SLC39A3	NA	9003	0.08976732194423676	-0.21494572	No	
row_59	RSPO2	NA	9035	0.08913952857255936	-0.21498223	No	
row_60	MITD1	NA	9045	0.08900343626737595	-0.21395177	No	
row_61	NSL1	NA	9143	0.0861390009522438	-0.21724539	No	
row_62	CCDC59	NA	9378	0.08076489716768265	-0.22728588	No	
row_63	FBXO7	NA	9497	0.07764559239149094	-0.23174016	No	
row_64	ZNF569	NA	9557	0.07609283924102783	-0.23335265	No	
row_65	PSORS1C1	NA	9681	0.07241062074899673	-0.23813629	No	
row_66	PCID2	NA	9692	0.07221969217061996	-0.23743123	No	
row_67	SLC33A1	NA	9807	0.069598488509655	-0.24182384	No	
row_68	WDR31	NA	9808	0.0695473849773407	-0.24067685	No	
row_69	GTPBP3	NA	9896	0.06763166934251785	-0.24378969	No	
row_70	TVP23B	NA	10003	0.06498195230960846	-0.24786963	No	
row_71	LINC02210	NA	10012	0.06481858342885971	-0.24718943	No	
row_72	MRPS34	NA	10018	0.06476034969091415	-0.2463644	No	
row_73	GUK1	NA	10028	0.06452672928571701	-0.24573763	No	
row_74	CFAP20	NA	10068	0.06349781155586243	-0.24658582	No	
row_75	TJP3	NA	10137	0.06137879192829132	-0.24887837	No	
row_76	MED9	NA	10251	0.05905752256512642	-0.2533962	No	
row_77	RPL36	NA	10256	0.05892882123589516	-0.25261876	No	
row_78	DNAJC10	NA	10278	0.058342721313238144	-0.25267717	No	
row_79	FAM185A	NA	10440	0.05486448109149933	-0.259597	No	
row_80	SNRPD3	NA	10678	0.049039795994758606	-0.2703065	No	
row_81	GTF2B	NA	10766	0.04698833078145981	-0.27375978	No	
row_82	RNF6	NA	10769	0.04695230722427368	-0.27308264	No	
row_83	GBA	NA	10782	0.046515319496393204	-0.2728987	No	
row_84	SAR1B	NA	10848	0.04487793520092964	-0.2753176	No	
row_85	SMARCD2	NA	10861	0.0444856658577919	-0.27516714	No	
row_86	MPLKIP	NA	10928	0.042741283774375916	-0.27766985	No	
row_87	PPHLN1	NA	10935	0.04259088262915611	-0.27725905	No	
row_88	NCBP3	NA	11044	0.04004920646548271	-0.2818474	No	
row_89	ZCRB1	NA	11163	0.0368066132068634	-0.2869752	No	
row_90	TMEM242	NA	11250	0.03474323824048042	-0.29058185	No	
row_91	ACTR3	NA	11407	0.03050077334046364	-0.29766047	No	
row_92	SNRNP27	NA	11422	0.030154606327414513	-0.29784355	No	
row_93	PAFAH1B3	NA	11492	0.02863253466784954	-0.30072477	No	
row_94	SLC39A13	NA	11523	0.028039230033755302	-0.30172035	No	
row_95	PDE6D	NA	11592	0.026318421587347984	-0.30459112	No	
row_96	CCNC	NA	11757	0.022081319242715836	-0.31219742	No	
row_97	METTL9	NA	11774	0.021701421588659286	-0.3126171	No	
row_98	MRPL48	NA	11819	0.020646434277296066	-0.314415	No	
row_99	C3orf38	NA	11867	0.019556744024157524	-0.3163767	No	
row_100	CGGBP1	NA	11894	0.01876053214073181	-0.3173309	No	
row_101	NDUFA12	NA	11901	0.018578702583909035	-0.31731611	No	
row_102	METTL15	NA	11972	0.01692190393805504	-0.32043904	No	
row_103	RPL38	NA	11983	0.016659772023558617	-0.3206503	No	
row_104	TLE6	NA	12040	0.015147021040320396	-0.3231221	No	
row_105	NDUFC2	NA	12044	0.014934591948986053	-0.3230216	No	
row_106	AAR2	NA	12256	0.009260967373847961	-0.33312353	No	
row_107	CCNL1	NA	12292	0.008367953822016716	-0.33468655	No	
row_108	USPL1	NA	12334	0.007068289443850517	-0.33656257	No	
row_109	GNB2	NA	12402	0.005148714873939753	-0.3397339	No	
row_110	SRP9	NA	12484	0.0032318837475031614	-0.34361723	No	
row_111	H2BC15	NA	12547	0.0016646351432427764	-0.34660298	No	
row_112	C19orf53	NA	12621	-2.8688463498838246E-4	-0.35014609	No	
row_113	MRPS23	NA	12712	-0.002671413356438279	-0.35447603	No	
row_114	VPS51	NA	12735	-0.003132047364488244	-0.3554936	No	
row_115	MED18	NA	12794	-0.004377927631139755	-0.35824022	No	
row_116	RPL13	NA	12835	-0.005735260434448719	-0.36008963	No	
row_117	SNHG17	NA	12960	-0.009585530497133732	-0.365958	No	
row_118	UBB	NA	12970	-0.009942129254341125	-0.36623144	No	
row_119	TPM3	NA	13007	-0.01115486305207014	-0.36779708	No	
row_120	SMARCD1	NA	13137	-0.01509780902415514	-0.3738175	No	
row_121	NDUFB3	NA	13156	-0.015721648931503296	-0.37443304	No	
row_122	RPS7	NA	13202	-0.01742006093263626	-0.37633276	No	
row_123	RPL8	NA	13264	-0.019312985241413116	-0.37897888	No	
row_124	NSA2	NA	13276	-0.019464921206235886	-0.37919244	No	
row_125	TOR1AIP1	NA	13325	-0.02062922716140747	-0.38118505	No	
row_126	UTP3	NA	13328	-0.0206874068826437	-0.38094106	No	
row_127	CALM2	NA	13336	-0.02092491090297699	-0.38093618	No	
row_128	MRPL39	NA	13346	-0.02111402340233326	-0.38102537	No	
row_129	SEC22B	NA	13416	-0.023316640406847	-0.38399425	No	
row_130	GEMIN7	NA	13420	-0.023454807698726654	-0.3837532	No	
row_131	PCLAF	NA	13425	-0.023599136620759964	-0.38355842	No	
row_132	TRAF6	NA	13437	-0.023922521620988846	-0.3836985	No	
row_133	SELENOH	NA	13478	-0.024944480508565903	-0.3852311	No	
row_134	EME2	NA	13508	-0.025933777913451195	-0.38621283	No	
row_135	TOX4	NA	13523	-0.02638762630522251	-0.38645804	No	
row_136	ARL1	NA	13534	-0.026592006906867027	-0.38650548	No	
row_137	MCAT	NA	13668	-0.03051413968205452	-0.39246607	No	
row_138	RPS2	NA	13723	-0.031948644667863846	-0.3945636	No	
row_139	NORAD	NA	13786	-0.03403696417808533	-0.39701548	No	
row_140	YJU2	NA	13802	-0.03456901013851166	-0.39717436	No	
row_141	CBX3	NA	13827	-0.03525843843817711	-0.3977593	No	
row_142	PSMF1	NA	13889	-0.03713250160217285	-0.4001115	No	
row_143	CIAO3	NA	13897	-0.03748473525047302	-0.3998335	No	
row_144	MFSD4A	NA	13899	-0.037616606801748276	-0.39926174	No	
row_145	HNRNPA2B1	NA	13912	-0.03789404407143593	-0.39922	No	
row_146	ZNF579	NA	13965	-0.0400676466524601	-0.4010864	No	
row_147	EXOSC3	NA	13970	-0.04033414274454117	-0.4006156	No	
row_148	MDH1	NA	14078	-0.043715253472328186	-0.40509486	No	
row_149	NIF3L1	NA	14094	-0.04415830969810486	-0.4050956	No	
row_150	GINS3	NA	14118	-0.04497579112648964	-0.40547168	No	
row_151	TACO1	NA	14178	-0.046793848276138306	-0.40756735	No	
row_152	MATR3	NA	14194	-0.04709848761558533	-0.4075196	No	
row_153	TPRKB	NA	14229	-0.04806036874651909	-0.4083794	No	
row_154	TBC1D19	NA	14264	-0.04920652136206627	-0.4092203	No	
row_155	ANAPC5	NA	14336	-0.0521431528031826	-0.41181096	No	
row_156	NOSIP	NA	14340	-0.052310213446617126	-0.41109407	No	
row_157	LZIC	NA	14352	-0.05256377533078194	-0.41076177	No	
row_158	COPS7B	NA	14426	-0.05491955205798149	-0.41340387	No	
row_159	EXD3	NA	14439	-0.055351622402668	-0.4130742	No	
row_160	CACYBP	NA	14514	-0.05807358771562576	-0.41571286	No	
row_161	NDUFA13	NA	14516	-0.058111514896154404	-0.4148031	No	
row_162	MRPL30	NA	14555	-0.05923030525445938	-0.41567305	No	
row_163	VPS9D1	NA	14568	-0.05961380526423454	-0.4152731	No	
row_164	NUF2	NA	14591	-0.060430217534303665	-0.4153457	No	
row_165	BRF2	NA	14595	-0.06056806445121765	-0.41449258	No	
row_166	SCNM1	NA	14606	-0.060936324298381805	-0.41397363	No	
row_167	CASP7	NA	14612	-0.06116051599383354	-0.41320795	No	
row_168	DCP1A	NA	14642	-0.0623452253639698	-0.41358915	No	
row_169	TUBGCP3	NA	14649	-0.06265494227409363	-0.41284746	No	
row_170	CLIP1	NA	14667	-0.06319544464349747	-0.41263142	No	
row_171	SMG8	NA	14703	-0.06444978713989258	-0.41326952	No	
row_172	ANAPC10	NA	14727	-0.06535306572914124	-0.4133095	No	
row_173	TBC1D31	NA	14738	-0.06567082554101944	-0.41271245	No	
row_174	TRIP4	NA	14761	-0.06659514456987381	-0.41268337	No	
row_175	EIF1AD	NA	14767	-0.06680092960596085	-0.4118247	No	
row_176	SPAG8	NA	14779	-0.06727214902639389	-0.41124982	No	
row_177	MICAL3	NA	14822	-0.06873272359371185	-0.4121575	No	
row_178	NPLOC4	NA	14857	-0.07006088644266129	-0.41265446	No	
row_179	C6orf226	NA	14980	-0.07454454153776169	-0.4173543	Yes	
row_180	ALKBH3	NA	14987	-0.07484306395053864	-0.41641158	Yes	
row_181	NUP107	NA	15005	-0.0756915807723999	-0.41598946	Yes	
row_182	COX16	NA	15006	-0.07574856281280518	-0.4147402	Yes	
row_183	KRR1	NA	15020	-0.07611283659934998	-0.41411674	Yes	
row_184	ZNF233	NA	15042	-0.07685574889183044	-0.41386983	Yes	
row_185	PUS10	NA	15047	-0.0770115777850151	-0.41279414	Yes	
row_186	OBI1	NA	15078	-0.07821068912744522	-0.4129623	Yes	
row_187	HINT3	NA	15145	-0.08060631155967712	-0.41484055	Yes	
row_188	SUPT7L	NA	15188	-0.08222299814224243	-0.41552573	Yes	
row_189	ADAP2	NA	15217	-0.08297164738178253	-0.41551816	Yes	
row_190	GUCD1	NA	15219	-0.08304432034492493	-0.41419718	Yes	
row_191	ARMT1	NA	15222	-0.08318141102790833	-0.41292253	Yes	
row_192	RPL26L1	NA	15253	-0.0844583809375763	-0.41298765	Yes	
row_193	STX16	NA	15254	-0.08452876657247543	-0.4115936	Yes	
row_194	VTA1	NA	15327	-0.08693772554397583	-0.41365904	Yes	
row_195	CDC16	NA	15339	-0.08739428967237473	-0.4127523	Yes	
row_196	GARS1	NA	15340	-0.08739711344242096	-0.41131094	Yes	
row_197	TRMT112	NA	15398	-0.08981532603502274	-0.41259992	Yes	
row_198	MRPS31	NA	15412	-0.09029912203550339	-0.4117425	Yes	
row_199	STX18-AS1	NA	15439	-0.09131292998790741	-0.41150016	Yes	
row_200	AURKAIP1	NA	15449	-0.09156399965286255	-0.41042748	Yes	
row_201	ZNF225	NA	15466	-0.09227713942527771	-0.40968323	Yes	
row_202	STOML1	NA	15484	-0.09291601926088333	-0.40897706	Yes	
row_203	MRPL44	NA	15490	-0.09310731291770935	-0.40768453	Yes	
row_204	CCDC32	NA	15501	-0.09336294233798981	-0.40663078	Yes	
row_205	ANO8	NA	15553	-0.0955718532204628	-0.4075332	Yes	
row_206	GTF3C5	NA	15568	-0.09601962566375732	-0.40663004	Yes	
row_207	COMMD9	NA	15604	-0.09734788537025452	-0.4067256	Yes	
row_208	TOB2	NA	15609	-0.09750866144895554	-0.40531185	Yes	
row_209	ARL5B	NA	15621	-0.09780298918485641	-0.4042335	Yes	
row_210	ZNF461	NA	15724	-0.10160687565803528	-0.407515	Yes	
row_211	TMEM79	NA	15729	-0.10171427577733994	-0.4060319	Yes	
row_212	SNAP47	NA	15761	-0.10269778966903687	-0.4058448	Yes	
row_213	GARS1-DT	NA	15777	-0.10339321941137314	-0.40486863	Yes	
row_214	PRMT5	NA	15803	-0.10413913428783417	-0.40436617	Yes	
row_215	USP30	NA	15904	-0.10773764550685883	-0.4074494	Yes	
row_216	ZNF227	NA	15916	-0.10839185118675232	-0.40619636	Yes	
row_217	CHD9	NA	15944	-0.10962998867034912	-0.40570053	Yes	
row_218	MNAT1	NA	15973	-0.1112261489033699	-0.405227	Yes	
row_219	RBM42	NA	15978	-0.11135689169168472	-0.4035849	Yes	
row_220	RGS5	NA	16061	-0.11458445340394974	-0.40568036	Yes	
row_221	FRA10AC1	NA	16100	-0.11646886169910431	-0.40560636	Yes	
row_222	MRPS16	NA	16123	-0.11750757694244385	-0.40473762	Yes	
row_223	CBLL1	NA	16148	-0.11841672658920288	-0.40395108	Yes	
row_224	WDR70	NA	16169	-0.11922739446163177	-0.40295678	Yes	
row_225	TMEM267	NA	16183	-0.11977566033601761	-0.4016132	Yes	
row_226	SENP1	NA	16208	-0.12078478932380676	-0.40078762	Yes	
row_227	ZBTB45	NA	16213	-0.12118847668170929	-0.39898336	Yes	
row_228	GTF3C3	NA	16279	-0.12478067725896835	-0.4000845	Yes	
row_229	CENPU	NA	16310	-0.12583911418914795	-0.39946714	Yes	
row_230	COPS2	NA	16318	-0.12613025307655334	-0.3977272	Yes	
row_231	ITGB3BP	NA	16326	-0.12679287791252136	-0.3959763	Yes	
row_232	VPS36	NA	16435	-0.131001278758049	-0.39906466	Yes	
row_233	NMNAT1	NA	16440	-0.13106223940849304	-0.39709756	Yes	
row_234	INTS5	NA	16444	-0.13126762211322784	-0.39507848	Yes	
row_235	PSMB6	NA	16459	-0.13192729651927948	-0.39358312	Yes	
row_236	TTC4	NA	16474	-0.13257996737957	-0.392077	Yes	
row_237	RRP15	NA	16490	-0.1336207091808319	-0.39060232	Yes	
row_238	CSTF2T	NA	16520	-0.13517805933952332	-0.38978234	Yes	
row_239	CAB39L	NA	16528	-0.13560405373573303	-0.38788614	Yes	
row_240	CTNNB1	NA	16530	-0.13572999835014343	-0.38569626	Yes	
row_241	COMMD2	NA	16565	-0.13745181262493134	-0.3850818	Yes	
row_242	SFSWAP	NA	16584	-0.13834528625011444	-0.383675	Yes	
row_243	MRPL40	NA	16595	-0.13887172937393188	-0.38187072	Yes	
row_244	EXOC2	NA	16601	-0.13925302028656006	-0.37981713	Yes	
row_245	DUS1L	NA	16636	-0.14065830409526825	-0.3791498	Yes	
row_246	CUL4A	NA	16645	-0.14124998450279236	-0.37720907	Yes	
row_247	TATDN3	NA	16693	-0.1431165486574173	-0.37713298	Yes	
row_248	KDM5A	NA	16705	-0.14359153807163239	-0.37529945	Yes	
row_249	FZD1	NA	16724	-0.14416979253292084	-0.3737966	Yes	
row_250	ZFP14	NA	16741	-0.14507660269737244	-0.3721816	Yes	
row_251	MED23	NA	16748	-0.14525330066680908	-0.37007764	Yes	
row_252	KCTD5	NA	16780	-0.14673970639705658	-0.3691642	Yes	
row_253	NDUFS3	NA	16781	-0.14676053822040558	-0.3667438	Yes	
row_254	NOP16	NA	16816	-0.1483737975358963	-0.3659492	Yes	
row_255	MTF2	NA	16847	-0.14967183768749237	-0.36493883	Yes	
row_256	WDR11	NA	16867	-0.15094290673732758	-0.36337286	Yes	
row_257	NDUFS7	NA	16916	-0.15335078537464142	-0.36317658	Yes	
row_258	STX18	NA	16917	-0.15337017178535461	-0.3606472	Yes	
row_259	KANSL1	NA	16941	-0.15435829758644104	-0.3592193	Yes	
row_260	TOP3B	NA	16975	-0.155897319316864	-0.35825205	Yes	
row_261	THUMPD1	NA	17004	-0.1571500450372696	-0.3570211	Yes	
row_262	CCDC88A	NA	17096	-0.16163793206214905	-0.35877797	Yes	
row_263	KBTBD4	NA	17122	-0.16320611536502838	-0.35730135	Yes	
row_264	ISY1	NA	17133	-0.16365058720111847	-0.3550884	Yes	
row_265	VPS25	NA	17139	-0.16397269070148468	-0.35262716	Yes	
row_266	KNL1	NA	17224	-0.16804051399230957	-0.35393825	Yes	
row_267	OGT	NA	17275	-0.1713017076253891	-0.35354313	Yes	
row_268	DPY19L4	NA	17317	-0.17358048260211945	-0.35267302	Yes	
row_269	NUP43	NA	17324	-0.17415429651737213	-0.35009244	Yes	
row_270	C17orf75	NA	17429	-0.18027912080287933	-0.3521737	Yes	
row_271	PDE4A	NA	17521	-0.18507245182991028	-0.3535441	Yes	
row_272	RTTN	NA	17584	-0.18891142308712006	-0.35344175	Yes	
row_273	NSFL1C	NA	17653	-0.1922018826007843	-0.35357675	Yes	
row_274	DDX51	NA	17663	-0.1925020068883896	-0.35083938	Yes	
row_275	WWOX	NA	17665	-0.19268259406089783	-0.34771025	Yes	
row_276	DPP9	NA	17765	-0.19758300483226776	-0.3492631	Yes	
row_277	MRPS18C	NA	17846	-0.2019956260919571	-0.3498198	Yes	
row_278	EDC4	NA	17851	-0.20215606689453125	-0.34668022	Yes	
row_279	SNAP23	NA	17852	-0.20227771997451782	-0.3433442	Yes	
row_280	INO80C	NA	17853	-0.20239518582820892	-0.3400063	Yes	
row_281	SSBP1	NA	17867	-0.20325978100299835	-0.3372859	Yes	
row_282	DTWD1	NA	17897	-0.20501884818077087	-0.33531412	Yes	
row_283	INTS12	NA	17928	-0.20737972855567932	-0.333352	Yes	
row_284	MTMR9	NA	17933	-0.20777225494384766	-0.3301198	Yes	
row_285	GFM2	NA	17960	-0.20962044596672058	-0.3279263	Yes	
row_286	TMEM41A	NA	17981	-0.21133695542812347	-0.3254129	Yes	
row_287	ARMH3	NA	18003	-0.21262973546981812	-0.3229268	Yes	
row_288	TBL3	NA	18046	-0.2159559279680252	-0.32140645	Yes	
row_289	EFCAB7	NA	18068	-0.21714438498020172	-0.31884587	Yes	
row_290	TUT1	NA	18099	-0.2190203219652176	-0.31669176	Yes	
row_291	COASY	NA	18172	-0.2241125851869583	-0.3164949	Yes	
row_292	CDK5RAP1	NA	18187	-0.22504696249961853	-0.3134638	Yes	
row_293	ZER1	NA	18264	-0.23037120699882507	-0.3133581	Yes	
row_294	ASCC1	NA	18272	-0.23113353550434113	-0.30988643	Yes	
row_295	TARS2	NA	18273	-0.2312372773885727	-0.30607283	Yes	
row_296	ABCE1	NA	18282	-0.2322431206703186	-0.30263144	Yes	
row_297	SLC4A1AP	NA	18284	-0.2322726994752884	-0.29884937	Yes	
row_298	VPS13B	NA	18308	-0.2332383394241333	-0.29612058	Yes	
row_299	GFI1	NA	18334	-0.2359074205160141	-0.29344496	Yes	
row_300	PPFIA3	NA	18353	-0.23699383437633514	-0.29041123	Yes	
row_301	YBEY	NA	18364	-0.23730890452861786	-0.28698352	Yes	
row_302	PAXBP1	NA	18367	-0.23747558891773224	-0.28316423	Yes	
row_303	MZF1	NA	18399	-0.24001763761043549	-0.28071246	Yes	
row_304	NSUN6	NA	18413	-0.24154749512672424	-0.27736062	Yes	
row_305	FAM227B	NA	18420	-0.2422834038734436	-0.27365646	Yes	
row_306	MRPL1	NA	18421	-0.24237798154354095	-0.2696591	Yes	
row_307	SCO1	NA	18436	-0.24362170696258545	-0.2663217	Yes	
row_308	GABPB2	NA	18479	-0.24734528362751007	-0.26428363	Yes	
row_309	U2AF1L4	NA	18499	-0.2492256760597229	-0.26109678	Yes	
row_310	CCAR2	NA	18502	-0.2494240254163742	-0.25708044	Yes	
row_311	AGK	NA	18527	-0.2510835528373718	-0.25410596	Yes	
row_312	ADPGK	NA	18565	-0.25327974557876587	-0.25172704	Yes	
row_313	BPNT1	NA	18580	-0.25491005182266235	-0.24820343	Yes	
row_314	MTRF1	NA	18581	-0.25493544340133667	-0.243999	Yes	
row_315	ZNF580	NA	18643	-0.25923752784729004	-0.24268824	Yes	
row_316	GALK2	NA	18673	-0.26179641485214233	-0.23978007	Yes	
row_317	MBTPS2	NA	18779	-0.2709847390651703	-0.24041398	Yes	
row_318	WEE2-AS1	NA	18829	-0.27530738711357117	-0.238255	Yes	
row_319	PEX13	NA	18843	-0.27691468596458435	-0.23431988	Yes	
row_320	DHX33	NA	18873	-0.279281884431839	-0.23112334	Yes	
row_321	AP3S2	NA	18892	-0.2820655107498169	-0.22734629	Yes	
row_322	NKAP	NA	18933	-0.2860020399093628	-0.22457351	Yes	
row_323	NUP155	NA	18947	-0.28707796335220337	-0.22047079	Yes	
row_324	SUPT5H	NA	19009	-0.2937205731868744	-0.21859133	Yes	
row_325	ALG10B	NA	19010	-0.29373160004615784	-0.21374707	Yes	
row_326	CCDC163	NA	19028	-0.29688355326652527	-0.20967703	Yes	
row_327	MPHOSPH10	NA	19045	-0.29836127161979675	-0.20553401	Yes	
row_328	TEFM	NA	19046	-0.2984932065010071	-0.20061122	Yes	
row_329	PLEKHM3	NA	19049	-0.2988528609275818	-0.19577971	Yes	
row_330	PEX3	NA	19077	-0.30223575234413147	-0.1921074	Yes	
row_331	YIPF2	NA	19080	-0.3025829792022705	-0.18721436	Yes	
row_332	DDX55	NA	19092	-0.3043310046195984	-0.1827299	Yes	
row_333	BBS1	NA	19177	-0.3134808838367462	-0.18164235	Yes	
row_334	ADAT2	NA	19183	-0.3143318295478821	-0.17670135	Yes	
row_335	NME1	NA	19213	-0.3171650767326355	-0.17288004	Yes	
row_336	ALG10	NA	19237	-0.32024967670440674	-0.16871624	Yes	
row_337	SF3A3	NA	19285	-0.3252108097076416	-0.16563703	Yes	
row_338	MAN2C1	NA	19288	-0.32555678486824036	-0.1603651	Yes	
row_339	JMJD4	NA	19308	-0.32795199751853943	-0.15587988	Yes	
row_340	AARS2	NA	19315	-0.3292014002799988	-0.15074225	Yes	
row_341	GSTCD	NA	19333	-0.33204227685928345	-0.14609237	Yes	
row_342	WDR24	NA	19379	-0.3387719988822937	-0.14269231	Yes	
row_343	FAM98B	NA	19435	-0.3460942506790161	-0.1396575	Yes	
row_344	SMG5	NA	19490	-0.3539344370365143	-0.13644478	Yes	
row_345	LSG1	NA	19497	-0.3548148274421692	-0.13088472	Yes	
row_346	PFKM	NA	19516	-0.35679391026496887	-0.12587523	Yes	
row_347	DMAP1	NA	19529	-0.3596879243850708	-0.120526426	Yes	
row_348	ZNF570	NA	19563	-0.3644527494907379	-0.11611963	Yes	
row_349	KDM5C	NA	19589	-0.36827847361564636	-0.111260936	Yes	
row_350	BMS1	NA	19627	-0.374017596244812	-0.1068908	Yes	
row_351	ZNF391	NA	19656	-0.38037461042404175	-0.10197842	Yes	
row_352	INTS14	NA	19734	-0.39300668239593506	-0.099239126	Yes	
row_353	MTIF2	NA	19735	-0.3933342695236206	-0.0927522	Yes	
row_354	HELQ	NA	19799	-0.4057672619819641	-0.08912206	Yes	
row_355	CCDC77	NA	19801	-0.406375527381897	-0.08246866	Yes	
row_356	NDUFAF1	NA	19825	-0.41015443205833435	-0.07682214	Yes	
row_357	POLR1F	NA	19858	-0.4175141453742981	-0.07149165	Yes	
row_358	RBM28	NA	19891	-0.42443013191223145	-0.0660471	Yes	
row_359	JPX	NA	19892	-0.42462223768234253	-0.059044175	Yes	
row_360	FEM1B	NA	19898	-0.4257107675075531	-0.052266296	Yes	
row_361	ZNF165	NA	19902	-0.4261786639690399	-0.0453835	Yes	
row_362	FAN1	NA	20022	-0.45659682154655457	-0.043636683	Yes	
row_363	MCM3AP	NA	20078	-0.47153523564338684	-0.038533077	Yes	
row_364	COQ4	NA	20121	-0.4844015836715698	-0.032585476	Yes	
row_365	TTC26	NA	20188	-0.5007398128509521	-0.027534826	Yes	
row_366	ZNF282	NA	20207	-0.5076465606689453	-0.020037455	Yes	
row_367	WDR36	NA	20226	-0.5136459469795227	-0.012441143	Yes	
row_368	IPO4	NA	20294	-0.5404906272888184	-0.006783521	Yes	
row_369	TMEM101	NA	20329	-0.5513728857040405	6.573851E-4	Yes	
row_370	ZNF106	NA	20424	-0.6000831723213196	0.0059856083	Yes	
row_371	DNAJC6	NA	20836	-1.1753350496292114	0.0053946646	Yes	
