NAME	SYMBOL	TITLE	RANK IN GENE LIST	RANK METRIC SCORE	RUNNING ES	CORE ENRICHMENT	
row_0	SREBF1	NA	587	0.4992419183254242	-0.002073937	No	
row_1	ARHGAP9	NA	1963	0.30726170539855957	-0.05197502	No	
row_2	RAD51B	NA	3754	0.22606585919857025	-0.12602405	No	
row_3	NUCB1	NA	3968	0.21925905346870422	-0.12478596	No	
row_4	CASZ1	NA	4128	0.2143857330083847	-0.12121229	No	
row_5	C1QTNF1	NA	4315	0.20864993333816528	-0.11923337	No	
row_6	DNAI1	NA	4687	0.1977607160806656	-0.1266971	No	
row_7	NOS3	NA	5022	0.1889389455318451	-0.13284694	No	
row_8	TBX6	NA	5073	0.187384694814682	-0.12545559	No	
row_9	DDX23	NA	5300	0.18056023120880127	-0.12686282	No	
row_10	PRIM1	NA	6391	0.15268704295158386	-0.17116907	No	
row_11	MRPL34	NA	7998	0.1129625141620636	-0.24230127	No	
row_12	DLX1	NA	8088	0.11087676882743835	-0.24077764	No	
row_13	AAMP	NA	8815	0.09369660913944244	-0.2707061	No	
row_14	POC1A	NA	8913	0.09130733460187912	-0.27058858	No	
row_15	NRK	NA	8956	0.09048689901828766	-0.2678758	No	
row_16	LAMTOR2	NA	9487	0.07782462984323502	-0.28923205	No	
row_17	TSNAXIP1	NA	9739	0.07116955518722534	-0.2975534	No	
row_18	MIR137HG	NA	9921	0.06683806329965591	-0.3027434	No	
row_19	ARNTL	NA	9939	0.06631288677453995	-0.30009443	No	
row_20	PNKD	NA	9966	0.06579508632421494	-0.29790416	No	
row_21	DDAH2	NA	10428	0.05503474548459053	-0.31714138	No	
row_22	SMARCAL1	NA	10817	0.045597996562719345	-0.33337006	No	
row_23	PTCD3	NA	10849	0.044825997203588486	-0.33251515	No	
row_24	ETV6	NA	10886	0.043825551867485046	-0.3319523	No	
row_25	PRPF19	NA	11079	0.03897576779127121	-0.3391256	No	
row_26	SGF29	NA	11140	0.03728976845741272	-0.3400554	No	
row_27	MPP2	NA	11286	0.0335981547832489	-0.34525523	No	
row_28	SAP30	NA	11351	0.031848110258579254	-0.3466612	No	
row_29	TRIP10	NA	11578	0.026719119399785995	-0.35610566	No	
row_30	CCDC90B	NA	11726	0.022825032472610474	-0.36196423	No	
row_31	IL4I1	NA	12018	0.015771767124533653	-0.37509844	No	
row_32	B3GALNT2	NA	12102	0.01322251744568348	-0.37838885	No	
row_33	USPL1	NA	12334	0.007068289443850517	-0.38909978	No	
row_34	ARF6	NA	12351	0.0065451753325760365	-0.38952526	No	
row_35	PHF23	NA	12529	0.0020669675432145596	-0.39790732	No	
row_36	GSK3A	NA	12566	0.0010841850889846683	-0.39957747	No	
row_37	RPS27A	NA	13025	-0.011575497686862946	-0.42094123	No	
row_38	FEZF2	NA	13030	-0.011742765083909035	-0.42051962	No	
row_39	JARID2	NA	13703	-0.031430136412382126	-0.4511109	No	
row_40	NUP62	NA	13721	-0.031922049820423126	-0.4502586	No	
row_41	MARS1	NA	13878	-0.036879245191812515	-0.45581463	No	
row_42	RPL23A	NA	13905	-0.03771475702524185	-0.4550914	No	
row_43	IMMT	NA	13916	-0.037987396121025085	-0.45358646	No	
row_44	POLR1B	NA	14034	-0.042394768446683884	-0.45698366	No	
row_45	MDH1	NA	14078	-0.043715253472328186	-0.45676234	No	
row_46	INVS	NA	14235	-0.04816446453332901	-0.46172878	No	
row_47	PSENEN	NA	14374	-0.05317627638578415	-0.46557	No	
row_48	SPEF1	NA	14420	-0.0547766238451004	-0.46486676	No	
row_49	KLHL20	NA	14511	-0.058051079511642456	-0.4661509	No	
row_50	BRD8	NA	14688	-0.06384159624576569	-0.47125766	No	
row_51	PSMC4	NA	14753	-0.06631956994533539	-0.47086272	No	
row_52	PHF6	NA	14794	-0.06776536256074905	-0.46924105	No	
row_53	BABAM1	NA	14887	-0.07148610055446625	-0.46991923	No	
row_54	PNPLA6	NA	14905	-0.072091244161129	-0.46696836	No	
row_55	OTX2	NA	15528	-0.09451089054346085	-0.49186575	No	
row_56	CDC40	NA	15629	-0.09803210943937302	-0.49154082	No	
row_57	POLR1A	NA	15798	-0.10401590168476105	-0.49416497	No	
row_58	PURA	NA	15970	-0.1110328733921051	-0.4965664	No	
row_59	COX7B	NA	16269	-0.12443794310092926	-0.50435925	No	
row_60	NUP153	NA	16395	-0.12959598004817963	-0.50358444	No	
row_61	IFRD2	NA	16537	-0.13597968220710754	-0.5032436	No	
row_62	VAC14	NA	16554	-0.1367245465517044	-0.4968681	No	
row_63	VPS41	NA	16849	-0.1497572809457779	-0.5031463	No	
row_64	UBQLN4	NA	17283	-0.17158730328083038	-0.5149513	No	
row_65	OGG1	NA	17534	-0.18602745234966278	-0.51722413	Yes	
row_66	PUS3	NA	17560	-0.1878008395433426	-0.50861186	Yes	
row_67	FAM219A	NA	17720	-0.19539384543895721	-0.5060304	Yes	
row_68	KPNB1	NA	17904	-0.20537741482257843	-0.5040785	Yes	
row_69	WASF1	NA	17923	-0.2072066217660904	-0.4941167	Yes	
row_70	DCAF1	NA	17950	-0.20916742086410522	-0.48443612	Yes	
row_71	CCDC25	NA	18047	-0.21601974964141846	-0.47775522	Yes	
row_72	CRTC2	NA	18060	-0.21676360070705414	-0.4670063	Yes	
row_73	CUL2	NA	18164	-0.2237033247947693	-0.46025974	Yes	
row_74	SKP2	NA	18303	-0.2331606149673462	-0.45469788	Yes	
row_75	U2AF1L4	NA	18499	-0.2492256760597229	-0.45103085	Yes	
row_76	HOXA5	NA	18532	-0.2513853907585144	-0.43943244	Yes	
row_77	CLHC1	NA	18544	-0.2521282136440277	-0.42678797	Yes	
row_78	FOXO4	NA	18586	-0.25528743863105774	-0.41541743	Yes	
row_79	TMEM33	NA	18631	-0.2584731876850128	-0.40402436	Yes	
row_80	CLPB	NA	18680	-0.2626116871833801	-0.39260694	Yes	
row_81	NUDT13	NA	18774	-0.27082300186157227	-0.38291898	Yes	
row_82	RANBP10	NA	18825	-0.2748892307281494	-0.3709561	Yes	
row_83	FCSK	NA	18902	-0.28289473056793213	-0.35982203	Yes	
row_84	KBTBD8	NA	19307	-0.3278886675834656	-0.3620703	Yes	
row_85	PCGF6	NA	19395	-0.34014442563056946	-0.34847295	Yes	
row_86	GATB	NA	19445	-0.3469234108924866	-0.33269873	Yes	
row_87	CCDC150	NA	19530	-0.3601813316345215	-0.3179107	Yes	
row_88	ENOX2	NA	19588	-0.3682537376880646	-0.30140585	Yes	
row_89	MED24	NA	19590	-0.3683156371116638	-0.28221163	Yes	
row_90	MPI	NA	19893	-0.42474204301834106	-0.27450734	Yes	
row_91	CCDC6	NA	19909	-0.42706015706062317	-0.25291565	Yes	
row_92	ADAM22	NA	19988	-0.44946977496147156	-0.23317505	Yes	
row_93	BTRC	NA	20204	-0.5060145258903503	-0.21705173	Yes	
row_94	ATF5	NA	20338	-0.5543171763420105	-0.19447166	Yes	
row_95	NRDE2	NA	20594	-0.735010027885437	-0.16830342	Yes	
row_96	HES1	NA	20611	-0.7529000043869019	-0.1297366	Yes	
row_97	IFTAP	NA	20717	-0.8831878900527954	-0.088632055	Yes	
row_98	PAX6	NA	20745	-0.9389345049858093	-0.04087374	Yes	
row_99	DDX25	NA	20759	-0.9669132232666016	0.009017815	Yes	
