NAME	SYMBOL	TITLE	RANK IN GENE LIST	RANK METRIC SCORE	RUNNING ES	CORE ENRICHMENT	
row_0	TCIRG1	NA	65	1.3970719575881958	0.021497495	Yes	
row_1	OSM	NA	99	1.222000002861023	0.04145357	Yes	
row_2	GPR65	NA	109	1.1445348262786865	0.061203055	Yes	
row_3	BST2	NA	168	0.9367606043815613	0.07492098	Yes	
row_4	PTCH1	NA	246	0.778590738773346	0.08493156	Yes	
row_5	ISOC2	NA	248	0.7768159508705139	0.098582685	Yes	
row_6	ETV5	NA	254	0.7729305624961853	0.11197204	Yes	
row_7	OPTN	NA	256	0.7694330811500549	0.12549298	Yes	
row_8	HLA-F	NA	303	0.7144852876663208	0.13587075	Yes	
row_9	TLR7	NA	307	0.7119597792625427	0.1482815	Yes	
row_10	EPSTI1	NA	375	0.6286444664001465	0.15613085	Yes	
row_11	IL22RA1	NA	422	0.5961971879005432	0.16442259	Yes	
row_12	ISG15	NA	479	0.5494695901870728	0.1714071	Yes	
row_13	XAF1	NA	481	0.5472083687782288	0.18100902	Yes	
row_14	CXXC5	NA	504	0.5373232364654541	0.18942203	Yes	
row_15	DAPP1	NA	573	0.5048767328262329	0.19504037	Yes	
row_16	PYM1	NA	591	0.49827781319618225	0.20300636	Yes	
row_17	UBA7	NA	679	0.4702194035053253	0.20709555	Yes	
row_18	HLA-C	NA	693	0.467041015625	0.21470392	Yes	
row_19	H1-2	NA	700	0.46493789553642273	0.22261338	Yes	
row_20	IFNB1	NA	705	0.46415698528289795	0.23060572	Yes	
row_21	MS4A1	NA	758	0.44986286759376526	0.2360269	Yes	
row_22	DDX58	NA	772	0.44621196389198303	0.24326794	Yes	
row_23	LSP1	NA	855	0.4259689152240753	0.24681832	Yes	
row_24	EGR2	NA	926	0.4143144190311432	0.25074294	Yes	
row_25	PML	NA	968	0.4058791697025299	0.2559199	Yes	
row_26	LY86	NA	1020	0.3969407379627228	0.26045612	Yes	
row_27	GPR18	NA	1113	0.3831970691680908	0.26276907	Yes	
row_28	KRTAP8-1	NA	1181	0.3742031157016754	0.26613125	Yes	
row_29	CD151	NA	1260	0.36331871151924133	0.26877004	Yes	
row_30	EREG	NA	1377	0.3528344929218292	0.269388	Yes	
row_31	PPARGC1A	NA	1649	0.32856786251068115	0.26208937	Yes	
row_32	BDNF	NA	1777	0.3197363018989563	0.26159218	Yes	
row_33	LURAP1L	NA	1837	0.3150743842124939	0.2642981	Yes	
row_34	DGKA	NA	1862	0.31280723214149475	0.26865506	Yes	
row_35	TNFSF15	NA	2004	0.3041711449623108	0.26720697	Yes	
row_36	UNC5C	NA	2051	0.30081555247306824	0.27028954	Yes	
row_37	AKAP6	NA	2063	0.30015796422958374	0.27505147	Yes	
row_38	IFIT3	NA	2092	0.2984836995601654	0.27896258	Yes	
row_39	TSKU	NA	2239	0.29000312089920044	0.27702308	Yes	
row_40	DNAH6	NA	2277	0.2886645495891571	0.28032616	Yes	
row_41	IKZF2	NA	2281	0.28838837146759033	0.28526706	Yes	
row_42	GPX1	NA	2575	0.27335384488105774	0.2759318	Yes	
row_43	AGXT2	NA	2832	0.2612636983394623	0.26817095	Yes	
row_44	FIGN	NA	2970	0.25558674335479736	0.2660593	Yes	
row_45	NPR3	NA	3033	0.25306978821754456	0.26752684	Yes	
row_46	MACC1	NA	3049	0.2524237334728241	0.2712537	Yes	
row_47	C12orf42	NA	3095	0.2507087290287018	0.27350095	Yes	
row_48	ADAM15	NA	3124	0.24956607818603516	0.27654934	Yes	
row_49	TASL	NA	3154	0.24806204438209534	0.2795229	Yes	
row_50	RTL3	NA	3225	0.24509890377521515	0.28046334	Yes	
row_51	GNB4	NA	3261	0.2436850219964981	0.28306985	Yes	
row_52	MET	NA	3303	0.24229811131954193	0.285362	Yes	
row_53	CA10	NA	3528	0.2341851443052292	0.27866963	Yes	
row_54	MOV10	NA	3599	0.23190456628799438	0.2793774	Yes	
row_55	KLF14	NA	3610	0.23112645745277405	0.28297025	Yes	
row_56	TMEM59L	NA	3672	0.22919921576976776	0.28406513	Yes	
row_57	OTX1	NA	3750	0.2262668013572693	0.28433526	Yes	
row_58	RANGAP1	NA	3864	0.22242745757102966	0.28279838	Yes	
row_59	MEF2C	NA	3882	0.22172866761684418	0.28588733	Yes	
row_60	FGF9	NA	3980	0.2188470959663391	0.28506035	Yes	
row_61	TIFA	NA	4001	0.2183312028646469	0.2879444	Yes	
row_62	RTP4	NA	4022	0.21758325397968292	0.2908153	Yes	
row_63	SCN2A	NA	4143	0.21389220654964447	0.28878972	No	
row_64	IFIH1	NA	4399	0.20625747740268707	0.2801071	No	
row_65	EGFL6	NA	4651	0.19894704222679138	0.27148885	No	
row_66	PAX2	NA	5052	0.1878882348537445	0.25547677	No	
row_67	IFNL2	NA	5081	0.18726105988025665	0.2574264	No	
row_68	SORBS1	NA	5310	0.18040025234222412	0.24959227	No	
row_69	PIGR	NA	5409	0.17788325250148773	0.24799456	No	
row_70	KY	NA	5467	0.1760808825492859	0.24834593	No	
row_71	NECAP2	NA	5469	0.17604172229766846	0.25140217	No	
row_72	KYNU	NA	5478	0.17582504451274872	0.25411642	No	
row_73	PIGV	NA	5492	0.17555996775627136	0.2565844	No	
row_74	TMEM108	NA	5630	0.1720893830060959	0.25300026	No	
row_75	THBS1	NA	5711	0.17001141607761383	0.25213337	No	
row_76	IFIT2	NA	5831	0.16638906300067902	0.24931835	No	
row_77	KCNJ16	NA	5896	0.16512686014175415	0.24913834	No	
row_78	ASPA	NA	5923	0.16444388031959534	0.25078222	No	
row_79	TBX21	NA	5943	0.1638927161693573	0.25275457	No	
row_80	ESR1	NA	5955	0.16350877285003662	0.25510666	No	
row_81	CXCL10	NA	6122	0.15948647260665894	0.24989915	No	
row_82	IRF9	NA	6162	0.15830887854099274	0.25080675	No	
row_83	ST3GAL4	NA	6429	0.1515052169561386	0.24062712	No	
row_84	LRP2	NA	6460	0.15084132552146912	0.24183784	No	
row_85	EYA4	NA	6588	0.1477854996919632	0.23830824	No	
row_86	TNFRSF17	NA	6627	0.14688780903816223	0.23906274	No	
row_87	USP44	NA	6710	0.14491094648838043	0.23765656	No	
row_88	ZBP1	NA	6748	0.14372842013835907	0.23840365	No	
row_89	BCL11A	NA	6803	0.14225038886070251	0.23830335	No	
row_90	GATA6	NA	6885	0.14054392278194427	0.23686847	No	
row_91	GPR55	NA	6982	0.1385609209537506	0.23467392	No	
row_92	SEMA6D	NA	6997	0.13818180561065674	0.23643441	No	
row_93	CDH3	NA	7040	0.13704070448875427	0.236822	No	
row_94	ZEB2	NA	7180	0.1335933357477188	0.23246235	No	
row_95	OVOL1	NA	7438	0.12720751762390137	0.22228904	No	
row_96	PCDH7	NA	7439	0.12719863653182983	0.22453223	No	
row_97	SH2B3	NA	7562	0.12414849549531937	0.22082734	No	
row_98	TECR	NA	7716	0.12049957364797592	0.21556038	No	
row_99	ERBB2	NA	7877	0.11665122956037521	0.20988736	No	
row_100	MAP2	NA	7884	0.11643017828464508	0.21165076	No	
row_101	CACNA2D2	NA	8054	0.11185423284769058	0.20545831	No	
row_102	CRACR2B	NA	8173	0.10914596915245056	0.20168212	No	
row_103	PITX3	NA	8276	0.10678428411483765	0.19863728	No	
row_104	RBCK1	NA	8623	0.09858648478984833	0.1836593	No	
row_105	NPNT	NA	8643	0.0983048528432846	0.18447497	No	
row_106	PRKD2	NA	8693	0.09717036783695221	0.18382125	No	
row_107	MMP25	NA	8732	0.09592219442129135	0.18367694	No	
row_108	HPCAL1	NA	9038	0.08908596634864807	0.17051227	No	
row_109	GPHB5	NA	9057	0.08872407674789429	0.17120731	No	
row_110	KCNE4	NA	9076	0.08813676983118057	0.17189199	No	
row_111	ZNF385A	NA	9201	0.0851040631532669	0.16740191	No	
row_112	ANGPTL4	NA	9408	0.07996869087219238	0.15885954	No	
row_113	KCNIP3	NA	9420	0.0796874538064003	0.1597334	No	
row_114	CBX4	NA	9548	0.07641994953155518	0.15494524	No	
row_115	ARMCX6	NA	9649	0.07362180948257446	0.1514122	No	
row_116	DEPDC7	NA	9735	0.07135000824928284	0.14856382	No	
row_117	B2M	NA	9812	0.06948161125183105	0.1461173	No	
row_118	ETNK1	NA	9818	0.06939471513032913	0.14709952	No	
row_119	SLA	NA	9894	0.06763731688261032	0.1446688	No	
row_120	PARP9	NA	9931	0.06652604788541794	0.14410272	No	
row_121	NKX2-2	NA	10117	0.06184181943535805	0.13625526	No	
row_122	CELF3	NA	10177	0.06046067550778389	0.13447098	No	
row_123	STAT6	NA	10485	0.05363038554787636	0.12058443	No	
row_124	IL27	NA	10557	0.05194570869207382	0.11807023	No	
row_125	HEPH	NA	10773	0.0468938983976841	0.10850974	No	
row_126	ETV6	NA	10886	0.043825551867485046	0.10387147	No	
row_127	BATF2	NA	10954	0.04206561669707298	0.10137629	No	
row_128	ARHGEF6	NA	11054	0.03987954556941986	0.097296506	No	
row_129	IFI44	NA	11122	0.037904027849435806	0.09472793	No	
row_130	VXN	NA	11207	0.03594139590859413	0.09130341	No	
row_131	PGK1	NA	11331	0.03243102505803108	0.08593274	No	
row_132	SIX1	NA	11350	0.03185955435037613	0.08562495	No	
row_133	IFNL3	NA	11392	0.03096187300980091	0.0841901	No	
row_134	CAVIN2	NA	11451	0.029278000816702843	0.081904225	No	
row_135	IL1RAPL1	NA	11512	0.028206106275320053	0.07950282	No	
row_136	ANAPC1	NA	11520	0.02808091975748539	0.07965984	No	
row_137	CYB5B	NA	11914	0.018270965665578842	0.06099472	No	
row_138	PSMA5	NA	12027	0.015495781786739826	0.05585684	No	
row_139	ZNF296	NA	12039	0.015155592933297157	0.055592664	No	
row_140	TRIM21	NA	12089	0.013639743439853191	0.053465825	No	
row_141	IRF2	NA	12157	0.011721491813659668	0.050435513	No	
row_142	CXCR4	NA	12175	0.011376655660569668	0.04981481	No	
row_143	COL12A1	NA	12191	0.010908071883022785	0.04928247	No	
row_144	LINC01138	NA	12291	0.008463514968752861	0.044648655	No	
row_145	NPVF	NA	12349	0.006664338521659374	0.042012293	No	
row_146	CXXC4	NA	12520	0.0023062655236572027	0.033839613	No	
row_147	FAM117A	NA	12670	-0.001619449001736939	0.026669407	No	
row_148	ATXN7L1	NA	12680	-0.001957676140591502	0.026269108	No	
row_149	PRDM12	NA	12824	-0.005158273037523031	0.019451195	No	
row_150	CXCL11	NA	13022	-0.01154596358537674	0.010136985	No	
row_151	AIF1	NA	13067	-0.012946996837854385	0.008239501	No	
row_152	DDX60	NA	13100	-0.013917515054345131	0.006938899	No	
row_153	EHD4	NA	13147	-0.015488812699913979	0.0049896133	No	
row_154	RAD51AP1	NA	13220	-0.018043585121631622	0.0018292218	No	
row_155	ADD3	NA	13245	-0.018790438771247864	0.0010010661	No	
row_156	SH3BGRL	NA	13257	-0.01907353661954403	8.059828E-4	No	
row_157	KCNN3	NA	13262	-0.019288431853055954	9.528862E-4	No	
row_158	CDKN2C	NA	13277	-0.019528424367308617	6.2088354E-4	No	
row_159	PRDM16	NA	13340	-0.021010322496294975	-0.00200405	No	
row_160	HTR2C	NA	13396	-0.02273254469037056	-0.0042604143	No	
row_161	EPN1	NA	13656	-0.030243244022130966	-0.016240349	No	
row_162	PLAG1	NA	13682	-0.030872469767928123	-0.016903749	No	
row_163	JARID2	NA	13703	-0.031430136412382126	-0.017315742	No	
row_164	CRY1	NA	13729	-0.032093629240989685	-0.017957605	No	
row_165	WNT8B	NA	13775	-0.03364575281739235	-0.019538373	No	
row_166	KPNA3	NA	13845	-0.0358145572245121	-0.022240425	No	
row_167	FMR1	NA	13885	-0.03704743832349777	-0.02347132	No	
row_168	AMER1	NA	14050	-0.042749907821416855	-0.03064088	No	
row_169	DTX3L	NA	14102	-0.04428645595908165	-0.03232388	No	
row_170	BBX	NA	14127	-0.04522266611456871	-0.03268589	No	
row_171	MIA2	NA	14294	-0.05029093846678734	-0.039819088	No	
row_172	LMO1	NA	14339	-0.052297934889793396	-0.041022602	No	
row_173	ATP13A1	NA	14370	-0.053139202296733856	-0.04153489	No	
row_174	NUB1	NA	14391	-0.05373093858361244	-0.0415536	No	
row_175	GSDMD	NA	14429	-0.0549454540014267	-0.04237223	No	
row_176	NT5C3A	NA	14470	-0.05662301927804947	-0.043306213	No	
row_177	HMCN1	NA	14492	-0.057393137365579605	-0.043308657	No	
row_178	SLC24A1	NA	14560	-0.05930887535214424	-0.04549975	No	
row_179	SLC25A28	NA	14620	-0.061582423746585846	-0.047264237	No	
row_180	MAP3K11	NA	14775	-0.0670880675315857	-0.053521447	No	
row_181	PPP2R5C	NA	15011	-0.07590210437774658	-0.06353664	No	
row_182	HDAC4	NA	15202	-0.08267056941986084	-0.071258344	No	
row_183	YWHAG	NA	15224	-0.08325375616550446	-0.07080472	No	
row_184	TCF15	NA	15379	-0.08910354971885681	-0.07667368	No	
row_185	PARP8	NA	15436	-0.09123250842094421	-0.07777033	No	
row_186	PSMA3	NA	15488	-0.09308438003063202	-0.07859276	No	
row_187	PCGF5	NA	15525	-0.09434104710817337	-0.07866832	No	
row_188	TOP1	NA	15539	-0.09500915557146072	-0.07762088	No	
row_189	KDM4A	NA	15575	-0.09613898396492004	-0.077616416	No	
row_190	TCF7L2	NA	15622	-0.0978279560804367	-0.078113616	No	
row_191	RBM39	NA	15823	-0.10492604970932007	-0.085925974	No	
row_192	PURA	NA	15970	-0.1110328733921051	-0.09102169	No	
row_193	MED13	NA	16296	-0.12533406913280487	-0.10451338	No	
row_194	USP18	NA	16494	-0.1337839812040329	-0.11167187	No	
row_195	NUFIP2	NA	16563	-0.13742409646511078	-0.11253369	No	
row_196	GRIPAP1	NA	16807	-0.14758318662643433	-0.12167127	No	
row_197	MYB	NA	16835	-0.1490335315465927	-0.12034748	No	
row_198	SLC11A2	NA	16913	-0.15287713706493378	-0.1213716	No	
row_199	OSBP	NA	16942	-0.15443944931030273	-0.12000079	No	
row_200	CRK	NA	16971	-0.15575723350048065	-0.11860674	No	
row_201	FSBP	NA	16974	-0.1558624505996704	-0.11595467	No	
row_202	E2F3	NA	17016	-0.15756456553936005	-0.11515683	No	
row_203	CDK6	NA	17356	-0.17637845873832703	-0.12842472	No	
row_204	ZBTB7A	NA	17423	-0.18006804585456848	-0.12843786	No	
row_205	FYCO1	NA	17431	-0.1803974211215973	-0.12559469	No	
row_206	CREBZF	NA	17491	-0.18379521369934082	-0.12520391	No	
row_207	DHX58	NA	17495	-0.18392089009284973	-0.12210533	No	
row_208	EXOC6	NA	17515	-0.1848621368408203	-0.11976318	No	
row_209	ERC1	NA	17564	-0.1878693699836731	-0.118769094	No	
row_210	TSC22D2	NA	17599	-0.18953698873519897	-0.11706921	No	
row_211	FBXO11	NA	17991	-0.21200524270534515	-0.13222113	No	
row_212	RBPJ	NA	18064	-0.2169196754693985	-0.13187426	No	
row_213	TAPBP	NA	18076	-0.21772557497024536	-0.12856604	No	
row_214	ZER1	NA	18264	-0.23037120699882507	-0.13353805	No	
row_215	PKN2	NA	18278	-0.231951043009758	-0.13007559	No	
row_216	SSBP2	NA	18546	-0.2522769272327423	-0.13852638	No	
row_217	PRKACA	NA	18672	-0.26177242398262024	-0.13994916	No	
row_218	SIK3	NA	18728	-0.2667253017425537	-0.13790262	No	
row_219	BTAF1	NA	18851	-0.27757585048675537	-0.13890176	No	
row_220	ERG	NA	19021	-0.2955176532268524	-0.14185522	No	
row_221	BLNK	NA	19037	-0.2976534366607666	-0.1373307	No	
row_222	PROK2	NA	19086	-0.3031753897666931	-0.13430315	No	
row_223	MAP2K6	NA	19150	-0.3105088770389557	-0.13187099	No	
row_224	LCOR	NA	19203	-0.3160373270511627	-0.12880987	No	
row_225	APOOL	NA	19222	-0.3182276487350464	-0.12406745	No	
row_226	HOMER1	NA	19269	-0.3227675259113312	-0.12059776	No	
row_227	ARPP21	NA	19388	-0.339544415473938	-0.1203108	No	
row_228	RIPK2	NA	19400	-0.3406166136264801	-0.114835344	No	
row_229	CHKA	NA	19451	-0.34797927737236023	-0.11111429	No	
row_230	ZFPM1	NA	19552	-0.3630692958831787	-0.10954281	No	
row_231	C5orf51	NA	19668	-0.3819015324115753	-0.10836393	No	
row_232	USF1	NA	19713	-0.3896366059780121	-0.103618346	No	
row_233	NABP2	NA	19851	-0.41508838534355164	-0.1029171	No	
row_234	CCDC6	NA	19909	-0.42706015706062317	-0.09813962	No	
row_235	TNFSF13B	NA	19928	-0.4325258135795593	-0.09138151	No	
row_236	C12orf4	NA	19971	-0.4423324465751648	-0.085609995	No	
row_237	PIK3R3	NA	19998	-0.45078328251838684	-0.07891642	No	
row_238	IL4	NA	20124	-0.4852311313152313	-0.07639842	No	
row_239	MEIS1	NA	20186	-0.5004859566688538	-0.0705193	No	
row_240	SLC12A7	NA	20196	-0.5024069547653198	-0.062093984	No	
row_241	DUSP10	NA	20245	-0.5194763541221619	-0.05525189	No	
row_242	AMMECR1	NA	20282	-0.5359622836112976	-0.047539286	No	
row_243	PCDHGC3	NA	20297	-0.5416173934936523	-0.038664054	No	
row_244	RRBP1	NA	20334	-0.5532729625701904	-0.030646171	No	
row_245	IKZF3	NA	20390	-0.5790352821350098	-0.023091927	No	
row_246	PLXNC1	NA	20398	-0.5824692249298096	-0.013158058	No	
row_247	ST8SIA2	NA	20456	-0.6207730174064636	-0.0049643787	No	
row_248	LRATD2	NA	20630	-0.7776026129722595	3.9064395E-4	No	
row_249	MSX1	NA	20688	-0.8435613512992859	0.01251328	No	
