NAME	SYMBOL	TITLE	RANK IN GENE LIST	RANK METRIC SCORE	RUNNING ES	CORE ENRICHMENT	
row_0	PHACTR3	NA	26	1.7187036275863647	0.1173802	Yes	
row_1	H1-3	NA	266	0.7564422488212585	0.15814735	Yes	
row_2	H1-4	NA	497	0.5395784378051758	0.18437745	Yes	
row_3	H3C7	NA	686	0.46907180547714233	0.20775199	Yes	
row_4	H1-2	NA	700	0.46493789553642273	0.23921962	Yes	
row_5	CDK15	NA	901	0.4171750843524933	0.25843772	Yes	
row_6	DSCAM	NA	1344	0.3558463454246521	0.26183677	Yes	
row_7	H2BC9	NA	1690	0.32584449648857117	0.26780912	Yes	
row_8	H3C3	NA	1743	0.3219144642353058	0.28753808	Yes	
row_9	H2AC13	NA	1752	0.3212221562862396	0.30932584	Yes	
row_10	H3C4	NA	2174	0.29395732283592224	0.3094587	Yes	
row_11	H2BC8	NA	2200	0.2926962971687317	0.3284637	Yes	
row_12	H2AC14	NA	2545	0.27447643876075745	0.3309385	Yes	
row_13	SEZ6	NA	2957	0.2562044858932495	0.3289444	Yes	
row_14	H2BC14	NA	3281	0.24285441637039185	0.3302421	Yes	
row_15	NOTCH4	NA	3422	0.23791339993476868	0.33996016	Yes	
row_16	H3C12	NA	3454	0.23681582510471344	0.354821	Yes	
row_17	H4C1	NA	3579	0.2324608713388443	0.36492875	Yes	
row_18	H1-6	NA	3783	0.22513331472873688	0.3707485	Yes	
row_19	H3C8	NA	3960	0.2193659543991089	0.37746286	Yes	
row_20	H2AC16	NA	3998	0.2183946818113327	0.39076504	Yes	
row_21	H2AC7	NA	4004	0.2182593196630478	0.4055899	Yes	
row_22	H3C6	NA	4065	0.2163478285074234	0.41764966	Yes	
row_23	H2AC6	NA	4323	0.20846739411354065	0.41973376	Yes	
row_24	H2BC3	NA	4431	0.20520125329494476	0.42877397	Yes	
row_25	UBE2C	NA	4556	0.20175442099571228	0.43676236	Yes	
row_26	H1-5	NA	4827	0.1939588189125061	0.43722272	Yes	
row_27	PLXNB1	NA	4943	0.19066476821899414	0.44487658	Yes	
row_28	H3-4	NA	5674	0.17107106745243073	0.42173395	No	
row_29	ABTB2	NA	5826	0.166528582572937	0.42599836	No	
row_30	PCGF1	NA	6154	0.15852296352386475	0.42128396	No	
row_31	H1-1	NA	6759	0.14347615838050842	0.40226918	No	
row_32	H2BC5	NA	6956	0.1391194611787796	0.4024874	No	
row_33	CYBC1	NA	6963	0.13897114992141724	0.41179192	No	
row_34	H2AC15	NA	7526	0.12503400444984436	0.39351508	No	
row_35	H2BC17	NA	7714	0.12060139328241348	0.39288607	No	
row_36	H2BC6	NA	8053	0.11186180263757706	0.38442445	No	
row_37	H4C13	NA	8240	0.10747941583395004	0.38293764	No	
row_38	GBX2	NA	9259	0.08343374729156494	0.33995777	No	
row_39	TCF21	NA	9910	0.06717789173126221	0.31347457	No	
row_40	H2BC7	NA	10174	0.060538701713085175	0.30506137	No	
row_41	H2BC13	NA	10311	0.057545509189367294	0.30252194	No	
row_42	H2AC17	NA	10620	0.05055820196866989	0.29126546	No	
row_43	H2AC4	NA	11138	0.037356384098529816	0.26909158	No	
row_44	H2BC12	NA	11507	0.028339292854070663	0.25342894	No	
row_45	H2AC8	NA	11548	0.02730693854391575	0.2533986	No	
row_46	H2BC1	NA	12342	0.006838287226855755	0.21590437	No	
row_47	H2BC15	NA	12547	0.0016646351432427764	0.20625241	No	
row_48	H3C10	NA	13484	-0.02515248954296112	0.16317588	No	
row_49	ZBTB9	NA	14501	-0.0577157661318779	0.11851673	No	
row_50	H3C11	NA	14566	-0.05946679040789604	0.11955702	No	
row_51	H2BC11	NA	15374	-0.08893556147813797	0.08705888	No	
row_52	ZNF710	NA	15410	-0.09027891606092453	0.091614254	No	
row_53	H3C2	NA	15784	-0.10362935066223145	0.08090876	No	
row_54	H3C1	NA	16271	-0.12447590380907059	0.066232026	No	
row_55	PRRC2C	NA	16500	-0.13436827063560486	0.06459025	No	
row_56	H2BC21	NA	17036	-0.15865585207939148	0.049926665	No	
row_57	TMTC4	NA	17775	-0.19808927178382874	0.028265812	No	
row_58	H2AC11	NA	19131	-0.3085016906261444	-0.015314278	No	
row_59	H2BC4	NA	19309	-0.32822954654693604	-0.0011340325	No	
row_60	H2AW	NA	20828	-1.1519584655761719	0.005697404	No	
