NAME	SYMBOL	TITLE	RANK IN GENE LIST	RANK METRIC SCORE	RUNNING ES	CORE ENRICHMENT	
row_0	DUSP6	NA	9	2.101855516433716	0.1092549	Yes	
row_1	BHLHE40	NA	186	0.8882942199707031	0.14717573	Yes	
row_2	SIGLEC15	NA	282	0.7308977246284485	0.18076487	Yes	
row_3	TSPAN4	NA	482	0.5463424324989319	0.19973849	Yes	
row_4	CD151	NA	1260	0.36331871151924133	0.18145904	Yes	
row_5	SSTR5-AS1	NA	1533	0.3391914367675781	0.1861237	Yes	
row_6	HOXA10	NA	1560	0.33669623732566833	0.20244823	Yes	
row_7	NAV3	NA	1794	0.3186159133911133	0.20790832	Yes	
row_8	FLOT1	NA	1918	0.3092730641365051	0.21815282	Yes	
row_9	C1orf105	NA	1991	0.3049691915512085	0.23061702	Yes	
row_10	H4C11	NA	2050	0.30082520842552185	0.24353594	Yes	
row_11	H3C4	NA	2174	0.29395732283592224	0.2529812	Yes	
row_12	H2BC8	NA	2200	0.2926962971687317	0.26705748	Yes	
row_13	DLGAP1-AS2	NA	2381	0.28197312355041504	0.2731455	Yes	
row_14	GPX1	NA	2575	0.27335384488105774	0.27816063	Yes	
row_15	ITGB5	NA	2850	0.2603611946105957	0.27861565	Yes	
row_16	TRIB3	NA	3076	0.25144895911216736	0.28095403	Yes	
row_17	TMEM105	NA	3129	0.24936793744564056	0.29147518	Yes	
row_18	CXCL8	NA	3223	0.24515938758850098	0.29981172	Yes	
row_19	H3C12	NA	3454	0.23681582510471344	0.3011468	Yes	
row_20	STAT1	NA	3523	0.23432879149913788	0.31011632	Yes	
row_21	KRT7	NA	3827	0.22383473813533783	0.3072753	Yes	
row_22	AXL	NA	4064	0.21638299524784088	0.30725652	Yes	
row_23	NEAT1	NA	4580	0.20112155377864838	0.29306966	Yes	
row_24	EYS	NA	4624	0.1996634602546692	0.30142832	Yes	
row_25	LINC00513	NA	4643	0.19911232590675354	0.3109564	Yes	
row_26	C12orf57	NA	4700	0.1974477469921112	0.31857637	Yes	
row_27	AK5	NA	4946	0.1906241923570633	0.31678203	Yes	
row_28	EEPD1	NA	5182	0.18389277160167694	0.31511566	Yes	
row_29	H4C2	NA	5394	0.17828966677188873	0.31430715	Yes	
row_30	LINC02709	NA	5454	0.17647650837898254	0.32068896	Yes	
row_31	MYL12A	NA	5564	0.1738518476486206	0.32453743	Yes	
row_32	KRT8	NA	5726	0.16958153247833252	0.32567084	Yes	
row_33	KRT15	NA	6014	0.16183528304100037	0.3203612	No	
row_34	CP	NA	6322	0.15410318970680237	0.3136895	No	
row_35	IGF2BP2-AS1	NA	7596	0.12327229976654053	0.25911126	No	
row_36	ITGB1-DT	NA	7659	0.12194304913282394	0.26250345	No	
row_37	H2BC17	NA	7714	0.12060139328241348	0.266209	No	
row_38	PLAU	NA	7738	0.1198304295539856	0.27136007	No	
row_39	MALAT1	NA	8161	0.10938908159732819	0.25684333	No	
row_40	LINC01730	NA	8420	0.10322103649377823	0.24986477	No	
row_41	VMP1	NA	8596	0.09909069538116455	0.24664861	No	
row_42	LINC00886	NA	8818	0.09360762685537338	0.24094166	No	
row_43	MITD1	NA	9045	0.08900343626737595	0.2347548	No	
row_44	TBL1X	NA	9382	0.08070090413093567	0.22286269	No	
row_45	H3-3B	NA	9647	0.07370127737522125	0.21405606	No	
row_46	EHD1	NA	9665	0.07306928187608719	0.21705446	No	
row_47	H4C3	NA	9850	0.06866501271724701	0.21181917	No	
row_48	SSTR5	NA	10466	0.05408722162246704	0.18516654	No	
row_49	H2AC17	NA	10620	0.05055820196866989	0.18047209	No	
row_50	LY6K	NA	11121	0.037907157093286514	0.15848671	No	
row_51	HMGA2	NA	11306	0.03290500491857529	0.15138528	No	
row_52	ETS1	NA	11374	0.03139553219079971	0.14981255	No	
row_53	ERCC1	NA	11445	0.029455265030264854	0.14799479	No	
row_54	H2AC8	NA	11548	0.02730693854391575	0.14453124	No	
row_55	POLDIP3	NA	12074	0.014104475267231464	0.120105535	No	
row_56	UBC	NA	12216	0.010037414729595184	0.11387161	No	
row_57	H4C8	NA	12800	-0.004581189248710871	0.08616915	No	
row_58	MIR100HG	NA	13195	-0.01711566373705864	0.06817904	No	
row_59	RPS7	NA	13202	-0.01742006093263626	0.06880055	No	
row_60	ITGB1	NA	13309	-0.020246541127562523	0.06477685	No	
row_61	BRWD1-AS2	NA	13371	-0.021954452618956566	0.062998995	No	
row_62	PRAC2	NA	13763	-0.03315659984946251	0.04598977	No	
row_63	PVT1	NA	14249	-0.048856448382139206	0.025294699	No	
row_64	SRI	NA	14304	-0.05067361146211624	0.025351057	No	
row_65	ANAPC5	NA	14336	-0.0521431528031826	0.026586428	No	
row_66	BRWD1	NA	14467	-0.05656542629003525	0.02330779	No	
row_67	MRPL30	NA	14555	-0.05923030525445938	0.022229087	No	
row_68	CUL3	NA	14729	-0.06540114432573318	0.017350676	No	
row_69	COX16	NA	15006	-0.07574856281280518	0.008075754	No	
row_70	STX16	NA	15254	-0.08452876657247543	6.489182E-4	No	
row_71	SMAD3	NA	16427	-0.1307733803987503	-0.048697237	No	
row_72	WWTR1	NA	17475	-0.18270748853683472	-0.089342296	No	
row_73	SPRED2	NA	17674	-0.193193718791008	-0.088749975	No	
row_74	LTBP1	NA	18136	-0.22168616950511932	-0.099275604	No	
row_75	CLASP1	NA	18890	-0.2814585864543915	-0.12067671	No	
row_76	KMT2A	NA	18956	-0.2877216041088104	-0.1087771	No	
row_77	FEZ2	NA	19440	-0.3464677631855011	-0.11384534	No	
row_78	MED24	NA	19590	-0.3683156371116638	-0.101765774	No	
row_79	HDX	NA	19985	-0.44883111119270325	-0.09722663	No	
row_80	GRAMD1B	NA	20050	-0.46469220519065857	-0.0760438	No	
row_81	TRIB1	NA	20797	-1.0470417737960815	-0.057157125	No	
row_82	BEST3	NA	20854	-1.2321105003356934	0.0044571753	No	
