NAME	SYMBOL	TITLE	RANK IN GENE LIST	RANK METRIC SCORE	RUNNING ES	CORE ENRICHMENT	
row_0	EGR1	NA	156	0.9938011169433594	0.0646096	Yes	
row_1	HOXC6	NA	426	0.5942714810371399	0.09482683	Yes	
row_2	TINAG	NA	671	0.47252485156059265	0.117411114	Yes	
row_3	ARHGAP24	NA	895	0.4182703495025635	0.13706622	Yes	
row_4	LCT	NA	1089	0.387035995721817	0.15589301	Yes	
row_5	HOXA10	NA	1560	0.33669623732566833	0.15779842	Yes	
row_6	CNTD1	NA	1835	0.315115362405777	0.1675282	Yes	
row_7	LINC00671	NA	1950	0.30803608894348145	0.18440953	Yes	
row_8	HABP2	NA	2005	0.304138720035553	0.20388256	Yes	
row_9	UGT1A6	NA	2490	0.27651548385620117	0.20075221	Yes	
row_10	SGK2	NA	2665	0.2693311870098114	0.21195179	Yes	
row_11	GRB7	NA	2746	0.26572874188423157	0.22739327	Yes	
row_12	RBMS1	NA	2823	0.26169687509536743	0.24273394	Yes	
row_13	CFI	NA	2952	0.25649556517601013	0.2552062	Yes	
row_14	GLRA2	NA	2964	0.25573837757110596	0.27322862	Yes	
row_15	HCFC1R1	NA	3121	0.24968557059764862	0.28386557	Yes	
row_16	NRP2	NA	3185	0.24669179320335388	0.29874066	Yes	
row_17	AGT	NA	3468	0.23644989728927612	0.30238137	Yes	
row_18	SLC17A4	NA	4267	0.20995044708251953	0.27938023	Yes	
row_19	HNF1A	NA	4631	0.1995162069797516	0.27646163	Yes	
row_20	NFE2L2	NA	5114	0.18634483218193054	0.26688677	Yes	
row_21	EEPD1	NA	5182	0.18389277160167694	0.27701527	Yes	
row_22	HNF1B	NA	5194	0.1836063116788864	0.28980574	Yes	
row_23	COA3	NA	5243	0.18219569325447083	0.30072138	Yes	
row_24	PLA1A	NA	5422	0.1774688959121704	0.3050663	Yes	
row_25	COL9A1	NA	5482	0.17568601667881012	0.3149828	Yes	
row_26	HOXD4	NA	5703	0.1702072024345398	0.31678894	Yes	
row_27	G6PC	NA	5712	0.1698690801858902	0.32872674	Yes	
row_28	THAP11	NA	5940	0.1640409678220749	0.3297503	Yes	
row_29	GC	NA	5973	0.16296227276325226	0.34003738	Yes	
row_30	MITF	NA	6065	0.16085031628608704	0.34734476	Yes	
row_31	CLDN19	NA	6301	0.15483716130256653	0.3473175	Yes	
row_32	PLG	NA	6566	0.14828410744667053	0.3454256	Yes	
row_33	NPAS2	NA	6659	0.14613397419452667	0.3516177	Yes	
row_34	SLC25A45	NA	7309	0.13057802617549896	0.32999757	No	
row_35	IGFBP1	NA	7448	0.12704850733280182	0.33260164	No	
row_36	SERPING1	NA	7872	0.11679664999246597	0.32080874	No	
row_37	DLX1	NA	8088	0.11087676882743835	0.31855103	No	
row_38	MYRF	NA	8410	0.10352158546447754	0.31068176	No	
row_39	KRT25	NA	8645	0.09824462980031967	0.30659756	No	
row_40	ANXA13	NA	9135	0.08647968620061874	0.2894439	No	
row_41	SLC17A2	NA	9355	0.08113251626491547	0.28483713	No	
row_42	RNF186	NA	9385	0.08057580143213272	0.28929222	No	
row_43	TTR	NA	9415	0.07980738580226898	0.29369158	No	
row_44	CDH16	NA	9558	0.07608871161937714	0.29240778	No	
row_45	LPAL2	NA	9564	0.07588152587413788	0.29767212	No	
row_46	FGFR4	NA	9704	0.07195369899272919	0.2962321	No	
row_47	NR5A2	NA	9726	0.07153060287237167	0.30041438	No	
row_48	DZIP1L	NA	9794	0.06985592842102051	0.3022715	No	
row_49	HGFAC	NA	9840	0.0689346194267273	0.3051157	No	
row_50	SLC5A12	NA	10211	0.059808798134326935	0.29172838	No	
row_51	F13B	NA	10575	0.05144335329532623	0.27806965	No	
row_52	NCKAP5	NA	10759	0.0471467599272728	0.27272245	No	
row_53	DMD	NA	11877	0.019342420622706413	0.22061385	No	
row_54	GOLT1A	NA	11903	0.018529599532485008	0.2207602	No	
row_55	CARMIL3	NA	11966	0.01702604815363884	0.21902494	No	
row_56	ZBTB4	NA	13001	-0.011075259186327457	0.17029294	No	
row_57	THOC6	NA	13655	-0.030187280848622322	0.14119957	No	
row_58	BMI1	NA	13702	-0.031389057636260986	0.1412726	No	
row_59	COL16A1	NA	14055	-0.04290250688791275	0.12752135	No	
row_60	KCP	NA	14103	-0.0443023256957531	0.12848312	No	
row_61	RTN4	NA	14227	-0.04801527410745621	0.12607329	No	
row_62	CYP26A1	NA	14638	-0.06211428344249725	0.11093694	No	
row_63	HOXC4	NA	14731	-0.06549283117055893	0.11127991	No	
row_64	SLC23A1	NA	15890	-0.10738730430603027	0.06359328	No	
row_65	BCL9	NA	16028	-0.11333572119474411	0.065250635	No	
row_66	APOM	NA	17314	-0.17337852716445923	0.016266398	No	
row_67	POLR2A	NA	18139	-0.22182892262935638	-0.0071187117	No	
row_68	PDLIM5	NA	18247	-0.228763610124588	0.0043481207	No	
row_69	USP3	NA	18612	-0.2570078372955322	0.0055516143	No	
row_70	KMT2A	NA	18956	-0.2877216041088104	0.009988896	No	
row_71	LIPC	NA	19060	-0.300211101770401	0.02682963	No	
row_72	ACSL4	NA	19625	-0.3735928535461426	0.026908046	No	
row_73	SLC12A2	NA	20190	-0.5015165209770203	0.036265098	No	
