producer_class	xtools.gsea.Gsea
producer_timestamp	1617054325022
param	zip_report	false
param	num	100
param	scoring_scheme	weighted
param	norm	meandiv
param	out	/home/vant/gsea_home/output/mar29
param	mode	Max_probe
param	include_only_symbols	true
param	set_max	500
param	gmx	/home/vant/notch/rcel/gene_set_hortensia.grp
param	plot_top_x	20
param	nperm	1000
param	order	descending
param	rpt_label	filtradoHortensiaNew
param	rnd_seed	timestamp
param	set_min	15
param	res	/home/vant/notch/rcel/GSEA/esetG.gct
param	chip	/home/vant/notch/rcel/GSEA/GSE18198.chip
param	create_svgs	false
param	cls	/home/vant/notch/rcel/GSEA/phenotypesH.cls#Hcontrol_versus_Hprueba
param	sort	real
param	create_gcts	false
param	help	false
param	save_rnd_lists	false
param	median	false
param	metric	Signal2Noise
param	make_sets	true
param	rnd_type	no_balance
param	gui	false
param	permute	gene_set
param	collapse	Collapse

file	/home/vant/gsea_home/output/mar29/filtradoHortensiaNew.Gsea.1617054325022/index.html
