producer_class	xtools.gsea.Gsea
producer_timestamp	1616866319257
param	zip_report	false
param	num	100
param	scoring_scheme	weighted
param	norm	meandiv
param	out	/home/vant/gsea_home/output/mar27
param	mode	Max_probe
param	include_only_symbols	true
param	set_max	500
param	gmx	ftp.broadinstitute.org://pub/gsea/gene_sets/c3.tft.v7.3.symbols.gmt
param	plot_top_x	20
param	nperm	1000
param	order	descending
param	rpt_label	my_analysisG
param	rnd_seed	timestamp
param	set_min	15
param	res	/home/vant/notch/rcel/GSEA/esetG.gct
param	chip	/home/vant/notch/rcel/GSEA/GSE18198 (1).chip
param	create_svgs	false
param	cls	/home/vant/notch/rcel/GSEA/phenotypeG.cls#HPB_versus_KOP
param	sort	real
param	create_gcts	false
param	help	false
param	save_rnd_lists	false
param	median	false
param	metric	Signal2Noise
param	make_sets	true
param	rnd_type	no_balance
param	gui	false
param	permute	gene_set
param	collapse	Collapse

file	/home/vant/gsea_home/output/mar27/my_analysisG.Gsea.1616866319257/index.html
