NAME	SYMBOL	TITLE	RANK IN GENE LIST	RANK METRIC SCORE	RUNNING ES	CORE ENRICHMENT	
row_0	CD40LG	NA	375	0.2531340718269348	0.07471906	No	
row_1	IL4	NA	2332	0.11817736178636551	0.024471719	No	
row_2	IL5	NA	6963	0.03433840349316597	-0.18428008	No	
row_3	IL13	NA	7771	0.024285612627863884	-0.21396732	No	
row_4	HLA-DMB	NA	9692	0.0010860204929485917	-0.30534804	No	
row_5	HLA-DMA	NA	12412	-0.032790880650281906	-0.42331824	No	
row_6	IL10	NA	12517	-0.03411644697189331	-0.41580328	No	
row_7	CCL11	NA	13261	-0.044768497347831726	-0.43493474	Yes	
row_8	FCER1A	NA	13436	-0.04746048152446747	-0.42588207	Yes	
row_9	FCER1G	NA	13475	-0.04800564423203468	-0.41012895	Yes	
row_10	HLA-DOB	NA	14285	-0.06012003496289253	-0.42679676	Yes	
row_11	TNF	NA	14708	-0.06668166816234589	-0.42256403	Yes	
row_12	EPX	NA	15225	-0.07538536936044693	-0.41963914	Yes	
row_13	HLA-DQA1	NA	15547	-0.0812736228108406	-0.405238	Yes	
row_14	HLA-DQB1	NA	15810	-0.08625716716051102	-0.38619265	Yes	
row_15	HLA-DOA	NA	15885	-0.08771176636219025	-0.35762832	Yes	
row_16	CD40	NA	15994	-0.09006849676370621	-0.3298267	Yes	
row_17	MS4A2	NA	16198	-0.09436022490262985	-0.30499545	Yes	
row_18	HLA-DPA1	NA	16748	-0.10581770539283752	-0.2925101	Yes	
row_19	PRG2	NA	17187	-0.11583451926708221	-0.27105275	Yes	
row_20	IL3	NA	17237	-0.11726647615432739	-0.23047666	Yes	
row_21	IL9	NA	17424	-0.121346615254879	-0.19495605	Yes	
row_22	HLA-DRB1	NA	17543	-0.12358929216861725	-0.15536417	Yes	
row_23	HLA-DRA	NA	17865	-0.1319926381111145	-0.12240039	Yes	
row_24	HLA-DRB4	NA	18110	-0.13848000764846802	-0.08338159	Yes	
row_25	RNASE3	NA	18127	-0.13909295201301575	-0.033239815	Yes	
row_26	HLA-DRB5	NA	18431	-0.14817269146442413	0.006506129	Yes	
row_27	HLA-DPB1	NA	20735	-0.3107019364833832	0.010133823	Yes	
