NAME	SYMBOL	TITLE	RANK IN GENE LIST	RANK METRIC SCORE	RUNNING ES	CORE ENRICHMENT	
row_0	POLR3C	NA	304	0.27053460478782654	0.13019896	Yes	
row_1	POLR3A	NA	539	0.2235875278711319	0.23862822	Yes	
row_2	POLR3B	NA	706	0.20210447907447815	0.33881485	Yes	
row_3	POLR3G	NA	716	0.2010420262813568	0.44593754	Yes	
row_4	POLR3D	NA	1617	0.1429813802242279	0.47941035	Yes	
row_5	POLR3H	NA	2339	0.11800602078437805	0.50807786	Yes	
row_6	POLR1C	NA	2661	0.10905741900205612	0.55107766	Yes	
row_7	POLR1E	NA	3707	0.08557652682065964	0.54690933	Yes	
row_8	POLR1B	NA	3810	0.0838213637471199	0.58687633	Yes	
row_9	POLR3F	NA	5838	0.05003240704536438	0.51675427	No	
row_10	POLR2B	NA	6283	0.043772343546152115	0.51894873	No	
row_11	POLR2A	NA	8323	0.017306504771113396	0.43074545	No	
row_12	POLR1A	NA	8689	0.012892920523881912	0.4201963	No	
row_13	POLR1D	NA	8804	0.011400366201996803	0.42084616	No	
row_14	POLR2I	NA	9125	0.007892662659287453	0.4097729	No	
row_15	POLR2E	NA	9260	0.006272309459745884	0.4067234	No	
row_16	POLR2H	NA	9387	0.0046555278822779655	0.40319136	No	
row_17	POLR2D	NA	9513	0.003188458504155278	0.39892223	No	
row_18	POLR2G	NA	9567	0.0026171342469751835	0.397789	No	
row_19	POLR2L	NA	9796	-1.843490026658401E-4	0.3869895	No	
row_20	POLR2J3	NA	10168	-0.004705298691987991	0.37177336	No	
row_21	POLR3K	NA	11108	-0.01567789539694786	0.33527753	No	
row_22	POLR2J	NA	11455	-0.02019430510699749	0.3295426	No	
row_23	POLR3GL	NA	11526	-0.021290382370352745	0.33758655	No	
row_24	POLR2C	NA	12856	-0.03851471096277237	0.29466635	No	
row_25	POLR2K	NA	14960	-0.07086469978094101	0.23205635	No	
row_26	POLR2F	NA	16533	-0.10106540471315384	0.21098422	No	
