NAME	SYMBOL	TITLE	RANK IN GENE LIST	RANK METRIC SCORE	RUNNING ES	CORE ENRICHMENT	
row_0	CBLB	NA	394	0.24872177839279175	0.010014048	Yes	
row_1	SYVN1	NA	504	0.22805331647396088	0.031315044	Yes	
row_2	NEDD4	NA	526	0.22604934871196747	0.056610566	Yes	
row_3	DET1	NA	606	0.21321041882038116	0.077625625	Yes	
row_4	ERCC8	NA	640	0.20937523245811462	0.100404344	Yes	
row_5	HERC2	NA	1215	0.16449259221553802	0.09196939	Yes	
row_6	UBE2H	NA	1284	0.160073921084404	0.107329644	Yes	
row_7	PIAS3	NA	1508	0.14766055345535278	0.11379886	Yes	
row_8	HERC1	NA	1554	0.14525707066059113	0.1285399	Yes	
row_9	BRCA1	NA	1614	0.14309626817703247	0.14235692	Yes	
row_10	BTRC	NA	1693	0.13972124457359314	0.1548684	Yes	
row_11	CBL	NA	1694	0.13961341977119446	0.17111462	Yes	
row_12	UBE4A	NA	1812	0.13446356356143951	0.18114063	Yes	
row_13	ITCH	NA	1886	0.13201388716697693	0.19299544	Yes	
row_14	UBE2Q2	NA	1975	0.12888504564762115	0.20376554	Yes	
row_15	UBE2E2	NA	2182	0.1223742887377739	0.208109	Yes	
row_16	BIRC6	NA	2216	0.12161199748516083	0.2206751	Yes	
row_17	CDC23	NA	2476	0.1136402040719986	0.22145598	Yes	
row_18	PPIL2	NA	2520	0.11277547478675842	0.23251337	Yes	
row_19	FBXW7	NA	2523	0.11270008236169815	0.24553171	Yes	
row_20	FBXW11	NA	2642	0.10945775359869003	0.25259987	Yes	
row_21	CUL4A	NA	2775	0.1061219647526741	0.25860724	Yes	
row_22	KLHL9	NA	2888	0.10310494899749756	0.2652244	Yes	
row_23	CUL4B	NA	2943	0.1016896590590477	0.27446333	Yes	
row_24	MAP3K1	NA	2976	0.1008186787366867	0.2846578	Yes	
row_25	FBXO4	NA	2986	0.10068783164024353	0.29594204	Yes	
row_26	PML	NA	2987	0.10068769752979279	0.30765864	Yes	
row_27	AIRE	NA	3307	0.09347756952047348	0.30321077	Yes	
row_28	UBE3B	NA	3545	0.0885210707783699	0.30212557	Yes	
row_29	XIAP	NA	3733	0.0851977989077568	0.30305576	Yes	
row_30	ANAPC4	NA	3809	0.08384399116039276	0.30920917	Yes	
row_31	UBE2J1	NA	3823	0.08356411755084991	0.31830862	Yes	
row_32	HERC4	NA	3865	0.08276418596506119	0.32596982	Yes	
row_33	UBE2G2	NA	4204	0.07622269541025162	0.31860122	Yes	
row_34	UBE2K	NA	4290	0.07459772378206253	0.32319826	Yes	
row_35	UBE3C	NA	4350	0.07377690821886063	0.3289489	Yes	
row_36	WWP1	NA	4452	0.07169830799102783	0.33243984	Yes	
row_37	SMURF1	NA	4580	0.06976014375686646	0.33445618	Yes	
row_38	ANAPC2	NA	4592	0.06952808797359467	0.3420184	Yes	
row_39	UBA6	NA	4608	0.0692632868885994	0.34935763	Yes	
row_40	UBE2R2	NA	4753	0.06675834953784943	0.35020792	Yes	
row_41	TRIP12	NA	4901	0.06418053805828094	0.35061413	Yes	
row_42	CDC16	NA	4910	0.06403479725122452	0.35768124	Yes	
row_43	CUL2	NA	5140	0.060787297785282135	0.35375315	Yes	
row_44	MDM2	NA	5207	0.05958176031708717	0.35751563	Yes	
row_45	UBE3A	NA	5382	0.05678899586200714	0.35576457	Yes	
row_46	UBE2W	NA	5461	0.05547534301877022	0.3584727	Yes	
row_47	PIAS4	NA	5531	0.05433547869324684	0.36148056	Yes	
row_48	PRPF19	NA	5944	0.04851346090435982	0.34733245	No	
row_49	SMURF2	NA	6010	0.04771823063492775	0.34976247	No	
row_50	UBE2I	NA	6018	0.04761882126331329	0.3549674	No	
row_51	PIAS1	NA	6071	0.04698048159480095	0.3579361	No	
row_52	ANAPC7	NA	6249	0.04418403282761574	0.35457414	No	
row_53	CDC27	NA	6654	0.03862006962299347	0.33965912	No	
row_54	UBA7	NA	6743	0.03739045932888985	0.33978236	No	
row_55	UBE2D1	NA	6757	0.037252478301525116	0.34349272	No	
row_56	TRAF6	NA	6758	0.03724968433380127	0.34782732	No	
row_57	UBE2E3	NA	6850	0.035978369414806366	0.34764212	No	
row_58	PIAS2	NA	6869	0.035688020288944244	0.3509302	No	
row_59	ANAPC1	NA	6886	0.0354163758456707	0.3542828	No	
row_60	DDB1	NA	6907	0.03521047160029411	0.35741925	No	
row_61	TRIM37	NA	7050	0.03344470262527466	0.35448906	No	
row_62	CUL3	NA	7123	0.03236384689807892	0.35479605	No	
row_63	SIAH1	NA	7238	0.030843323096632957	0.35290834	No	
row_64	FANCL	NA	7366	0.02905386872589588	0.35018787	No	
row_65	UBR5	NA	7492	0.02758437767624855	0.34739247	No	
row_66	TRIM32	NA	7517	0.027222685515880585	0.34940723	No	
row_67	CUL5	NA	7611	0.02606539987027645	0.34797242	No	
row_68	RCHY1	NA	7793	0.02397116832435131	0.3420662	No	
row_69	MGRN1	NA	8001	0.021324196830391884	0.33460283	No	
row_70	SKP2	NA	8125	0.019606929272413254	0.33097523	No	
row_71	UBE2M	NA	8130	0.019545283168554306	0.33305746	No	
row_72	DDB2	NA	8314	0.01738634519279003	0.32628888	No	
row_73	UBE2G1	NA	8356	0.016750534996390343	0.32626835	No	
row_74	UBE2E1	NA	8427	0.015966352075338364	0.32476333	No	
row_75	UBE2D3	NA	8651	0.013397809118032455	0.31560895	No	
row_76	RNF7	NA	8768	0.011869322508573532	0.31141722	No	
row_77	UBE2QL1	NA	8771	0.011851070448756218	0.3127002	No	
row_78	UBE2Z	NA	8780	0.011677440255880356	0.31367472	No	
row_79	ELOC	NA	8782	0.011672555468976498	0.31498495	No	
row_80	SOCS1	NA	8909	0.010162862949073315	0.31011423	No	
row_81	KEAP1	NA	8915	0.010108986869454384	0.3110504	No	
row_82	COP1	NA	9202	0.006950248032808304	0.29811904	No	
row_83	ANAPC13	NA	9216	0.006802075542509556	0.29828602	No	
row_84	UBE2J2	NA	9376	0.00473402813076973	0.2911982	No	
row_85	CUL1	NA	9528	0.0030367965810000896	0.28429717	No	
row_86	SAE1	NA	9614	0.0021240857895463705	0.28046075	No	
row_87	UBE2Q1	NA	9749	3.3669022377580404E-4	0.27406228	No	
row_88	UBA2	NA	9751	3.227257402613759E-4	0.2740518	No	
row_89	UBE2L6	NA	9955	-0.002162934048101306	0.2645509	No	
row_90	FBXW8	NA	10411	-0.007553269155323505	0.2435706	No	
row_91	NEDD4L	NA	10485	-0.008553162217140198	0.24105881	No	
row_92	FZR1	NA	10556	-0.009333237074315548	0.23878191	No	
row_93	MID1	NA	10571	-0.009472671896219254	0.23921162	No	
row_94	UBE2C	NA	10705	-0.011100644245743752	0.23411374	No	
row_95	VHL	NA	10865	-0.013097293674945831	0.22799909	No	
row_96	SKP1	NA	10882	-0.013257998041808605	0.22877319	No	
row_97	BIRC2	NA	10917	-0.013635176233947277	0.22872642	No	
row_98	UBA1	NA	11102	-0.015651876106858253	0.22170798	No	
row_99	UBE2A	NA	11164	-0.01650286838412285	0.22069778	No	
row_100	HUWE1	NA	11236	-0.01748291775584221	0.21932119	No	
row_101	KLHL13	NA	11248	-0.017625894397497177	0.22084378	No	
row_102	ANAPC5	NA	11333	-0.01863561011850834	0.21897677	No	
row_103	FBXO2	NA	11335	-0.01865404285490513	0.22109942	No	
row_104	UBA3	NA	11365	-0.01899329386651516	0.22191636	No	
row_105	UBE4B	NA	11490	-0.020679032430052757	0.21836545	No	
row_106	UBOX5	NA	11812	-0.02514469251036644	0.20586985	No	
row_107	UBE2D2	NA	11975	-0.027101755142211914	0.20124073	No	
row_108	UBE2N	NA	12229	-0.03037429228425026	0.19262056	No	
row_109	CDC20	NA	12610	-0.03541022166609764	0.17848504	No	
row_110	UBE2F	NA	12663	-0.03625641390681267	0.18020584	No	
row_111	CDC26	NA	12768	-0.03752319887280464	0.17957586	No	
row_112	BIRC3	NA	12878	-0.038823869079351425	0.17885703	No	
row_113	RHOBTB2	NA	13164	-0.043196696788072586	0.17019159	No	
row_114	CUL7	NA	13280	-0.04507092386484146	0.16991144	No	
row_115	UBE2O	NA	13298	-0.04528627544641495	0.17436449	No	
row_116	UBE2L3	NA	13719	-0.05126338452100754	0.16015205	No	
row_117	ANAPC10	NA	13757	-0.05193985998630524	0.1644185	No	
row_118	UBE2S	NA	13829	-0.052969347685575485	0.16717133	No	
row_119	UBE2NL	NA	13893	-0.05396043881773949	0.1704238	No	
row_120	STUB1	NA	14167	-0.05817801505327225	0.16407819	No	
row_121	UBE2B	NA	14301	-0.06035987287759781	0.1647124	No	
row_122	CBLC	NA	14329	-0.06095889210700989	0.17050879	No	
row_123	PRKN	NA	14441	-0.06270719319581985	0.17247307	No	
row_124	ANAPC11	NA	15567	-0.08171828091144562	0.12793471	No	
row_125	ELOB	NA	15888	-0.08776446431875229	0.12277397	No	
row_126	RBX1	NA	16421	-0.09849255532026291	0.10867664	No	
row_127	CDC34	NA	16428	-0.09861113876104355	0.119863346	No	
row_128	WWP2	NA	16974	-0.11083582788705826	0.106577806	No	
row_129	UBE2D4	NA	18175	-0.14058759808540344	0.06528666	No	
row_130	SOCS3	NA	18597	-0.15360896289348602	0.06293569	No	
row_131	HERC3	NA	19785	-0.20231983065605164	0.029452614	No	
row_132	UBE2U	NA	20135	-0.22622264921665192	0.039010435	No	
