NAME	SYMBOL	TITLE	RANK IN GENE LIST	RANK METRIC SCORE	RUNNING ES	CORE ENRICHMENT	
row_0	NAIP	NA	1289	0.1596994400024414	-0.037371308	No	
row_1	TAB3	NA	1446	0.15117238461971283	-0.021795623	No	
row_2	PSTPIP1	NA	1471	0.14943142235279083	-1.6530772E-4	No	
row_3	CXCL1	NA	1620	0.1428518295288086	0.01452502	No	
row_4	NFKBIB	NA	2137	0.12353343516588211	0.008650981	No	
row_5	TAB1	NA	2668	0.10892140120267868	-1.2082922E-4	No	
row_6	RELA	NA	2822	0.10483008623123169	0.008534047	No	
row_7	ERBIN	NA	3063	0.0990985855460167	0.01214974	No	
row_8	IKBKB	NA	3099	0.09819897264242172	0.025443483	No	
row_9	XIAP	NA	3733	0.0851977989077568	0.008123701	No	
row_10	TRIP6	NA	3883	0.08235811442136765	0.013544453	No	
row_11	CHUK	NA	4007	0.08007949590682983	0.019862704	No	
row_12	TAB2	NA	4040	0.07922255992889404	0.03040731	No	
row_13	MAPK9	NA	4317	0.07425183802843094	0.028511707	No	
row_14	CASP1	NA	5063	0.06193065270781517	0.002282624	No	
row_15	MAPK8	NA	5261	0.058623816817998886	0.0017871165	No	
row_16	CARD8	NA	5391	0.05671526864171028	0.004256438	No	
row_17	NFKB1	NA	5403	0.05638217180967331	0.0123247	No	
row_18	MAPK14	NA	6250	0.04417698457837105	-0.021446537	No	
row_19	HSP90AB1	NA	6261	0.04401048645377159	-0.015216344	No	
row_20	SUGT1	NA	6599	0.03940247371792793	-0.025345018	No	
row_21	TRAF6	NA	6758	0.03724968433380127	-0.027231531	No	
row_22	MAPK1	NA	7428	0.02819935791194439	-0.05496383	No	
row_23	CCL8	NA	7595	0.02624303475022316	-0.058911238	No	
row_24	MAP3K7	NA	7810	0.023792022839188576	-0.065530464	No	
row_25	PYCARD	NA	8968	0.009679275564849377	-0.11945091	No	
row_26	NOD2	NA	9865	-0.0010456076124683022	-0.16219106	No	
row_27	HSP90B1	NA	10408	-0.007459920831024647	-0.18700427	No	
row_28	BIRC2	NA	10917	-0.013635176233947277	-0.20924823	No	
row_29	IL1B	NA	11500	-0.020867053419351578	-0.2339328	No	
row_30	HSP90AA1	NA	11569	-0.021852850914001465	-0.2338573	No	
row_31	MAPK11	NA	11654	-0.02304714359343052	-0.23436582	No	
row_32	CCL2	NA	12443	-0.03318198025226593	-0.26703617	No	
row_33	BIRC3	NA	12878	-0.038823869079351425	-0.2818973	No	
row_34	MAPK13	NA	12970	-0.04030058532953262	-0.28011084	No	
row_35	IKBKG	NA	13150	-0.04300569370388985	-0.28212535	No	
row_36	CCL11	NA	13261	-0.044768497347831726	-0.28056753	No	
row_37	CARD9	NA	13756	-0.0518927201628685	-0.29630917	No	
row_38	MAPK3	NA	13911	-0.05419960245490074	-0.29542032	No	
row_39	NOD1	NA	14587	-0.06484097242355347	-0.31785423	No	
row_40	TNF	NA	14708	-0.06668166816234589	-0.3134347	No	
row_41	IL18	NA	15197	-0.07504013180732727	-0.32536048	No	
row_42	CASP8	NA	15543	-0.0812368094921112	-0.32949492	No	
row_43	PYDC1	NA	16330	-0.09676217287778854	-0.35237733	No	
row_44	CARD18	NA	17776	-0.12952478229999542	-0.4018176	Yes	
row_45	NLRP3	NA	18160	-0.14019730687141418	-0.39878348	Yes	
row_46	NLRC4	NA	18380	-0.14627313613891602	-0.386971	Yes	
row_47	CCL5	NA	18489	-0.14986258745193481	-0.3692968	Yes	
row_48	TNFAIP3	NA	18546	-0.1522132009267807	-0.34877455	Yes	
row_49	CCL13	NA	18600	-0.1537039875984192	-0.3278814	Yes	
row_50	MAPK12	NA	18672	-0.15613453090190887	-0.3074796	Yes	
row_51	CXCL2	NA	18681	-0.15641739964485168	-0.28401825	Yes	
row_52	NFKBIA	NA	19170	-0.17445312440395355	-0.28078946	Yes	
row_53	CCL7	NA	19231	-0.1765936017036438	-0.25674218	Yes	
row_54	CARD6	NA	19234	-0.17667388916015625	-0.22990565	Yes	
row_55	IL6	NA	19274	-0.17829039692878723	-0.20459424	Yes	
row_56	MAPK10	NA	19410	-0.18372884392738342	-0.18305017	Yes	
row_57	CASP5	NA	19841	-0.20508722960948944	-0.17237452	Yes	
row_58	RIPK2	NA	20015	-0.21734526753425598	-0.14752534	Yes	
row_59	CXCL8	NA	20697	-0.30069801211357117	-0.13429233	Yes	
row_60	NLRP1	NA	20913	-0.4583498239517212	-0.07471521	Yes	
row_61	MEFV	NA	20927	-0.5004908442497253	9.5746963E-4	Yes	
