NAME	SYMBOL	TITLE	RANK IN GENE LIST	RANK METRIC SCORE	RUNNING ES	CORE ENRICHMENT	
row_0	BCAT1	NA	16	0.6304901242256165	0.37415925	Yes	
row_1	BCAT2	NA	1416	0.15279904007911682	0.39818636	Yes	
row_2	PPCDC	NA	2760	0.10648214817047119	0.3973463	Yes	
row_3	ENPP3	NA	3258	0.09454558044672012	0.42982465	Yes	
row_4	DPYD	NA	4015	0.07992415875196457	0.44123495	Yes	
row_5	PANK2	NA	4124	0.07768826186656952	0.48227304	Yes	
row_6	PANK3	NA	7851	0.023248765617609024	0.31809303	No	
row_7	VNN2	NA	8083	0.020230906084179878	0.31908768	No	
row_8	PPCS	NA	9317	0.005492162890732288	0.2634486	No	
row_9	COASY	NA	9935	-0.0018266597762703896	0.23505843	No	
row_10	PANK4	NA	10212	-0.005222348030656576	0.22497837	No	
row_11	UPB1	NA	11513	-0.021125292405486107	0.17543475	No	
row_12	PANK1	NA	13543	-0.049047838896512985	0.107668325	No	
row_13	DPYS	NA	15968	-0.08934260904788971	0.044992726	No	
row_14	ENPP1	NA	17911	-0.13309483230113983	0.031361513	No	
row_15	VNN1	NA	19559	-0.19108885526657104	0.06630995	No	
