NAME	SYMBOL	TITLE	RANK IN GENE LIST	RANK METRIC SCORE	RUNNING ES	CORE ENRICHMENT	
row_0	POLR3C	NA	304	0.27053460478782654	0.028558929	No	
row_1	POLR3A	NA	539	0.2235875278711319	0.052987278	No	
row_2	POLR3B	NA	706	0.20210447907447815	0.07724692	No	
row_3	POLR3G	NA	716	0.2010420262813568	0.10885138	No	
row_4	POLR3D	NA	1617	0.1429813802242279	0.0885603	No	
row_5	NFKBIB	NA	2137	0.12353343516588211	0.08340517	No	
row_6	POLR3H	NA	2339	0.11800602078437805	0.092588946	No	
row_7	POLR1C	NA	2661	0.10905741900205612	0.09460353	No	
row_8	IFNA8	NA	2752	0.10676795244216919	0.1073091	No	
row_9	RELA	NA	2822	0.10483008623123169	0.120710954	No	
row_10	RIPK1	NA	2885	0.10312104970216751	0.13417551	No	
row_11	IKBKB	NA	3099	0.09819897264242172	0.13962878	No	
row_12	IRF7	NA	3200	0.09579529613256454	0.15010731	No	
row_13	CHUK	NA	4007	0.08007949590682983	0.12429197	No	
row_14	ADAR	NA	4047	0.07904469221830368	0.13502085	No	
row_15	STING1	NA	4297	0.07454165816307068	0.13498145	No	
row_16	CASP1	NA	5063	0.06193065270781517	0.10823646	No	
row_17	MAVS	NA	5146	0.06064159423112869	0.11397488	No	
row_18	TBK1	NA	5392	0.05670488625764847	0.1112847	No	
row_19	NFKB1	NA	5403	0.05638217180967331	0.11979037	No	
row_20	POLR3F	NA	5838	0.05003240704536438	0.106991306	No	
row_21	IKBKE	NA	6713	0.037831712514162064	0.07118944	No	
row_22	IFNA2	NA	8061	0.02052551694214344	0.0099918265	No	
row_23	POLR1D	NA	8804	0.011400366201996803	-0.023704162	No	
row_24	PYCARD	NA	8968	0.009679275564849377	-0.029963091	No	
row_25	TREX1	NA	10947	-0.0139316376298666	-0.122411475	No	
row_26	POLR3K	NA	11108	-0.01567789539694786	-0.12757097	No	
row_27	CXCL10	NA	11408	-0.019615966826677322	-0.13875557	No	
row_28	IL1B	NA	11500	-0.020867053419351578	-0.13978581	No	
row_29	POLR3GL	NA	11526	-0.021290382370352745	-0.1375898	No	
row_30	IRF3	NA	11647	-0.022871466353535652	-0.1396886	No	
row_31	IKBKG	NA	13150	-0.04300569370388985	-0.20472248	No	
row_32	IL33	NA	13888	-0.05389760434627533	-0.23140742	No	
row_33	IL18	NA	15197	-0.07504013180732727	-0.28205177	No	
row_34	ZBP1	NA	15495	-0.08050274848937988	-0.28343862	No	
row_35	RIPK3	NA	15607	-0.08262156695127487	-0.27558574	No	
row_36	CCL4	NA	16412	-0.09840653091669083	-0.29838502	No	
row_37	IFNA5	NA	17439	-0.12150714546442032	-0.32812837	Yes	
row_38	IFNA1	NA	17488	-0.12255311757326126	-0.31089735	Yes	
row_39	DDX58	NA	18069	-0.1372242420911789	-0.3167904	Yes	
row_40	IFNA13	NA	18253	-0.14282631874084473	-0.30279014	Yes	
row_41	CCL5	NA	18489	-0.14986258745193481	-0.2901574	Yes	
row_42	IFNA6	NA	18521	-0.1513584554195404	-0.26752275	Yes	
row_43	NFKBIA	NA	19170	-0.17445312440395355	-0.27073807	Yes	
row_44	IL6	NA	19274	-0.17829039692878723	-0.24725787	Yes	
row_45	IFNA17	NA	19372	-0.1820288896560669	-0.2228948	Yes	
row_46	IFNA10	NA	19445	-0.18530716001987457	-0.19681284	Yes	
row_47	IFNB1	NA	19585	-0.19237495958805084	-0.17281133	Yes	
row_48	IFNA21	NA	19941	-0.21211117506027222	-0.15600282	Yes	
row_49	IFNA16	NA	20062	-0.22016169130802155	-0.12666425	Yes	
row_50	AIM2	NA	20261	-0.23733973503112793	-0.09832156	Yes	
row_51	IFNA7	NA	20494	-0.2636072039604187	-0.06742052	Yes	
row_52	IFNA14	NA	20590	-0.2791847884654999	-0.027480349	Yes	
row_53	IFNA4	NA	20592	-0.2793837785720825	0.016990429	Yes	
