NAME	SYMBOL	TITLE	RANK IN GENE LIST	RANK METRIC SCORE	RUNNING ES	CORE ENRICHMENT	
row_0	PMEPA1	NA	108	1.1535730361938477	0.07655722	No	
row_1	P2RX5	NA	485	0.5453237295150757	0.097205356	No	
row_2	DTX1	NA	2097	0.29814913868904114	0.041271705	No	
row_3	E2F5	NA	2569	0.2735474109649658	0.038122375	No	
row_4	SLC29A1	NA	2960	0.2560953199863434	0.03761098	No	
row_5	RITA1	NA	7168	0.1339380443096161	-0.15412487	No	
row_6	DHX37	NA	11739	0.022567126899957657	-0.3711132	No	
row_7	EVL	NA	12924	-0.008725719526410103	-0.4271268	No	
row_8	APRT	NA	14877	-0.07112210243940353	-0.5154541	No	
row_9	AEN	NA	15000	-0.07521072030067444	-0.5159613	No	
row_10	TASP1	NA	15510	-0.09368778020143509	-0.53367007	No	
row_11	CR2	NA	16289	-0.12511247396469116	-0.5620191	No	
row_12	IFRD2	NA	16537	-0.13597968220710754	-0.5642001	No	
row_13	NOP16	NA	16816	-0.1483737975358963	-0.5669858	No	
row_14	TRMT1	NA	17177	-0.16562876105308533	-0.5724712	Yes	
row_15	MRTO4	NA	17344	-0.17559100687503815	-0.56797165	Yes	
row_16	MYC	NA	17513	-0.1847473531961441	-0.56291914	Yes	
row_17	FKBP4	NA	17554	-0.1873750388622284	-0.5515581	Yes	
row_18	CCDC86	NA	17623	-0.1911332607269287	-0.5412701	Yes	
row_19	AKAP13	NA	17672	-0.1931259036064148	-0.5298843	Yes	
row_20	MRPL4	NA	17958	-0.20954518020153046	-0.5286712	Yes	
row_21	SHQ1	NA	18366	-0.23741723597049713	-0.5313189	Yes	
row_22	WDR3	NA	18551	-0.25237640738487244	-0.52224064	Yes	
row_23	FARSB	NA	18679	-0.2625037431716919	-0.50971854	Yes	
row_24	SRM	NA	18798	-0.27238062024116516	-0.4960662	Yes	
row_25	IGF1R	NA	18897	-0.2825165390968323	-0.4807392	Yes	
row_26	ESF1	NA	19356	-0.33470895886421204	-0.47893387	Yes	
row_27	MYBBP1A	NA	19423	-0.34416669607162476	-0.45770878	Yes	
row_28	LZTFL1	NA	19559	-0.3642330467700958	-0.43836248	Yes	
row_29	TCOF1	NA	19804	-0.4068043529987335	-0.42121384	Yes	
row_30	PUS7	NA	19896	-0.4255211651325226	-0.39542112	Yes	
row_31	GPATCH4	NA	19904	-0.42626211047172546	-0.3655581	Yes	
row_32	PWP2	NA	20155	-0.49365466833114624	-0.34254366	Yes	
row_33	MCRIP2	NA	20191	-0.5017692446708679	-0.30867076	Yes	
row_34	TMEM131L	NA	20233	-0.515624463558197	-0.27410325	Yes	
row_35	PCBP3	NA	20400	-0.5842437148094177	-0.24065343	Yes	
row_36	PPRC1	NA	20475	-0.6277581453323364	-0.19972043	Yes	
row_37	VARS1	NA	20481	-0.6306647658348083	-0.1552812	Yes	
row_38	NOTCH3	NA	20584	-0.7256640791893005	-0.10875149	Yes	
row_39	HES1	NA	20611	-0.7529000043869019	-0.056657154	Yes	
row_40	RHOU	NA	20785	-1.0259356498718262	0.0077487957	Yes	
