NAME	SYMBOL	TITLE	RANK IN GENE LIST	RANK METRIC SCORE	RUNNING ES	CORE ENRICHMENT	
row_0	P2RX5	NA	485	0.5453237295150757	0.042312995	No	
row_1	E2F5	NA	2569	0.2735474109649658	-0.02438955	No	
row_2	SLC29A1	NA	2960	0.2560953199863434	-0.012272348	No	
row_3	EVL	NA	12924	-0.008725719526410103	-0.48739892	No	
row_4	APRT	NA	14877	-0.07112210243940353	-0.57215166	No	
row_5	TASP1	NA	15510	-0.09368778020143509	-0.59110576	No	
row_6	CR2	NA	16289	-0.12511247396469116	-0.6132637	No	
row_7	IFRD2	NA	16537	-0.13597968220710754	-0.6087378	No	
row_8	TRMT1	NA	17177	-0.16562876105308533	-0.6193864	Yes	
row_9	MYC	NA	17513	-0.1847473531961441	-0.61320937	Yes	
row_10	FKBP4	NA	17554	-0.1873750388622284	-0.59261745	Yes	
row_11	AKAP13	NA	17672	-0.1931259036064148	-0.575015	Yes	
row_12	MRPL4	NA	17958	-0.20954518020153046	-0.56347007	Yes	
row_13	SHQ1	NA	18366	-0.23741723597049713	-0.5544086	Yes	
row_14	WDR3	NA	18551	-0.25237640738487244	-0.5328924	Yes	
row_15	SRM	NA	18798	-0.27238062024116516	-0.51193696	Yes	
row_16	IGF1R	NA	18897	-0.2825165390968323	-0.48269066	Yes	
row_17	MYBBP1A	NA	19423	-0.34416669607162476	-0.46644837	Yes	
row_18	LZTFL1	NA	19559	-0.3642330467700958	-0.4291563	Yes	
row_19	TCOF1	NA	19804	-0.4068043529987335	-0.391961	Yes	
row_20	PCBP3	NA	20400	-0.5842437148094177	-0.3502311	Yes	
row_21	PPRC1	NA	20475	-0.6277581453323364	-0.2783743	Yes	
row_22	NOTCH3	NA	20584	-0.7256640791893005	-0.19638404	Yes	
row_23	HES1	NA	20611	-0.7529000043869019	-0.10720362	Yes	
row_24	RHOU	NA	20785	-1.0259356498718262	0.007742557	Yes	
